EESchema Schematic File Version 4
EELAYER 30 0
EELAYER END
$Descr A4 11693 8268
encoding utf-8
Sheet 1 6
Title "FrosTool LoRa"
Date ""
Rev "1C"
Comp ""
Comment1 "fandres7_7"
Comment2 "mau_rinc2010"
Comment3 "CC BY-SA"
Comment4 ""
$EndDescr
$Sheet
S 10000 1250 550  200 
U 5C727FE3
F0 "MEMORIA SD" 50
F1 "MEMORIA SD.sch" 50
$EndSheet
$Sheet
S 10000 1800 500  200 
U 5C718128
F0 "PANTALLA LCD" 50
F1 "PANTALLA LCD.sch" 50
$EndSheet
$Sheet
S 10000 2200 500  150 
U 5C71C12A
F0 "LORA" 50
F1 "LORA.sch" 50
$EndSheet
$Comp
L power:GNDD #PWR01
U 1 1 5C726076
P 1400 4450
F 0 "#PWR01" H 1400 4200 50  0001 C CNN
F 1 "GNDD" H 1404 4295 50  0000 C CNN
F 2 "" H 1400 4450 50  0001 C CNN
F 3 "" H 1400 4450 50  0001 C CNN
	1    1400 4450
	0    -1   -1   0   
$EndComp
$Sheet
S 10000 2650 550  200 
U 5C727A15
F0 "POWER_SUPLY" 50
F1 "POWER_SUPLY.sch" 50
$EndSheet
Text GLabel 3750 4000 0    50   Input ~ 0
LCD_LED
Text GLabel 5550 5800 3    50   Input ~ 0
SD_MOSI
Text GLabel 5350 5800 3    50   Input ~ 0
SD_MISO
Text GLabel 5450 5800 3    50   Input ~ 0
SD_CLK
Text Notes 3350 4050 2    50   ~ 0
LCD_LED\n
Text Notes 5550 6600 1    50   ~ 0
MEMORIA SD\nSPI_1\n
Text Notes 3000 3850 0    50   ~ 0
SIRENA\n
Wire Notes Line
	4000 3850 2500 3850
Text GLabel 3750 3800 0    50   Input ~ 0
SIRENA
Text GLabel 6950 2300 2    50   Input ~ 0
CPU_3.3v
Text GLabel 6950 2400 2    50   Input ~ 0
CPU_1.8v
Wire Wire Line
	6950 2500 6850 2500
Wire Wire Line
	6750 2600 6850 2600
Wire Wire Line
	6850 2600 6850 2500
Connection ~ 6850 2500
Wire Wire Line
	6850 2500 6750 2500
Wire Wire Line
	6950 2400 6750 2400
Text GLabel 6250 1100 1    50   Input ~ 0
RST
Wire Wire Line
	6250 1100 6250 1400
Wire Wire Line
	6950 2300 6750 2300
$Comp
L power:GNDD #PWR06
U 1 1 5EC67C1A
P 6950 2700
F 0 "#PWR06" H 6950 2450 50  0001 C CNN
F 1 "GNDD" V 6954 2590 50  0000 R CNN
F 2 "" H 6950 2700 50  0001 C CNN
F 3 "" H 6950 2700 50  0001 C CNN
	1    6950 2700
	0    -1   -1   0   
$EndComp
Wire Wire Line
	6950 2700 6900 2700
Wire Wire Line
	6750 2800 6900 2800
Wire Wire Line
	6900 2800 6900 2700
Connection ~ 6900 2700
Wire Wire Line
	6900 2700 6750 2700
$Comp
L power:GNDD #PWR05
U 1 1 5EC75FB0
P 4550 1100
F 0 "#PWR05" H 4550 850 50  0001 C CNN
F 1 "GNDD" H 4554 945 50  0000 C CNN
F 2 "" H 4550 1100 50  0001 C CNN
F 3 "" H 4550 1100 50  0001 C CNN
	1    4550 1100
	-1   0    0    1   
$EndComp
Wire Wire Line
	4550 1100 4550 1400
Text GLabel 3750 3900 0    50   Input ~ 0
BOOT
Wire Wire Line
	3750 3900 4000 3900
$Comp
L Connector:Conn_01x06_Female J1
U 1 1 5ECA3F54
P 900 4150
F 0 "J1" H 792 4535 50  0000 C CNN
F 1 "ISP BUS" H 792 4444 50  0000 C CNN
F 2 "Connector_PinSocket_1.27mm:PinSocket_1x06_P1.27mm_Vertical" H 900 4150 50  0001 C CNN
F 3 "~" H 900 4150 50  0001 C CNN
	1    900  4150
	-1   0    0    -1  
$EndComp
Text GLabel 1900 4250 2    50   Input ~ 0
RX
Text GLabel 1900 4350 2    50   Input ~ 0
TX
Text GLabel 1900 4150 2    50   Input ~ 0
BOOT
Text GLabel 1900 4050 2    50   Input ~ 0
RST
Wire Wire Line
	1100 4450 1400 4450
Text GLabel 3750 2700 0    50   Input ~ 0
ISP_RX
Text GLabel 3750 2800 0    50   Input ~ 0
TX
Wire Wire Line
	3750 2800 4000 2800
Wire Wire Line
	4000 2700 3750 2700
Wire Wire Line
	4650 5300 4650 4900
Wire Wire Line
	4550 4900 4550 5300
Text GLabel 7000 3700 2    50   Input ~ 0
LCD_CLK
Text GLabel 7000 3800 2    50   Input ~ 0
LCD_DC
Text GLabel 7000 3900 2    50   Input ~ 0
LCD_RST
Text GLabel 7000 4000 2    50   Input ~ 0
LCD_CS
Wire Wire Line
	6750 4000 7000 4000
Wire Wire Line
	4750 5300 4750 4900
Wire Wire Line
	4000 3800 3750 3800
Wire Notes Line
	4000 2850 2500 2850
Wire Notes Line
	2500 2850 2500 2650
Wire Notes Line
	2500 2650 4000 2650
Wire Notes Line
	4000 2650 4000 2850
Text Notes 3100 2800 0    50   ~ 0
ISP\n
Wire Wire Line
	4000 4000 3750 4000
Wire Notes Line
	2500 3950 4000 3950
Text GLabel 5550 1100 1    50   Input ~ 0
LCD_MISO
Text GLabel 5450 1100 1    50   Input ~ 0
LCD_MOSI
Wire Wire Line
	7000 3500 6750 3500
Wire Wire Line
	7000 3600 6750 3600
Text GLabel 7000 3200 2    50   Input ~ 0
LORA_MOSI
Text GLabel 7000 3300 2    50   Input ~ 0
LORA_MISO
Text GLabel 7000 3400 2    50   Input ~ 0
LORA_SCK
Text GLabel 7000 3100 2    50   Input ~ 0
LORA_CS
Wire Wire Line
	7000 3300 6750 3300
Text GLabel 7000 3000 2    50   Input ~ 0
LORA_IRQ
Text GLabel 7000 2900 2    50   Input ~ 0
LORA_RST
Wire Notes Line
	6750 3450 8000 3450
Wire Notes Line
	8000 2850 6750 2850
Wire Notes Line
	6750 4050 8000 4050
Text Notes 7600 3200 0    50   ~ 0
LORA\nSPI_3\n\n
Text Notes 7500 4000 0    50   ~ 0
LCD\nSPI_0\n\n
Text GLabel 5650 5800 3    50   Input ~ 0
SD_CS
Wire Notes Line
	5300 6650 5300 5600
Wire Notes Line
	5700 6650 5700 5600
Wire Wire Line
	5450 1100 5450 1400
Wire Wire Line
	5550 1100 5550 1400
Wire Notes Line
	8000 4050 8000 3650
Wire Notes Line
	8000 3650 6750 3650
Wire Notes Line
	6750 3650 6750 4050
Wire Notes Line
	6750 3450 6750 2850
Wire Notes Line
	8000 2850 8000 3450
Wire Notes Line
	5600 1250 5400 1250
Wire Notes Line
	5400 1250 5400 500 
Wire Notes Line
	5400 500  5600 500 
Wire Notes Line
	5600 500  5600 1250
Text Notes 5400 600  0    50   ~ 0
SPI_0
Wire Wire Line
	1100 4350 1900 4350
Wire Wire Line
	1100 4250 1900 4250
Wire Wire Line
	1100 4150 1900 4150
Wire Wire Line
	1100 4050 1900 4050
$Comp
L Device:R R2
U 1 1 5EC1169B
P 1350 5150
F 0 "R2" V 1143 5150 50  0000 C CNN
F 1 "1k" V 1234 5150 50  0000 C CNN
F 2 "Resistor_SMD:R_1206_3216Metric" V 1280 5150 50  0001 C CNN
F 3 "~" H 1350 5150 50  0001 C CNN
	1    1350 5150
	0    1    1    0   
$EndComp
$Comp
L Device:R R4
U 1 1 5EC1244D
P 2050 5150
F 0 "R4" V 1843 5150 50  0000 C CNN
F 1 "1k" V 1934 5150 50  0000 C CNN
F 2 "Resistor_SMD:R_1206_3216Metric" V 1980 5150 50  0001 C CNN
F 3 "~" H 2050 5150 50  0001 C CNN
	1    2050 5150
	0    1    1    0   
$EndComp
$Comp
L Device:C C4
U 1 1 5EC12AFF
P 2050 5600
F 0 "C4" V 1798 5600 50  0000 C CNN
F 1 "100nF" V 1889 5600 50  0000 C CNN
F 2 "Capacitor_SMD:C_1206_3216Metric" H 2088 5450 50  0001 C CNN
F 3 "~" H 2050 5600 50  0001 C CNN
	1    2050 5600
	0    1    1    0   
$EndComp
$Comp
L Device:C C2
U 1 1 5EC1337C
P 1350 5600
F 0 "C2" V 1098 5600 50  0000 C CNN
F 1 "100nF" V 1189 5600 50  0000 C CNN
F 2 "Capacitor_SMD:C_1206_3216Metric" H 1388 5450 50  0001 C CNN
F 3 "~" H 1350 5600 50  0001 C CNN
	1    1350 5600
	0    1    1    0   
$EndComp
Wire Wire Line
	1500 5150 1650 5150
Wire Wire Line
	1900 5600 1650 5600
Wire Wire Line
	1650 5600 1650 5150
Connection ~ 1650 5600
Wire Wire Line
	1650 5600 1500 5600
Connection ~ 1650 5150
Wire Wire Line
	1650 5150 1900 5150
Wire Wire Line
	1200 5150 1000 5150
Wire Wire Line
	1000 5150 1000 5350
Wire Wire Line
	1000 5600 1200 5600
Wire Wire Line
	2200 5600 2400 5600
Wire Wire Line
	2400 5600 2400 5400
Wire Wire Line
	2400 5150 2200 5150
$Comp
L power:GNDD #PWR02
U 1 1 5EC1BC6A
P 2550 5400
F 0 "#PWR02" H 2550 5150 50  0001 C CNN
F 1 "GNDD" V 2554 5290 50  0000 R CNN
F 2 "" H 2550 5400 50  0001 C CNN
F 3 "" H 2550 5400 50  0001 C CNN
	1    2550 5400
	0    -1   -1   0   
$EndComp
Wire Wire Line
	2550 5400 2400 5400
Connection ~ 2400 5400
Wire Wire Line
	2400 5400 2400 5150
Text GLabel 800  5350 0    50   Input ~ 0
TX
Wire Wire Line
	800  5350 1000 5350
Connection ~ 1000 5350
Wire Wire Line
	1000 5350 1000 5600
Text GLabel 1650 5000 1    50   Input ~ 0
ISP_RX
Wire Wire Line
	1650 5000 1650 5150
$Comp
L Device:R R5
U 1 1 5EC2AFE1
P 5350 5150
F 0 "R5" H 5250 5350 50  0000 L CNN
F 1 "22" H 5250 4950 50  0000 L CNN
F 2 "Resistor_SMD:R_1206_3216Metric" V 5280 5150 50  0001 C CNN
F 3 "~" H 5350 5150 50  0001 C CNN
	1    5350 5150
	1    0    0    -1  
$EndComp
$Comp
L Device:R R7
U 1 1 5EC2B8A8
P 5450 5150
F 0 "R7" H 5400 5350 50  0000 L CNN
F 1 "22" H 5400 4950 50  0000 L CNN
F 2 "Resistor_SMD:R_1206_3216Metric" V 5380 5150 50  0001 C CNN
F 3 "~" H 5450 5150 50  0001 C CNN
	1    5450 5150
	1    0    0    -1  
$EndComp
$Comp
L Device:R R8
U 1 1 5EC2BEE7
P 5550 5150
F 0 "R8" H 5500 5350 50  0000 L CNN
F 1 "22" H 5500 4950 50  0000 L CNN
F 2 "Resistor_SMD:R_1206_3216Metric" V 5480 5150 50  0001 C CNN
F 3 "~" H 5550 5150 50  0001 C CNN
	1    5550 5150
	1    0    0    -1  
$EndComp
Wire Wire Line
	5350 5300 5350 5800
Wire Wire Line
	5450 5300 5450 5800
Wire Wire Line
	5550 5300 5550 5800
Wire Wire Line
	5650 4900 5650 5800
Wire Wire Line
	5350 5000 5350 4900
Wire Wire Line
	5450 4900 5450 5000
Wire Wire Line
	5550 4900 5550 5000
Wire Notes Line
	4000 4050 2500 4050
Wire Notes Line
	4000 4050 4000 3750
Wire Notes Line
	4000 3750 2500 3750
Wire Notes Line
	2500 3750 2500 4050
$Comp
L Device:R R1
U 1 1 5EC47EA0
P 1150 6850
F 0 "R1" H 1100 7050 50  0000 L CNN
F 1 "2K" H 1100 6650 50  0000 L CNN
F 2 "Resistor_SMD:R_1206_3216Metric" V 1080 6850 50  0001 C CNN
F 3 "~" H 1150 6850 50  0001 C CNN
	1    1150 6850
	1    0    0    -1  
$EndComp
$Comp
L Device:R R3
U 1 1 5EC476B5
P 1400 6850
F 0 "R3" H 1350 7050 50  0000 L CNN
F 1 "2K" H 1350 6650 50  0000 L CNN
F 2 "Resistor_SMD:R_1206_3216Metric" V 1330 6850 50  0001 C CNN
F 3 "~" H 1400 6850 50  0001 C CNN
	1    1400 6850
	1    0    0    -1  
$EndComp
Text GLabel 5750 5800 3    50   Input ~ 0
I2C1_SCL
Text GLabel 5850 5800 3    50   Input ~ 0
I2C1_SDA
Wire Wire Line
	5850 4900 5850 5800
Wire Wire Line
	5750 4900 5750 5800
Wire Wire Line
	1150 7000 1150 7100
Wire Wire Line
	1150 7100 1300 7100
Wire Wire Line
	1400 7100 1400 7000
Text GLabel 1300 7200 3    50   Input ~ 0
CPU_3.3
Wire Wire Line
	1300 7200 1300 7100
Connection ~ 1300 7100
Wire Wire Line
	1300 7100 1400 7100
Text GLabel 1400 6400 1    50   Input ~ 0
I2C1_SDA
Text GLabel 1150 6400 1    50   Input ~ 0
I2C1_SCL
Wire Wire Line
	1400 6400 1400 6500
Wire Notes Line
	950  5950 950  7600
Wire Wire Line
	3750 3200 4000 3200
Wire Wire Line
	4000 3100 3750 3100
Wire Wire Line
	3750 3000 4000 3000
Wire Wire Line
	4000 2900 3750 2900
Text GLabel 3750 3700 0    50   Input ~ 0
EN_3.3
Wire Wire Line
	3750 3700 4000 3700
Text Notes 5850 6550 1    50   ~ 0
I2C RTC\n
Wire Notes Line
	5900 5600 5900 6650
Wire Notes Line
	5300 5600 5900 5600
Wire Notes Line
	5300 6650 5900 6650
Wire Wire Line
	4850 5300 4850 4900
Wire Wire Line
	4950 4900 4950 5300
Wire Wire Line
	5050 4900 5050 5300
Wire Wire Line
	5150 4900 5150 5300
Wire Wire Line
	5250 4900 5250 5300
Wire Wire Line
	5950 5300 5950 4900
Wire Wire Line
	6050 4900 6050 5300
Wire Wire Line
	6150 5300 6150 4900
Wire Wire Line
	6250 4900 6250 5300
Wire Wire Line
	6400 4800 6400 4700
$Comp
L power:GNDD #PWR031
U 1 1 5ED62BA4
P 4400 4800
F 0 "#PWR031" H 4400 4550 50  0001 C CNN
F 1 "GNDD" H 4404 4645 50  0000 C CNN
F 2 "" H 4400 4800 50  0001 C CNN
F 3 "" H 4400 4800 50  0001 C CNN
	1    4400 4800
	1    0    0    -1  
$EndComp
Wire Wire Line
	4400 4800 4400 4700
$Comp
L Connector:Conn_01x06_Male J10
U 1 1 5ED6BF16
P 3550 3100
F 0 "J10" H 3500 3050 50  0000 C CNN
F 1 "BANCK1" V 3400 3050 50  0000 C CNN
F 2 "Connector_PinHeader_1.27mm:PinHeader_1x06_P1.27mm_Vertical" H 3550 3100 50  0001 C CNN
F 3 "~" H 3550 3100 50  0001 C CNN
	1    3550 3100
	1    0    0    -1  
$EndComp
Wire Wire Line
	3750 3300 4000 3300
Wire Wire Line
	4000 3400 3750 3400
$Comp
L Sipeed:K210 U1
U 1 1 5EC1E159
P 5450 3150
F 0 "U1" H 5400 3250 50  0000 L CNN
F 1 "K210" H 5400 3150 50  0000 L CNN
F 2 "Module:SIPEED_M1_K210" H 6250 4100 50  0001 C CNN
F 3 "" H 6250 4100 50  0001 C CNN
	1    5450 3150
	1    0    0    -1  
$EndComp
$Comp
L power:GNDD #PWR032
U 1 1 5ED7A629
P 6400 4800
F 0 "#PWR032" H 6400 4550 50  0001 C CNN
F 1 "GNDD" H 6404 4645 50  0000 C CNN
F 2 "" H 6400 4800 50  0001 C CNN
F 3 "" H 6400 4800 50  0001 C CNN
	1    6400 4800
	1    0    0    -1  
$EndComp
$Comp
L Connector:Conn_01x06_Male J11
U 1 1 5ED7C72C
P 4750 5500
F 0 "J11" V 4800 5850 50  0000 R CNN
F 1 "BANCK3" V 4700 6100 50  0000 R CNN
F 2 "Connector_PinHeader_1.27mm:PinHeader_1x06_P1.27mm_Vertical" H 4750 5500 50  0001 C CNN
F 3 "~" H 4750 5500 50  0001 C CNN
	1    4750 5500
	0    -1   -1   0   
$EndComp
$Comp
L Connector:Conn_01x02_Male J12
U 1 1 5ED7E2B9
P 5150 5500
F 0 "J12" V 5100 5550 50  0000 R CNN
F 1 "BANK4" V 5050 5650 50  0000 R CNN
F 2 "Connector_PinHeader_1.27mm:PinHeader_1x02_P1.27mm_Vertical" H 5150 5500 50  0001 C CNN
F 3 "~" H 5150 5500 50  0001 C CNN
	1    5150 5500
	0    -1   -1   0   
$EndComp
$Comp
L Connector:Conn_01x02_Male J13
U 1 1 5ED7F20E
P 7200 3600
F 0 "J13" H 7172 3482 50  0000 R CNN
F 1 "BANK6" H 7172 3573 50  0000 R CNN
F 2 "Connector_PinHeader_1.27mm:PinHeader_1x02_P1.27mm_Vertical" H 7200 3600 50  0001 C CNN
F 3 "~" H 7200 3600 50  0001 C CNN
	1    7200 3600
	-1   0    0    1   
$EndComp
$Comp
L Connector:Conn_01x04_Male J9
U 1 1 5ED80370
P 3550 2400
F 0 "J9" H 3658 2681 50  0000 C CNN
F 1 "BANK" H 3658 2590 50  0000 C CNN
F 2 "Connector_PinHeader_1.27mm:PinHeader_1x04_P1.27mm_Vertical" H 3550 2400 50  0001 C CNN
F 3 "~" H 3550 2400 50  0001 C CNN
	1    3550 2400
	1    0    0    -1  
$EndComp
Wire Wire Line
	3750 2300 4000 2300
Wire Wire Line
	4000 2400 3750 2400
Wire Wire Line
	3750 2500 4000 2500
Wire Wire Line
	4000 2600 3750 2600
Wire Wire Line
	3750 3500 4000 3500
Wire Wire Line
	4000 3600 3750 3600
$Comp
L Connector:Conn_01x04_Male J4
U 1 1 5ED9C670
P 1450 1100
F 0 "J4" H 1422 982 50  0000 R CNN
F 1 "5VOLTIOS" H 1422 1073 50  0000 R CNN
F 2 "Connector_PinSocket_1.27mm:PinSocket_1x04_P1.27mm_Vertical" H 1450 1100 50  0001 C CNN
F 3 "~" H 1450 1100 50  0001 C CNN
	1    1450 1100
	-1   0    0    1   
$EndComp
$Comp
L power:+5V #PWR07
U 1 1 5ED9DC12
P 1050 800
F 0 "#PWR07" H 1050 650 50  0001 C CNN
F 1 "+5V" H 1065 973 50  0000 C CNN
F 2 "" H 1050 800 50  0001 C CNN
F 3 "" H 1050 800 50  0001 C CNN
	1    1050 800 
	1    0    0    -1  
$EndComp
Wire Wire Line
	1050 800  1050 900 
Wire Wire Line
	1050 1200 1250 1200
Wire Wire Line
	1250 1100 1050 1100
Connection ~ 1050 1100
Wire Wire Line
	1050 1100 1050 1200
Wire Wire Line
	1250 1000 1050 1000
Connection ~ 1050 1000
Wire Wire Line
	1050 1000 1050 1100
Wire Wire Line
	1250 900  1050 900 
Connection ~ 1050 900 
Wire Wire Line
	1050 900  1050 1000
$Comp
L Connector:Conn_01x04_Male J5
U 1 1 5EDB02CF
P 1500 1700
F 0 "J5" H 1472 1582 50  0000 R CNN
F 1 "3.3 VOLTIOS EXTER" H 1472 1673 50  0000 R CNN
F 2 "Connector_PinSocket_1.27mm:PinSocket_1x04_P1.27mm_Vertical" H 1500 1700 50  0001 C CNN
F 3 "~" H 1500 1700 50  0001 C CNN
	1    1500 1700
	-1   0    0    1   
$EndComp
$Comp
L power:+3.3V #PWR027
U 1 1 5EDB136A
P 1050 1450
F 0 "#PWR027" H 1050 1300 50  0001 C CNN
F 1 "+3.3V" H 1065 1623 50  0000 C CNN
F 2 "" H 1050 1450 50  0001 C CNN
F 3 "" H 1050 1450 50  0001 C CNN
	1    1050 1450
	1    0    0    -1  
$EndComp
Wire Wire Line
	1050 1450 1050 1500
Wire Wire Line
	1050 1800 1300 1800
Wire Wire Line
	1300 1700 1050 1700
Connection ~ 1050 1700
Wire Wire Line
	1050 1700 1050 1800
Wire Wire Line
	1300 1600 1050 1600
Connection ~ 1050 1600
Wire Wire Line
	1050 1600 1050 1700
Wire Wire Line
	1300 1500 1050 1500
Connection ~ 1050 1500
Wire Wire Line
	1050 1500 1050 1600
$Comp
L Connector:Conn_01x04_Male J6
U 1 1 5EDC4117
P 1500 2300
F 0 "J6" H 1472 2182 50  0000 R CNN
F 1 "3.3 VOLTIOS CPU" H 1472 2273 50  0000 R CNN
F 2 "Connector_PinSocket_1.27mm:PinSocket_1x04_P1.27mm_Vertical" H 1500 2300 50  0001 C CNN
F 3 "~" H 1500 2300 50  0001 C CNN
	1    1500 2300
	-1   0    0    1   
$EndComp
Text GLabel 1050 2100 0    50   Input ~ 0
CPU_3.3v
Wire Wire Line
	1050 2100 1150 2100
Wire Wire Line
	1300 2400 1150 2400
Wire Wire Line
	1150 2400 1150 2300
Connection ~ 1150 2100
Wire Wire Line
	1150 2100 1300 2100
Wire Wire Line
	1300 2200 1150 2200
Connection ~ 1150 2200
Wire Wire Line
	1150 2200 1150 2100
Wire Wire Line
	1300 2300 1150 2300
Connection ~ 1150 2300
Wire Wire Line
	1150 2300 1150 2200
$Comp
L Connector:Conn_01x04_Male J7
U 1 1 5EDD96C3
P 1500 2800
F 0 "J7" H 1472 2682 50  0000 R CNN
F 1 "1.8 VOLTIOS CPU" H 1472 2773 50  0000 R CNN
F 2 "Connector_PinSocket_1.27mm:PinSocket_1x04_P1.27mm_Vertical" H 1500 2800 50  0001 C CNN
F 3 "~" H 1500 2800 50  0001 C CNN
	1    1500 2800
	-1   0    0    1   
$EndComp
Text GLabel 1050 2600 0    50   Input ~ 0
CPU_1.8v
Wire Wire Line
	1050 2600 1150 2600
Wire Wire Line
	1300 2900 1150 2900
Wire Wire Line
	1150 2900 1150 2800
Connection ~ 1150 2600
Wire Wire Line
	1150 2600 1300 2600
Wire Wire Line
	1300 2700 1150 2700
Connection ~ 1150 2700
Wire Wire Line
	1150 2700 1150 2600
Wire Wire Line
	1300 2800 1150 2800
Connection ~ 1150 2800
Wire Wire Line
	1150 2800 1150 2700
$Comp
L power:+5V #PWR033
U 1 1 5EDF2282
P 6950 2500
F 0 "#PWR033" H 6950 2350 50  0001 C CNN
F 1 "+5V" V 6965 2628 50  0000 L CNN
F 2 "" H 6950 2500 50  0001 C CNN
F 3 "" H 6950 2500 50  0001 C CNN
	1    6950 2500
	0    1    1    0   
$EndComp
$Comp
L Diode:1N4007 D5
U 1 1 5EDF3159
P 1400 3950
F 0 "D5" H 1400 3734 50  0000 C CNN
F 1 "1N4007" H 1400 3825 50  0000 C CNN
F 2 "Diode_SMD:D_SOD-123" H 1400 3775 50  0001 C CNN
F 3 "http://www.vishay.com/docs/88503/1n4001.pdf" H 1400 3950 50  0001 C CNN
	1    1400 3950
	-1   0    0    1   
$EndComp
$Comp
L power:+5V #PWR029
U 1 1 5EDF48B3
P 1900 3950
F 0 "#PWR029" H 1900 3800 50  0001 C CNN
F 1 "+5V" V 1915 4078 50  0000 L CNN
F 2 "" H 1900 3950 50  0001 C CNN
F 3 "" H 1900 3950 50  0001 C CNN
	1    1900 3950
	0    1    1    0   
$EndComp
Wire Wire Line
	1900 3950 1550 3950
Wire Wire Line
	1250 3950 1100 3950
$Sheet
S 10000 750  550  300 
U 5EE01CDA
F0 "BOTONES" 50
F1 "BOTONES.sch" 50
$EndSheet
$Comp
L Connector:Conn_01x02_Male J8
U 1 1 5EE5C884
P 1600 6950
F 0 "J8" V 1400 6950 50  0000 R CNN
F 1 "I2C" V 1500 7000 50  0000 R CNN
F 2 "Connector_PinSocket_2.54mm:PinSocket_1x02_P2.54mm_Vertical" H 1600 6950 50  0001 C CNN
F 3 "~" H 1600 6950 50  0001 C CNN
	1    1600 6950
	0    -1   -1   0   
$EndComp
Wire Wire Line
	1600 6750 1600 6600
Wire Wire Line
	1600 6600 1150 6600
Connection ~ 1150 6600
Wire Wire Line
	1150 6600 1150 6700
Wire Wire Line
	1150 6400 1150 6600
Wire Wire Line
	1700 6750 1700 6500
Wire Wire Line
	1700 6500 1400 6500
Connection ~ 1400 6500
Wire Wire Line
	1400 6500 1400 6700
Wire Notes Line
	1800 7600 1800 5950
Wire Notes Line
	950  7600 1800 7600
Wire Notes Line
	950  5950 1800 5950
Text Notes 1500 7400 0    50   ~ 0
I2C\n
$Comp
L Device:LED D?
U 1 1 5EE7A567
P 10650 4950
AR Path="/5C727A15/5EE7A567" Ref="D?"  Part="1" 
AR Path="/5EE7A567" Ref="D7"  Part="1" 
F 0 "D7" V 10688 4833 50  0000 R CNN
F 1 "LED" V 10597 4833 50  0000 R CNN
F 2 "LED_SMD:LED_1206_3216Metric" H 10650 4950 50  0001 C CNN
F 3 "~" H 10650 4950 50  0001 C CNN
	1    10650 4950
	0    -1   -1   0   
$EndComp
$Comp
L Device:R R?
U 1 1 5EE7A56D
P 10650 4550
AR Path="/5C727A15/5EE7A56D" Ref="R?"  Part="1" 
AR Path="/5EE7A56D" Ref="R15"  Part="1" 
F 0 "R15" H 10720 4596 50  0000 L CNN
F 1 "330" H 10720 4505 50  0000 L CNN
F 2 "Resistor_SMD:R_1206_3216Metric" V 10580 4550 50  0001 C CNN
F 3 "~" H 10650 4550 50  0001 C CNN
	1    10650 4550
	1    0    0    -1  
$EndComp
Wire Wire Line
	10650 4700 10650 4800
$Comp
L power:GNDD #PWR?
U 1 1 5EE7A574
P 10650 5300
AR Path="/5C727A15/5EE7A574" Ref="#PWR?"  Part="1" 
AR Path="/5EE7A574" Ref="#PWR048"  Part="1" 
F 0 "#PWR048" H 10650 5050 50  0001 C CNN
F 1 "GNDD" H 10654 5145 50  0000 C CNN
F 2 "" H 10650 5300 50  0001 C CNN
F 3 "" H 10650 5300 50  0001 C CNN
	1    10650 5300
	1    0    0    -1  
$EndComp
Wire Wire Line
	10650 5300 10650 5100
Text Notes 11000 4900 1    50   ~ 0
LED RUN \n\n
Text GLabel 10650 3900 1    50   Input ~ 0
LED_RUN
Wire Wire Line
	10650 3900 10650 4400
Text GLabel 3750 3500 0    50   Input ~ 0
LED_RUN
Text GLabel 5950 5300 3    50   Input ~ 0
ARRIBA
Text GLabel 6050 5300 3    50   Input ~ 0
ABAJO
Text GLabel 6150 5300 3    50   Input ~ 0
ENTER
Text GLabel 6250 5300 3    50   Input ~ 0
ATRAS
$Comp
L Device:LED D?
U 1 1 5EE9B9DF
P 10150 4950
AR Path="/5C727A15/5EE9B9DF" Ref="D?"  Part="1" 
AR Path="/5EE9B9DF" Ref="D6"  Part="1" 
F 0 "D6" V 10188 4833 50  0000 R CNN
F 1 "LED" V 10097 4833 50  0000 R CNN
F 2 "LED_SMD:LED_1206_3216Metric" H 10150 4950 50  0001 C CNN
F 3 "~" H 10150 4950 50  0001 C CNN
	1    10150 4950
	0    -1   -1   0   
$EndComp
$Comp
L Device:R R?
U 1 1 5EE9B9E5
P 10150 4550
AR Path="/5C727A15/5EE9B9E5" Ref="R?"  Part="1" 
AR Path="/5EE9B9E5" Ref="R6"  Part="1" 
F 0 "R6" H 10220 4596 50  0000 L CNN
F 1 "330" H 10220 4505 50  0000 L CNN
F 2 "Resistor_SMD:R_1206_3216Metric" V 10080 4550 50  0001 C CNN
F 3 "~" H 10150 4550 50  0001 C CNN
	1    10150 4550
	1    0    0    -1  
$EndComp
Wire Wire Line
	10150 4700 10150 4800
$Comp
L power:GNDD #PWR?
U 1 1 5EE9B9EC
P 10150 5300
AR Path="/5C727A15/5EE9B9EC" Ref="#PWR?"  Part="1" 
AR Path="/5EE9B9EC" Ref="#PWR047"  Part="1" 
F 0 "#PWR047" H 10150 5050 50  0001 C CNN
F 1 "GNDD" H 10154 5145 50  0000 C CNN
F 2 "" H 10150 5300 50  0001 C CNN
F 3 "" H 10150 5300 50  0001 C CNN
	1    10150 5300
	1    0    0    -1  
$EndComp
Wire Wire Line
	10150 5300 10150 5100
Text Notes 10500 4900 1    50   ~ 0
LED RUN \n\n
Text GLabel 10150 3900 1    50   Input ~ 0
LED_TEST
Wire Wire Line
	10150 3900 10150 4400
Text GLabel 3750 3600 0    50   Input ~ 0
LED_TEST
Wire Wire Line
	6750 3900 7000 3900
Wire Wire Line
	7000 3200 6750 3200
Wire Wire Line
	6750 3100 7000 3100
Wire Wire Line
	7000 3000 6750 3000
Wire Wire Line
	6750 2900 7000 2900
Wire Wire Line
	7000 3400 6750 3400
Wire Wire Line
	7000 3700 6750 3700
Wire Wire Line
	7000 3800 6750 3800
NoConn ~ 4650 1400
NoConn ~ 4750 1400
NoConn ~ 4850 1400
NoConn ~ 4950 1400
NoConn ~ 5050 1400
NoConn ~ 5150 1400
NoConn ~ 5250 1400
NoConn ~ 5350 1400
NoConn ~ 5650 1400
NoConn ~ 5750 1400
NoConn ~ 5850 1400
NoConn ~ 5950 1400
NoConn ~ 6050 1400
NoConn ~ 6150 1400
$EndSCHEMATC
