EESchema Schematic File Version 4
EELAYER 30 0
EELAYER END
$Descr User 7953 4803
encoding utf-8
Sheet 4 6
Title "MODULO LORA POR COMUNICACION SPI"
Date "2020-05-17"
Rev "1.0"
Comp "ECOTEC"
Comment1 "Marlon Moreno"
Comment2 ""
Comment3 ""
Comment4 ""
$EndDescr
Text GLabel 5200 2000 2    50   Input ~ 0
LORA_MOSI
Text GLabel 5200 2100 2    50   Input ~ 0
LORA_MISO
Text GLabel 5200 2200 2    50   Input ~ 0
LORA_SCK
Text GLabel 5200 1900 2    50   Input ~ 0
LORA_CS
Wire Wire Line
	5200 1900 4850 1900
Wire Wire Line
	4850 2000 5200 2000
Wire Wire Line
	5200 2100 4850 2100
Wire Wire Line
	4850 2200 5200 2200
$Comp
L power:GNDD #PWR025
U 1 1 5C71C337
P 4150 850
F 0 "#PWR025" H 4150 600 50  0001 C CNN
F 1 "GNDD" H 4154 695 50  0000 C CNN
F 2 "" H 4150 850 50  0001 C CNN
F 3 "" H 4150 850 50  0001 C CNN
	1    4150 850 
	-1   0    0    1   
$EndComp
Wire Wire Line
	4150 900  4150 850 
Wire Wire Line
	4150 900  4300 900 
Wire Wire Line
	4300 900  4300 1050
$Comp
L power:GNDD #PWR028
U 1 1 5C71C4B9
P 5000 2550
F 0 "#PWR028" H 5000 2300 50  0001 C CNN
F 1 "GNDD" H 5004 2395 50  0000 C CNN
F 2 "" H 5000 2550 50  0001 C CNN
F 3 "" H 5000 2550 50  0001 C CNN
	1    5000 2550
	1    0    0    -1  
$EndComp
$Comp
L power:GNDD #PWR026
U 1 1 5C71C84F
P 4950 1600
F 0 "#PWR026" H 4950 1350 50  0001 C CNN
F 1 "GNDD" V 4954 1490 50  0000 R CNN
F 2 "" H 4950 1600 50  0001 C CNN
F 3 "" H 4950 1600 50  0001 C CNN
	1    4950 1600
	0    -1   -1   0   
$EndComp
Wire Wire Line
	4950 1600 4850 1600
Wire Wire Line
	4850 2400 5000 2400
Wire Wire Line
	5000 2400 5000 2550
Text GLabel 5200 2300 2    50   Input ~ 0
LORA_3.3
Wire Wire Line
	4850 2300 5200 2300
Connection ~ 4150 900 
Wire Wire Line
	3050 1600 3450 1600
$Comp
L power:GNDD #PWR024
U 1 1 5C71C4DE
P 3050 1600
F 0 "#PWR024" H 3050 1350 50  0001 C CNN
F 1 "GNDD" V 3054 1490 50  0000 R CNN
F 2 "" H 3050 1600 50  0001 C CNN
F 3 "" H 3050 1600 50  0001 C CNN
	1    3050 1600
	0    1    1    0   
$EndComp
Wire Wire Line
	4000 900  4150 900 
Connection ~ 4000 900 
Wire Wire Line
	4000 900  4000 1050
Wire Wire Line
	3900 900  4000 900 
Wire Wire Line
	3900 1050 3900 900 
Wire Wire Line
	3100 2200 3450 2200
Wire Wire Line
	3450 2300 3100 2300
Text GLabel 3100 2300 0    50   Input ~ 0
LORA_RST
Text GLabel 3100 2200 0    50   Input ~ 0
LORA_IRQ
$Comp
L CPU-rescue:915M30S-E19-2ALPH U2
U 1 1 5C71C199
P 4150 1950
F 0 "U2" H 4150 1178 50  0000 C CNN
F 1 "915M30S" H 4150 1087 50  0000 C CNN
F 2 "RF_Module:EBYTE_E19-2ALPH" H 4050 950 50  0001 C CNN
F 3 "www.ebyte.com/en/downpdf.aspx?id=223" H 4150 850 50  0001 C CNN
	1    4150 1950
	1    0    0    -1  
$EndComp
$EndSCHEMATC
