EESchema Schematic File Version 4
EELAYER 30 0
EELAYER END
$Descr A4 11693 8268
encoding utf-8
Sheet 5 6
Title "FUENTE DE ALIMENTACIÓN "
Date "2020-05-17"
Rev "1.0"
Comp "ECOTEC"
Comment1 "Marlon Moreno"
Comment2 ""
Comment3 ""
Comment4 ""
$EndDescr
$Comp
L Connector:Conn_01x02_Male J22
U 1 1 5C86674F
P 1200 1950
F 0 "J22" H 1306 2128 50  0000 C CNN
F 1 "BMC _IN_OUT" H 1306 2037 50  0000 C CNN
F 2 "Connector_PinSocket_2.54mm:PinSocket_1x02_P2.54mm_Vertical" H 1200 1950 50  0001 C CNN
F 3 "~" H 1200 1950 50  0001 C CNN
	1    1200 1950
	1    0    0    -1  
$EndComp
$Comp
L power:+12V #PWR0103
U 1 1 5C8B08D6
P 8750 1100
F 0 "#PWR0103" H 8750 950 50  0001 C CNN
F 1 "+12V" V 8750 1350 50  0000 C CNN
F 2 "" H 8750 1100 50  0001 C CNN
F 3 "" H 8750 1100 50  0001 C CNN
	1    8750 1100
	1    0    0    -1  
$EndComp
$Comp
L power:PWR_FLAG #FLG0101
U 1 1 5C8B09A3
P 8750 1200
F 0 "#FLG0101" H 8750 1275 50  0001 C CNN
F 1 "PWR_FLAG" H 8750 1373 50  0000 C CNN
F 2 "" H 8750 1200 50  0001 C CNN
F 3 "~" H 8750 1200 50  0001 C CNN
	1    8750 1200
	-1   0    0    1   
$EndComp
Wire Wire Line
	8750 1200 8750 1100
$Comp
L power:GNDD #PWR0106
U 1 1 5C8B35DF
P 10750 1100
F 0 "#PWR0106" H 10750 850 50  0001 C CNN
F 1 "GNDD" H 10754 945 50  0000 C CNN
F 2 "" H 10750 1100 50  0001 C CNN
F 3 "" H 10750 1100 50  0001 C CNN
	1    10750 1100
	-1   0    0    1   
$EndComp
$Comp
L power:PWR_FLAG #FLG0102
U 1 1 5C8B36DA
P 10750 1200
F 0 "#FLG0102" H 10750 1275 50  0001 C CNN
F 1 "PWR_FLAG" H 10750 1374 50  0000 C CNN
F 2 "" H 10750 1200 50  0001 C CNN
F 3 "~" H 10750 1200 50  0001 C CNN
	1    10750 1200
	-1   0    0    1   
$EndComp
Wire Wire Line
	10750 1100 10750 1200
$Comp
L power:+3.3V #PWR0107
U 1 1 5C8B47CB
P 9150 1100
F 0 "#PWR0107" H 9150 950 50  0001 C CNN
F 1 "+3.3V" V 9165 1228 50  0000 L CNN
F 2 "" H 9150 1100 50  0001 C CNN
F 3 "" H 9150 1100 50  0001 C CNN
	1    9150 1100
	1    0    0    -1  
$EndComp
Wire Wire Line
	9150 1100 9150 1200
$Comp
L power:+5V #PWR0108
U 1 1 5C8B6EAB
P 9550 1100
F 0 "#PWR0108" H 9550 950 50  0001 C CNN
F 1 "+5V" V 9550 1350 50  0000 C CNN
F 2 "" H 9550 1100 50  0001 C CNN
F 3 "" H 9550 1100 50  0001 C CNN
	1    9550 1100
	1    0    0    -1  
$EndComp
Wire Wire Line
	9550 1100 9550 1200
$Comp
L power:PWR_FLAG #FLG01
U 1 1 5C8F4C66
P 9150 1200
F 0 "#FLG01" H 9150 1275 50  0001 C CNN
F 1 "PWR_FLAG" H 9150 1373 50  0000 C CNN
F 2 "" H 9150 1200 50  0001 C CNN
F 3 "~" H 9150 1200 50  0001 C CNN
	1    9150 1200
	-1   0    0    1   
$EndComp
$Comp
L power:PWR_FLAG #FLG02
U 1 1 5C8F4CD3
P 9550 1200
F 0 "#FLG02" H 9550 1275 50  0001 C CNN
F 1 "PWR_FLAG" H 9550 1373 50  0000 C CNN
F 2 "" H 9550 1200 50  0001 C CNN
F 3 "~" H 9550 1200 50  0001 C CNN
	1    9550 1200
	-1   0    0    1   
$EndComp
$Comp
L Transistor_BJT:MMBT3904 Q4
U 1 1 5C9B0BFC
P 2350 6400
F 0 "Q4" H 2541 6446 50  0000 L CNN
F 1 "MMBT3904" H 2541 6355 50  0000 L CNN
F 2 "Package_TO_SOT_SMD:SOT-23" H 2550 6325 50  0001 L CIN
F 3 "https://www.fairchildsemi.com/datasheets/2N/2N3904.pdf" H 2350 6400 50  0001 L CNN
	1    2350 6400
	1    0    0    -1  
$EndComp
Wire Wire Line
	2450 6200 2450 6050
$Comp
L power:+5V #PWR03
U 1 1 5C9B1B21
P 2450 5100
F 0 "#PWR03" H 2450 4950 50  0001 C CNN
F 1 "+5V" H 2465 5273 50  0000 C CNN
F 2 "" H 2450 5100 50  0001 C CNN
F 3 "" H 2450 5100 50  0001 C CNN
	1    2450 5100
	1    0    0    -1  
$EndComp
Wire Wire Line
	2450 5100 2450 5200
$Comp
L power:GNDD #PWR04
U 1 1 5C9B2B71
P 2450 6750
F 0 "#PWR04" H 2450 6500 50  0001 C CNN
F 1 "GNDD" H 2454 6595 50  0000 C CNN
F 2 "" H 2450 6750 50  0001 C CNN
F 3 "" H 2450 6750 50  0001 C CNN
	1    2450 6750
	1    0    0    -1  
$EndComp
Wire Wire Line
	2450 6600 2450 6750
$Comp
L Device:R R24
U 1 1 5C9B3BFE
P 1850 6400
F 0 "R24" V 1643 6400 50  0000 C CNN
F 1 "10 K" V 1734 6400 50  0000 C CNN
F 2 "Resistor_SMD:R_1206_3216Metric" V 1780 6400 50  0001 C CNN
F 3 "~" H 1850 6400 50  0001 C CNN
	1    1850 6400
	0    1    1    0   
$EndComp
Wire Wire Line
	2000 6400 2150 6400
Text GLabel 1400 6400 0    50   Input ~ 0
SIRENA
Wire Wire Line
	1400 6400 1700 6400
$Comp
L Diode:1N4004 D2
U 1 1 5C9B67B9
P 1800 5600
F 0 "D2" V 1754 5679 50  0000 L CNN
F 1 "1N4004" V 1845 5679 50  0000 L CNN
F 2 "Diode_SMD:D_2114_3652Metric_Pad1.85x3.75mm_HandSolder" H 1800 5425 50  0001 C CNN
F 3 "http://www.vishay.com/docs/88503/1n4001.pdf" H 1800 5600 50  0001 C CNN
	1    1800 5600
	0    1    1    0   
$EndComp
Wire Wire Line
	1800 5450 1800 5200
Wire Wire Line
	1800 5200 2450 5200
Connection ~ 2450 5200
Wire Wire Line
	2450 5200 2450 5350
Wire Wire Line
	2450 6050 1800 6050
Wire Wire Line
	1800 6050 1800 5750
Connection ~ 2450 6050
Wire Wire Line
	2450 6050 2450 5950
$Comp
L Connector:Conn_01x02_Female J24
U 1 1 5C9B8FBE
P 4450 6000
F 0 "J24" H 4477 5976 50  0000 L CNN
F 1 "SIRENA" H 4477 5885 50  0000 L CNN
F 2 "Connector_PinHeader_2.54mm:PinHeader_1x02_P2.54mm_Vertical" H 4450 6000 50  0001 C CNN
F 3 "~" H 4450 6000 50  0001 C CNN
	1    4450 6000
	1    0    0    -1  
$EndComp
Wire Wire Line
	4250 6100 4250 6250
Wire Wire Line
	4250 6000 3250 6000
Wire Wire Line
	2850 6000 2850 5950
$Comp
L power:+12V #PWR014
U 1 1 5C9BC0EB
P 2950 5100
F 0 "#PWR014" H 2950 4950 50  0001 C CNN
F 1 "+12V" H 2965 5273 50  0000 C CNN
F 2 "" H 2950 5100 50  0001 C CNN
F 3 "" H 2950 5100 50  0001 C CNN
	1    2950 5100
	1    0    0    -1  
$EndComp
$Comp
L Device:LED D3
U 1 1 5C9BDE28
P 2000 3500
F 0 "D3" V 2038 3383 50  0000 R CNN
F 1 "LED" V 1947 3383 50  0000 R CNN
F 2 "LED_SMD:LED_1206_3216Metric" H 2000 3500 50  0001 C CNN
F 3 "~" H 2000 3500 50  0001 C CNN
	1    2000 3500
	0    -1   -1   0   
$EndComp
$Comp
L Device:R R25
U 1 1 5C9C14EF
P 2000 3100
F 0 "R25" H 2070 3146 50  0000 L CNN
F 1 "510" H 2070 3055 50  0000 L CNN
F 2 "Resistor_SMD:R_1206_3216Metric" V 1930 3100 50  0001 C CNN
F 3 "~" H 2000 3100 50  0001 C CNN
	1    2000 3100
	1    0    0    -1  
$EndComp
Wire Wire Line
	2000 3250 2000 3350
$Comp
L power:GNDD #PWR022
U 1 1 5C9C4A05
P 2000 3850
F 0 "#PWR022" H 2000 3600 50  0001 C CNN
F 1 "GNDD" H 2004 3695 50  0000 C CNN
F 2 "" H 2000 3850 50  0001 C CNN
F 3 "" H 2000 3850 50  0001 C CNN
	1    2000 3850
	1    0    0    -1  
$EndComp
Wire Wire Line
	2000 3850 2000 3650
$Comp
L Relay:G6K-2 K1
U 1 1 5CB945E9
P 2850 5650
F 0 "K1" H 3480 5696 50  0000 L CNN
F 1 "G6K-2" H 3480 5605 50  0000 L CNN
F 2 "Relay_SMD:Relay_DPDT_Omron_G6K-2F-Y" H 3500 5600 50  0001 L CNN
F 3 "http://omronfs.omron.com/en_US/ecb/products/pdf/en-g6k.pdf" H 2650 5650 50  0001 C CNN
	1    2850 5650
	1    0    0    -1  
$EndComp
Wire Wire Line
	2950 5100 2950 5200
Wire Wire Line
	2950 5200 3350 5200
Wire Wire Line
	3350 5200 3350 5350
Connection ~ 2950 5200
Wire Wire Line
	2950 5200 2950 5350
Wire Wire Line
	3250 5950 3250 6000
Connection ~ 3250 6000
Wire Wire Line
	3250 6000 2850 6000
$Comp
L Connector:Barrel_Jack_Switch J2
U 1 1 5EC8D4B9
P 1200 1350
F 0 "J2" H 1257 1667 50  0000 C CNN
F 1 "Barrel_Jack_Switch" H 1257 1576 50  0000 C CNN
F 2 "Connector_BarrelJack:BarrelJack_Horizontal" H 1250 1310 50  0001 C CNN
F 3 "~" H 1250 1310 50  0001 C CNN
	1    1200 1350
	1    0    0    -1  
$EndComp
Wire Wire Line
	1400 1950 1700 1950
Wire Wire Line
	1700 1950 1700 1250
Wire Wire Line
	1700 1250 1500 1250
Wire Wire Line
	1400 2050 1600 2050
Wire Wire Line
	1600 1350 1500 1350
$Comp
L Switch:SW_DPDT_x2 SW3
U 1 1 5ECA14B5
P 2000 1250
F 0 "SW3" H 2000 1535 50  0000 C CNN
F 1 "SW_DPDT_x2" H 2000 1444 50  0000 C CNN
F 2 "Connector_PinSocket_2.54mm:PinSocket_1x03_P2.54mm_Vertical" H 2000 1250 50  0001 C CNN
F 3 "~" H 2000 1250 50  0001 C CNN
	1    2000 1250
	1    0    0    -1  
$EndComp
Wire Wire Line
	1800 1250 1700 1250
Connection ~ 1700 1250
$Comp
L power:GND #PWR011
U 1 1 5ECA35B3
P 1950 1500
F 0 "#PWR011" H 1950 1250 50  0001 C CNN
F 1 "GND" H 1955 1327 50  0000 C CNN
F 2 "" H 1950 1500 50  0001 C CNN
F 3 "" H 1950 1500 50  0001 C CNN
	1    1950 1500
	1    0    0    -1  
$EndComp
Wire Wire Line
	1950 1500 1950 1450
Wire Wire Line
	1950 1450 1600 1450
Wire Wire Line
	1600 1350 1600 1450
Connection ~ 1600 1450
Wire Wire Line
	1600 1450 1500 1450
Wire Wire Line
	1600 1450 1600 2050
$Comp
L power:+12V #PWR013
U 1 1 5ECA5B68
P 2300 1000
F 0 "#PWR013" H 2300 850 50  0001 C CNN
F 1 "+12V" H 2315 1173 50  0000 C CNN
F 2 "" H 2300 1000 50  0001 C CNN
F 3 "" H 2300 1000 50  0001 C CNN
	1    2300 1000
	1    0    0    -1  
$EndComp
Wire Wire Line
	2300 1000 2300 1150
Wire Wire Line
	2300 1150 2200 1150
$Comp
L Device:CP C5
U 1 1 5ECA8A58
P 1250 3050
F 0 "C5" H 1368 3096 50  0000 L CNN
F 1 "470uF" H 1368 3005 50  0000 L CNN
F 2 "Capacitor_SMD:CP_Elec_10x10" H 1288 2900 50  0001 C CNN
F 3 "~" H 1250 3050 50  0001 C CNN
	1    1250 3050
	1    0    0    -1  
$EndComp
$Comp
L power:+12V #PWR09
U 1 1 5ECAC994
P 1250 2800
F 0 "#PWR09" H 1250 2650 50  0001 C CNN
F 1 "+12V" H 1265 2973 50  0000 C CNN
F 2 "" H 1250 2800 50  0001 C CNN
F 3 "" H 1250 2800 50  0001 C CNN
	1    1250 2800
	1    0    0    -1  
$EndComp
Wire Wire Line
	1250 2800 1250 2900
$Comp
L power:GND #PWR010
U 1 1 5ECAF190
P 1250 3400
F 0 "#PWR010" H 1250 3150 50  0001 C CNN
F 1 "GND" H 1255 3227 50  0000 C CNN
F 2 "" H 1250 3400 50  0001 C CNN
F 3 "" H 1250 3400 50  0001 C CNN
	1    1250 3400
	1    0    0    -1  
$EndComp
Wire Wire Line
	1250 3400 1250 3200
$Comp
L power:+12V #PWR012
U 1 1 5ECBD9C7
P 2000 2700
F 0 "#PWR012" H 2000 2550 50  0001 C CNN
F 1 "+12V" H 2015 2873 50  0000 C CNN
F 2 "" H 2000 2700 50  0001 C CNN
F 3 "" H 2000 2700 50  0001 C CNN
	1    2000 2700
	1    0    0    -1  
$EndComp
Wire Wire Line
	2000 2700 2000 2950
$Comp
L CPU-rescue:EUP3458-STEP-DOWN U3
U 1 1 5ECC1584
P 4850 1700
AR Path="/5ECC1584" Ref="U3"  Part="1" 
AR Path="/5C727A15/5ECC1584" Ref="U3"  Part="1" 
F 0 "U3" H 4850 1650 50  0000 C CNN
F 1 "EUP3458" H 4850 1450 50  0000 C CNN
F 2 "Package_TO_SOT_SMD:SOT-23-6" H 4850 1700 50  0001 C CNN
F 3 "" H 4850 1700 50  0001 C CNN
	1    4850 1700
	1    0    0    -1  
$EndComp
$Comp
L power:+12V #PWR015
U 1 1 5ECC4D21
P 3750 1150
F 0 "#PWR015" H 3750 1000 50  0001 C CNN
F 1 "+12V" V 3765 1278 50  0000 L CNN
F 2 "" H 3750 1150 50  0001 C CNN
F 3 "" H 3750 1150 50  0001 C CNN
	1    3750 1150
	0    -1   -1   0   
$EndComp
$Comp
L power:GND #PWR035
U 1 1 5ECC65FE
P 4200 2300
F 0 "#PWR035" H 4200 2050 50  0001 C CNN
F 1 "GND" H 4205 2127 50  0000 C CNN
F 2 "" H 4200 2300 50  0001 C CNN
F 3 "" H 4200 2300 50  0001 C CNN
	1    4200 2300
	1    0    0    -1  
$EndComp
$Comp
L Device:R R11
U 1 1 5ECC7B50
P 5850 1800
F 0 "R11" H 5920 1846 50  0000 L CNN
F 1 "75K 1%" H 5920 1755 50  0000 L CNN
F 2 "Resistor_SMD:R_1206_3216Metric" V 5780 1800 50  0001 C CNN
F 3 "~" H 5850 1800 50  0001 C CNN
	1    5850 1800
	1    0    0    -1  
$EndComp
$Comp
L Device:R R12
U 1 1 5ECC8575
P 5850 2450
F 0 "R12" H 5920 2496 50  0000 L CNN
F 1 "24K 1%" H 5920 2405 50  0000 L CNN
F 2 "Resistor_SMD:R_1206_3216Metric" V 5780 2450 50  0001 C CNN
F 3 "~" H 5850 2450 50  0001 C CNN
	1    5850 2450
	1    0    0    -1  
$EndComp
$Comp
L Device:L L1
U 1 1 5ECCBAB0
P 5600 1550
F 0 "L1" V 5550 1550 50  0000 C CNN
F 1 "4.7uH" V 5700 1600 50  0000 C CNN
F 2 "Inductor_SMD:L_10.4x10.4_H4.8" H 5600 1550 50  0001 C CNN
F 3 "~" H 5600 1550 50  0001 C CNN
	1    5600 1550
	0    1    1    0   
$EndComp
$Comp
L Device:D D1
U 1 1 5ECCCE41
P 5400 1750
F 0 "D1" V 5400 1850 50  0000 L CNN
F 1 "B230A" V 5550 1800 50  0000 L CNN
F 2 "Diode_SMD:D_SMA" H 5400 1750 50  0001 C CNN
F 3 "~" H 5400 1750 50  0001 C CNN
	1    5400 1750
	0    1    1    0   
$EndComp
$Comp
L power:GND #PWR037
U 1 1 5ECD0678
P 5400 2000
F 0 "#PWR037" H 5400 1750 50  0001 C CNN
F 1 "GND" H 5405 1827 50  0000 C CNN
F 2 "" H 5400 2000 50  0001 C CNN
F 3 "" H 5400 2000 50  0001 C CNN
	1    5400 2000
	1    0    0    -1  
$EndComp
Wire Wire Line
	5400 2000 5400 1900
Wire Wire Line
	5400 1600 5400 1550
Wire Wire Line
	5400 1550 5300 1550
Wire Wire Line
	5450 1550 5400 1550
Connection ~ 5400 1550
Wire Wire Line
	5750 1550 5850 1550
Wire Wire Line
	5850 1650 5850 1550
Wire Wire Line
	5850 1950 5850 2200
Wire Wire Line
	5300 2200 5850 2200
Connection ~ 5850 2200
Wire Wire Line
	5850 2200 5850 2300
$Comp
L power:GND #PWR039
U 1 1 5ECD94E2
P 5850 2700
F 0 "#PWR039" H 5850 2450 50  0001 C CNN
F 1 "GND" H 5855 2527 50  0000 C CNN
F 2 "" H 5850 2700 50  0001 C CNN
F 3 "" H 5850 2700 50  0001 C CNN
	1    5850 2700
	1    0    0    -1  
$EndComp
Wire Wire Line
	5850 2700 5850 2600
Wire Wire Line
	4200 2300 4200 2200
Wire Wire Line
	4200 2200 4350 2200
$Comp
L Device:C C9
U 1 1 5ECDD8C3
P 5400 1300
F 0 "C9" H 5515 1346 50  0000 L CNN
F 1 "10nF" H 5515 1255 50  0000 L CNN
F 2 "Capacitor_SMD:C_1206_3216Metric" H 5438 1150 50  0001 C CNN
F 3 "~" H 5400 1300 50  0001 C CNN
	1    5400 1300
	1    0    0    -1  
$EndComp
Wire Wire Line
	5400 1450 5400 1550
Wire Wire Line
	5400 1150 5000 1150
Wire Wire Line
	5000 1150 5000 1350
Wire Wire Line
	4650 1150 4650 1350
$Comp
L Device:C C11
U 1 1 5ECE46C2
P 6350 1750
F 0 "C11" H 6465 1796 50  0000 L CNN
F 1 "22nF" H 6465 1705 50  0000 L CNN
F 2 "Capacitor_SMD:C_1206_3216Metric" H 6388 1600 50  0001 C CNN
F 3 "~" H 6350 1750 50  0001 C CNN
	1    6350 1750
	1    0    0    -1  
$EndComp
Wire Wire Line
	6350 1600 6350 1550
Wire Wire Line
	6350 1550 5850 1550
Connection ~ 5850 1550
$Comp
L power:GND #PWR041
U 1 1 5ECE6986
P 6350 2050
F 0 "#PWR041" H 6350 1800 50  0001 C CNN
F 1 "GND" H 6355 1877 50  0000 C CNN
F 2 "" H 6350 2050 50  0001 C CNN
F 3 "" H 6350 2050 50  0001 C CNN
	1    6350 2050
	1    0    0    -1  
$EndComp
Wire Wire Line
	6350 2050 6350 1900
$Comp
L power:+3.3V #PWR043
U 1 1 5ECE8865
P 6700 1450
F 0 "#PWR043" H 6700 1300 50  0001 C CNN
F 1 "+3.3V" H 6715 1623 50  0000 C CNN
F 2 "" H 6700 1450 50  0001 C CNN
F 3 "" H 6700 1450 50  0001 C CNN
	1    6700 1450
	1    0    0    -1  
$EndComp
Wire Wire Line
	6700 1450 6700 1550
Wire Wire Line
	6700 1550 6350 1550
Connection ~ 6350 1550
Text GLabel 6950 1550 2    50   Input ~ 0
LORA_3.3
Wire Wire Line
	6950 1550 6700 1550
Connection ~ 6700 1550
Wire Wire Line
	3750 1150 3900 1150
Text GLabel 4250 1550 0    50   Input ~ 0
EN_3.3
$Comp
L CPU-rescue:EUP3458-STEP-DOWN U4
U 1 1 5ECFB160
P 4850 3750
AR Path="/5ECFB160" Ref="U4"  Part="1" 
AR Path="/5C727A15/5ECFB160" Ref="U4"  Part="1" 
F 0 "U4" H 4850 3700 50  0000 C CNN
F 1 "EUP3458" H 4850 3550 50  0000 C CNN
F 2 "Package_TO_SOT_SMD:SOT-23-6" H 4850 3750 50  0001 C CNN
F 3 "" H 4850 3750 50  0001 C CNN
	1    4850 3750
	1    0    0    -1  
$EndComp
$Comp
L power:+12V #PWR016
U 1 1 5ECFB16A
P 3750 3200
F 0 "#PWR016" H 3750 3050 50  0001 C CNN
F 1 "+12V" V 3765 3328 50  0000 L CNN
F 2 "" H 3750 3200 50  0001 C CNN
F 3 "" H 3750 3200 50  0001 C CNN
	1    3750 3200
	0    -1   -1   0   
$EndComp
$Comp
L power:GND #PWR036
U 1 1 5ECFB174
P 4200 4350
F 0 "#PWR036" H 4200 4100 50  0001 C CNN
F 1 "GND" H 4205 4177 50  0000 C CNN
F 2 "" H 4200 4350 50  0001 C CNN
F 3 "" H 4200 4350 50  0001 C CNN
	1    4200 4350
	1    0    0    -1  
$EndComp
$Comp
L Device:R R13
U 1 1 5ECFB17E
P 5850 3850
F 0 "R13" H 5920 3896 50  0000 L CNN
F 1 "68K 1%" H 5920 3805 50  0000 L CNN
F 2 "Resistor_SMD:R_1206_3216Metric" V 5780 3850 50  0001 C CNN
F 3 "~" H 5850 3850 50  0001 C CNN
	1    5850 3850
	1    0    0    -1  
$EndComp
$Comp
L Device:R R14
U 1 1 5ECFB188
P 5850 4500
F 0 "R14" H 5920 4546 50  0000 L CNN
F 1 "13K 1%" H 5920 4455 50  0000 L CNN
F 2 "Resistor_SMD:R_1206_3216Metric" V 5780 4500 50  0001 C CNN
F 3 "~" H 5850 4500 50  0001 C CNN
	1    5850 4500
	1    0    0    -1  
$EndComp
$Comp
L Device:L L2
U 1 1 5ECFB192
P 5600 3600
F 0 "L2" V 5550 3600 50  0000 C CNN
F 1 "6.8uF" V 5700 3650 50  0000 C CNN
F 2 "Inductor_SMD:L_10.4x10.4_H4.8" H 5600 3600 50  0001 C CNN
F 3 "~" H 5600 3600 50  0001 C CNN
	1    5600 3600
	0    1    1    0   
$EndComp
$Comp
L Device:D D4
U 1 1 5ECFB19C
P 5400 3800
F 0 "D4" V 5400 3900 50  0000 L CNN
F 1 "B230A" V 5550 3850 50  0000 L CNN
F 2 "Diode_SMD:D_SMA" H 5400 3800 50  0001 C CNN
F 3 "~" H 5400 3800 50  0001 C CNN
	1    5400 3800
	0    1    1    0   
$EndComp
$Comp
L power:GND #PWR038
U 1 1 5ECFB1A6
P 5400 4050
F 0 "#PWR038" H 5400 3800 50  0001 C CNN
F 1 "GND" H 5405 3877 50  0000 C CNN
F 2 "" H 5400 4050 50  0001 C CNN
F 3 "" H 5400 4050 50  0001 C CNN
	1    5400 4050
	1    0    0    -1  
$EndComp
Wire Wire Line
	5400 4050 5400 3950
Wire Wire Line
	5400 3650 5400 3600
Wire Wire Line
	5400 3600 5300 3600
Wire Wire Line
	5450 3600 5400 3600
Connection ~ 5400 3600
Wire Wire Line
	5750 3600 5850 3600
Wire Wire Line
	5850 3700 5850 3600
Wire Wire Line
	5850 4000 5850 4250
Wire Wire Line
	5300 4250 5850 4250
Connection ~ 5850 4250
Wire Wire Line
	5850 4250 5850 4350
$Comp
L power:GND #PWR040
U 1 1 5ECFB1BB
P 5850 4750
F 0 "#PWR040" H 5850 4500 50  0001 C CNN
F 1 "GND" H 5855 4577 50  0000 C CNN
F 2 "" H 5850 4750 50  0001 C CNN
F 3 "" H 5850 4750 50  0001 C CNN
	1    5850 4750
	1    0    0    -1  
$EndComp
Wire Wire Line
	5850 4750 5850 4650
Wire Wire Line
	4200 4350 4200 4250
Wire Wire Line
	4200 4250 4350 4250
$Comp
L Device:C C10
U 1 1 5ECFB1C8
P 5400 3350
F 0 "C10" H 5515 3396 50  0000 L CNN
F 1 "10nF" H 5515 3305 50  0000 L CNN
F 2 "Capacitor_SMD:C_1206_3216Metric" H 5438 3200 50  0001 C CNN
F 3 "~" H 5400 3350 50  0001 C CNN
	1    5400 3350
	1    0    0    -1  
$EndComp
Wire Wire Line
	5400 3500 5400 3600
Wire Wire Line
	5400 3200 5000 3200
Wire Wire Line
	5000 3200 5000 3400
Wire Wire Line
	4650 3200 4650 3400
$Comp
L Device:C C12
U 1 1 5ECFB1D6
P 6350 3800
F 0 "C12" H 6465 3846 50  0000 L CNN
F 1 "22nF" H 6465 3755 50  0000 L CNN
F 2 "Capacitor_SMD:C_1206_3216Metric" H 6388 3650 50  0001 C CNN
F 3 "~" H 6350 3800 50  0001 C CNN
	1    6350 3800
	1    0    0    -1  
$EndComp
Wire Wire Line
	6350 3650 6350 3600
Wire Wire Line
	6350 3600 5850 3600
Connection ~ 5850 3600
$Comp
L power:GND #PWR042
U 1 1 5ECFB1E3
P 6350 4100
F 0 "#PWR042" H 6350 3850 50  0001 C CNN
F 1 "GND" H 6355 3927 50  0000 C CNN
F 2 "" H 6350 4100 50  0001 C CNN
F 3 "" H 6350 4100 50  0001 C CNN
	1    6350 4100
	1    0    0    -1  
$EndComp
Wire Wire Line
	6350 4100 6350 3950
Wire Wire Line
	6700 3500 6700 3600
Wire Wire Line
	6700 3600 6350 3600
Connection ~ 6350 3600
Wire Wire Line
	3750 3200 3900 3200
Wire Wire Line
	4350 3600 4200 3600
Wire Wire Line
	4200 3600 4200 3200
Connection ~ 4200 3200
Wire Wire Line
	4200 3200 4650 3200
$Comp
L Device:CP C8
U 1 1 5ED057C7
P 3900 3450
F 0 "C8" H 4018 3496 50  0000 L CNN
F 1 "10uF" H 4018 3405 50  0000 L CNN
F 2 "Capacitor_SMD:CP_Elec_4x5.4" H 3938 3300 50  0001 C CNN
F 3 "~" H 3900 3450 50  0001 C CNN
	1    3900 3450
	1    0    0    -1  
$EndComp
Wire Wire Line
	3900 3300 3900 3200
Connection ~ 3900 3200
Wire Wire Line
	3900 3200 4200 3200
$Comp
L power:GND #PWR034
U 1 1 5ED09654
P 3900 3750
F 0 "#PWR034" H 3900 3500 50  0001 C CNN
F 1 "GND" H 3905 3577 50  0000 C CNN
F 2 "" H 3900 3750 50  0001 C CNN
F 3 "" H 3900 3750 50  0001 C CNN
	1    3900 3750
	1    0    0    -1  
$EndComp
Wire Wire Line
	3900 3750 3900 3600
$Comp
L Device:CP C6
U 1 1 5ED0C955
P 3900 1400
F 0 "C6" H 4018 1446 50  0000 L CNN
F 1 "10uF" H 4018 1355 50  0000 L CNN
F 2 "Capacitor_SMD:CP_Elec_4x5.4" H 3938 1250 50  0001 C CNN
F 3 "~" H 3900 1400 50  0001 C CNN
	1    3900 1400
	1    0    0    -1  
$EndComp
Wire Wire Line
	4250 1550 4350 1550
Wire Wire Line
	3900 1250 3900 1150
Connection ~ 3900 1150
Wire Wire Line
	3900 1150 4650 1150
$Comp
L power:GND #PWR030
U 1 1 5ED136BC
P 3900 1650
F 0 "#PWR030" H 3900 1400 50  0001 C CNN
F 1 "GND" H 3905 1477 50  0000 C CNN
F 2 "" H 3900 1650 50  0001 C CNN
F 3 "" H 3900 1650 50  0001 C CNN
	1    3900 1650
	1    0    0    -1  
$EndComp
Wire Wire Line
	3900 1650 3900 1550
$Comp
L power:+5V #PWR044
U 1 1 5ED16FDA
P 6700 3500
F 0 "#PWR044" H 6700 3350 50  0001 C CNN
F 1 "+5V" H 6715 3673 50  0000 C CNN
F 2 "" H 6700 3500 50  0001 C CNN
F 3 "" H 6700 3500 50  0001 C CNN
	1    6700 3500
	1    0    0    -1  
$EndComp
$Comp
L power:GNDD #PWR045
U 1 1 5ED17AD3
P 9350 2250
F 0 "#PWR045" H 9350 2000 50  0001 C CNN
F 1 "GNDD" H 9354 2095 50  0000 C CNN
F 2 "" H 9350 2250 50  0001 C CNN
F 3 "" H 9350 2250 50  0001 C CNN
	1    9350 2250
	1    0    0    -1  
$EndComp
$Comp
L power:GND #PWR046
U 1 1 5ED19003
P 9700 2250
F 0 "#PWR046" H 9700 2000 50  0001 C CNN
F 1 "GND" H 9705 2077 50  0000 C CNN
F 2 "" H 9700 2250 50  0001 C CNN
F 3 "" H 9700 2250 50  0001 C CNN
	1    9700 2250
	1    0    0    -1  
$EndComp
Wire Wire Line
	9700 2250 9700 2100
Wire Wire Line
	9700 2100 9350 2100
Wire Wire Line
	9350 2100 9350 2250
$Comp
L Device:LED D8
U 1 1 5ED217BF
P 8450 4000
F 0 "D8" V 8488 3883 50  0000 R CNN
F 1 "LED" V 8397 3883 50  0000 R CNN
F 2 "LED_SMD:LED_1206_3216Metric" H 8450 4000 50  0001 C CNN
F 3 "~" H 8450 4000 50  0001 C CNN
	1    8450 4000
	0    -1   -1   0   
$EndComp
$Comp
L Device:R R16
U 1 1 5ED217C5
P 8450 3600
F 0 "R16" H 8520 3646 50  0000 L CNN
F 1 "330" H 8520 3555 50  0000 L CNN
F 2 "Resistor_SMD:R_1206_3216Metric" V 8380 3600 50  0001 C CNN
F 3 "~" H 8450 3600 50  0001 C CNN
	1    8450 3600
	1    0    0    -1  
$EndComp
Wire Wire Line
	8450 3750 8450 3850
$Comp
L power:GNDD #PWR050
U 1 1 5ED217CC
P 8450 4350
F 0 "#PWR050" H 8450 4100 50  0001 C CNN
F 1 "GNDD" H 8454 4195 50  0000 C CNN
F 2 "" H 8450 4350 50  0001 C CNN
F 3 "" H 8450 4350 50  0001 C CNN
	1    8450 4350
	1    0    0    -1  
$EndComp
Wire Wire Line
	8450 4350 8450 4150
$Comp
L power:+5V #PWR049
U 1 1 5ED24BB5
P 8450 3050
F 0 "#PWR049" H 8450 2900 50  0001 C CNN
F 1 "+5V" H 8465 3223 50  0000 C CNN
F 2 "" H 8450 3050 50  0001 C CNN
F 3 "" H 8450 3050 50  0001 C CNN
	1    8450 3050
	1    0    0    -1  
$EndComp
Wire Wire Line
	8450 3050 8450 3450
Text Notes 2350 3500 1    50   ~ 0
POWER 12 V
Text Notes 8800 3950 1    50   ~ 0
POWER  5V\n
$Comp
L Device:LED D9
U 1 1 5EE8FCF7
P 9250 4000
F 0 "D9" V 9288 3883 50  0000 R CNN
F 1 "LED" V 9197 3883 50  0000 R CNN
F 2 "LED_SMD:LED_1206_3216Metric" H 9250 4000 50  0001 C CNN
F 3 "~" H 9250 4000 50  0001 C CNN
	1    9250 4000
	0    -1   -1   0   
$EndComp
$Comp
L Device:R R17
U 1 1 5EE8FCFD
P 9250 3600
F 0 "R17" H 9320 3646 50  0000 L CNN
F 1 "330" H 9320 3555 50  0000 L CNN
F 2 "Resistor_SMD:R_1206_3216Metric" V 9180 3600 50  0001 C CNN
F 3 "~" H 9250 3600 50  0001 C CNN
	1    9250 3600
	1    0    0    -1  
$EndComp
Wire Wire Line
	9250 3750 9250 3850
$Comp
L power:GNDD #PWR052
U 1 1 5EE8FD04
P 9250 4350
F 0 "#PWR052" H 9250 4100 50  0001 C CNN
F 1 "GNDD" H 9254 4195 50  0000 C CNN
F 2 "" H 9250 4350 50  0001 C CNN
F 3 "" H 9250 4350 50  0001 C CNN
	1    9250 4350
	1    0    0    -1  
$EndComp
Wire Wire Line
	9250 4350 9250 4150
Wire Wire Line
	9250 3050 9250 3450
Text Notes 9600 3950 1    50   ~ 0
POWER  3.3V\n
$Comp
L power:+3.3V #PWR051
U 1 1 5EE92CB4
P 9250 3050
F 0 "#PWR051" H 9250 2900 50  0001 C CNN
F 1 "+3.3V" H 9265 3223 50  0000 C CNN
F 2 "" H 9250 3050 50  0001 C CNN
F 3 "" H 9250 3050 50  0001 C CNN
	1    9250 3050
	1    0    0    -1  
$EndComp
$Comp
L power:GND #PWR0101
U 1 1 5EEEFA64
P 4250 6250
F 0 "#PWR0101" H 4250 6000 50  0001 C CNN
F 1 "GND" H 4255 6077 50  0000 C CNN
F 2 "" H 4250 6250 50  0001 C CNN
F 3 "" H 4250 6250 50  0001 C CNN
	1    4250 6250
	1    0    0    -1  
$EndComp
$Comp
L power:GND #PWR0102
U 1 1 5EEF05C4
P 2750 5200
F 0 "#PWR0102" H 2750 4950 50  0001 C CNN
F 1 "GND" H 2755 5027 50  0000 C CNN
F 2 "" H 2750 5200 50  0001 C CNN
F 3 "" H 2750 5200 50  0001 C CNN
	1    2750 5200
	-1   0    0    1   
$EndComp
Wire Wire Line
	2750 5200 2750 5300
Wire Wire Line
	3150 5350 3150 5300
Wire Wire Line
	3150 5300 2750 5300
Connection ~ 2750 5300
Wire Wire Line
	2750 5300 2750 5350
NoConn ~ 2200 1350
$EndSCHEMATC
