%TF.GenerationSoftware,KiCad,Pcbnew,5.0.2+dfsg1-1~bpo9+1*%
%TF.CreationDate,2019-03-10T13:40:58-05:00*%
%TF.ProjectId,SUPPLY_POWER,53555050-4c59-45f5-904f-5745522e6b69,rev?*%
%TF.SameCoordinates,Original*%
%TF.FileFunction,Legend,Top*%
%TF.FilePolarity,Positive*%
%FSLAX46Y46*%
G04 Gerber Fmt 4.6, Leading zero omitted, Abs format (unit mm)*
G04 Created by KiCad (PCBNEW 5.0.2+dfsg1-1~bpo9+1) date dom 10 mar 2019 13:40:58 -05*
%MOMM*%
%LPD*%
G01*
G04 APERTURE LIST*
%ADD10C,0.150000*%
%ADD11C,0.175000*%
%ADD12C,0.200000*%
%ADD13C,0.120000*%
G04 APERTURE END LIST*
D10*
X52451000Y-34734500D02*
X51435000Y-34734500D01*
X55372000Y-33464500D02*
X55372000Y-34734500D01*
X55245000Y-33464500D02*
X55372000Y-33464500D01*
X51435000Y-34734500D02*
X51435000Y-33528000D01*
X52970214Y-34628142D02*
X53055928Y-34656714D01*
X53084500Y-34685285D01*
X53113071Y-34742428D01*
X53113071Y-34828142D01*
X53084500Y-34885285D01*
X53055928Y-34913857D01*
X52998785Y-34942428D01*
X52770214Y-34942428D01*
X52770214Y-34342428D01*
X52970214Y-34342428D01*
X53027357Y-34371000D01*
X53055928Y-34399571D01*
X53084500Y-34456714D01*
X53084500Y-34513857D01*
X53055928Y-34571000D01*
X53027357Y-34599571D01*
X52970214Y-34628142D01*
X52770214Y-34628142D01*
X53341642Y-34771000D02*
X53627357Y-34771000D01*
X53284500Y-34942428D02*
X53484500Y-34342428D01*
X53684500Y-34942428D01*
X53798785Y-34342428D02*
X54141642Y-34342428D01*
X53970214Y-34942428D02*
X53970214Y-34342428D01*
X54341642Y-34713857D02*
X54798785Y-34713857D01*
X51435000Y-33528000D02*
X51562000Y-33528000D01*
X55372000Y-34734500D02*
X55181500Y-34734500D01*
X55372000Y-32893000D02*
X56197500Y-32893000D01*
X53022500Y-32893000D02*
X53848000Y-32893000D01*
X57658000Y-32893000D02*
X58483500Y-32893000D01*
X34798000Y-31369000D02*
X34417000Y-31369000D01*
X34798000Y-31750000D02*
X34798000Y-31369000D01*
X32402428Y-32973857D02*
X31802428Y-32973857D01*
X31802428Y-32745285D01*
X31831000Y-32688142D01*
X31859571Y-32659571D01*
X31916714Y-32631000D01*
X32002428Y-32631000D01*
X32059571Y-32659571D01*
X32088142Y-32688142D01*
X32116714Y-32745285D01*
X32116714Y-32973857D01*
X32459571Y-32516714D02*
X32459571Y-32059571D01*
X32402428Y-31916714D02*
X31802428Y-31916714D01*
X32402428Y-31631000D02*
X31802428Y-31631000D01*
X32402428Y-31288142D01*
X31802428Y-31288142D01*
X34798000Y-34925000D02*
X34798000Y-33147000D01*
X34671000Y-34925000D02*
X34798000Y-34925000D01*
X34163000Y-33147000D02*
X34798000Y-33147000D01*
X32512000Y-33147000D02*
X32893000Y-33147000D01*
X32512000Y-34925000D02*
X32512000Y-33147000D01*
X32639000Y-34925000D02*
X32512000Y-34925000D01*
X33197857Y-34625000D02*
X33140714Y-34596428D01*
X33055000Y-34596428D01*
X32969285Y-34625000D01*
X32912142Y-34682142D01*
X32883571Y-34739285D01*
X32855000Y-34853571D01*
X32855000Y-34939285D01*
X32883571Y-35053571D01*
X32912142Y-35110714D01*
X32969285Y-35167857D01*
X33055000Y-35196428D01*
X33112142Y-35196428D01*
X33197857Y-35167857D01*
X33226428Y-35139285D01*
X33226428Y-34939285D01*
X33112142Y-34939285D01*
X33483571Y-35196428D02*
X33483571Y-34596428D01*
X33826428Y-35196428D01*
X33826428Y-34596428D01*
X34112142Y-35196428D02*
X34112142Y-34596428D01*
X34255000Y-34596428D01*
X34340714Y-34625000D01*
X34397857Y-34682142D01*
X34426428Y-34739285D01*
X34455000Y-34853571D01*
X34455000Y-34939285D01*
X34426428Y-35053571D01*
X34397857Y-35110714D01*
X34340714Y-35167857D01*
X34255000Y-35196428D01*
X34112142Y-35196428D01*
X57708857Y-34498000D02*
X57651714Y-34469428D01*
X57566000Y-34469428D01*
X57480285Y-34498000D01*
X57423142Y-34555142D01*
X57394571Y-34612285D01*
X57366000Y-34726571D01*
X57366000Y-34812285D01*
X57394571Y-34926571D01*
X57423142Y-34983714D01*
X57480285Y-35040857D01*
X57566000Y-35069428D01*
X57623142Y-35069428D01*
X57708857Y-35040857D01*
X57737428Y-35012285D01*
X57737428Y-34812285D01*
X57623142Y-34812285D01*
X57994571Y-35069428D02*
X57994571Y-34469428D01*
X58337428Y-35069428D01*
X58337428Y-34469428D01*
X58623142Y-35069428D02*
X58623142Y-34469428D01*
X58766000Y-34469428D01*
X58851714Y-34498000D01*
X58908857Y-34555142D01*
X58937428Y-34612285D01*
X58966000Y-34726571D01*
X58966000Y-34812285D01*
X58937428Y-34926571D01*
X58908857Y-34983714D01*
X58851714Y-35040857D01*
X58766000Y-35069428D01*
X58623142Y-35069428D01*
X51562000Y-31623000D02*
X51562000Y-33020000D01*
X54991000Y-31623000D02*
X51562000Y-31623000D01*
X60071000Y-31623000D02*
X57912000Y-31623000D01*
X60071000Y-33020000D02*
X60071000Y-31623000D01*
D11*
X55438000Y-31573000D02*
X55538000Y-31606333D01*
X55571333Y-31639666D01*
X55604666Y-31706333D01*
X55604666Y-31806333D01*
X55571333Y-31873000D01*
X55538000Y-31906333D01*
X55471333Y-31939666D01*
X55204666Y-31939666D01*
X55204666Y-31239666D01*
X55438000Y-31239666D01*
X55504666Y-31273000D01*
X55538000Y-31306333D01*
X55571333Y-31373000D01*
X55571333Y-31439666D01*
X55538000Y-31506333D01*
X55504666Y-31539666D01*
X55438000Y-31573000D01*
X55204666Y-31573000D01*
X55871333Y-31739666D02*
X56204666Y-31739666D01*
X55804666Y-31939666D02*
X56038000Y-31239666D01*
X56271333Y-31939666D01*
X56404666Y-31239666D02*
X56804666Y-31239666D01*
X56604666Y-31939666D02*
X56604666Y-31239666D01*
X57038000Y-31673000D02*
X57571333Y-31673000D01*
X57304666Y-31939666D02*
X57304666Y-31406333D01*
D10*
X55880000Y-33020000D02*
X56134000Y-33020000D01*
X55880000Y-34290000D02*
X55880000Y-33020000D01*
X60071000Y-33020000D02*
X59944000Y-33020000D01*
X60071000Y-34290000D02*
X60071000Y-33020000D01*
X55880000Y-34290000D02*
X60071000Y-34290000D01*
X35179000Y-31750000D02*
X35179000Y-33655000D01*
X37592000Y-31750000D02*
X35179000Y-31750000D01*
X50800000Y-31750000D02*
X40132000Y-31750000D01*
X50800000Y-33655000D02*
X50800000Y-31750000D01*
X35179000Y-33655000D02*
X50800000Y-33655000D01*
D12*
X37795333Y-31184904D02*
X38062000Y-31984904D01*
X38328666Y-31184904D01*
X39052476Y-31908714D02*
X39014380Y-31946809D01*
X38900095Y-31984904D01*
X38823904Y-31984904D01*
X38709619Y-31946809D01*
X38633428Y-31870619D01*
X38595333Y-31794428D01*
X38557238Y-31642047D01*
X38557238Y-31527761D01*
X38595333Y-31375380D01*
X38633428Y-31299190D01*
X38709619Y-31223000D01*
X38823904Y-31184904D01*
X38900095Y-31184904D01*
X39014380Y-31223000D01*
X39052476Y-31261095D01*
X39852476Y-31908714D02*
X39814380Y-31946809D01*
X39700095Y-31984904D01*
X39623904Y-31984904D01*
X39509619Y-31946809D01*
X39433428Y-31870619D01*
X39395333Y-31794428D01*
X39357238Y-31642047D01*
X39357238Y-31527761D01*
X39395333Y-31375380D01*
X39433428Y-31299190D01*
X39509619Y-31223000D01*
X39623904Y-31184904D01*
X39700095Y-31184904D01*
X39814380Y-31223000D01*
X39852476Y-31261095D01*
D13*
X40513000Y-35941000D02*
X50800000Y-35941000D01*
D12*
X38506476Y-35795000D02*
X38430285Y-35756904D01*
X38316000Y-35756904D01*
X38201714Y-35795000D01*
X38125523Y-35871190D01*
X38087428Y-35947380D01*
X38049333Y-36099761D01*
X38049333Y-36214047D01*
X38087428Y-36366428D01*
X38125523Y-36442619D01*
X38201714Y-36518809D01*
X38316000Y-36556904D01*
X38392190Y-36556904D01*
X38506476Y-36518809D01*
X38544571Y-36480714D01*
X38544571Y-36214047D01*
X38392190Y-36214047D01*
X38887428Y-36556904D02*
X38887428Y-35756904D01*
X39344571Y-36556904D01*
X39344571Y-35756904D01*
X39725523Y-36556904D02*
X39725523Y-35756904D01*
X39916000Y-35756904D01*
X40030285Y-35795000D01*
X40106476Y-35871190D01*
X40144571Y-35947380D01*
X40182666Y-36099761D01*
X40182666Y-36214047D01*
X40144571Y-36366428D01*
X40106476Y-36442619D01*
X40030285Y-36518809D01*
X39916000Y-36556904D01*
X39725523Y-36556904D01*
D13*
X35179000Y-34036000D02*
X35179000Y-35941000D01*
X50800000Y-34036000D02*
X35179000Y-34036000D01*
X50800000Y-35941000D02*
X50800000Y-34036000D01*
X35179000Y-35941000D02*
X37719000Y-35941000D01*
D10*
X30480000Y-50546000D02*
X30480000Y-30988000D01*
X61061600Y-50546000D02*
X30480000Y-50546000D01*
X61061600Y-30988000D02*
X61061600Y-50546000D01*
X30480000Y-30988000D02*
X61061600Y-30988000D01*
D13*
X55218276Y-33197000D02*
X55305000Y-33197000D01*
X53915000Y-33197000D02*
X54001724Y-33197000D01*
X55305000Y-33197000D02*
X55305000Y-34072000D01*
X53915000Y-33197000D02*
X53915000Y-34072000D01*
X55004493Y-34072000D02*
X55305000Y-34072000D01*
X53915000Y-34072000D02*
X54215507Y-34072000D01*
X52932276Y-33197000D02*
X53019000Y-33197000D01*
X51629000Y-33197000D02*
X51715724Y-33197000D01*
X53019000Y-33197000D02*
X53019000Y-34072000D01*
X51629000Y-33197000D02*
X51629000Y-34072000D01*
X52718493Y-34072000D02*
X53019000Y-34072000D01*
X51629000Y-34072000D02*
X51929507Y-34072000D01*
X40750000Y-44050000D02*
X46150000Y-44050000D01*
X42250000Y-49170000D02*
X46150000Y-49170000D01*
X42250000Y-42070000D02*
X46150000Y-42070000D01*
X40750000Y-36950000D02*
X46150000Y-36950000D01*
X50338000Y-45720000D02*
X52138000Y-45720000D01*
X52138000Y-42500000D02*
X49688000Y-42500000D01*
X59180000Y-41260000D02*
X55880000Y-41260000D01*
X54880000Y-37210000D02*
X55730000Y-37210000D01*
X55730000Y-37210000D02*
X55730000Y-36910000D01*
X55730000Y-36910000D02*
X59180000Y-36910000D01*
X32028400Y-45752936D02*
X32028400Y-46957064D01*
X33848400Y-45752936D02*
X33848400Y-46957064D01*
X34828400Y-45707936D02*
X34828400Y-46912064D01*
X36648400Y-45707936D02*
X36648400Y-46912064D01*
X53648000Y-38507936D02*
X53648000Y-39712064D01*
X51828000Y-38507936D02*
X51828000Y-39712064D01*
X33061000Y-40353064D02*
X33061000Y-39148936D01*
X31241000Y-40353064D02*
X31241000Y-39148936D01*
X34041000Y-40312064D02*
X34041000Y-39107936D01*
X35861000Y-40312064D02*
X35861000Y-39107936D01*
X39553000Y-45707936D02*
X39553000Y-46912064D01*
X37733000Y-45707936D02*
X37733000Y-46912064D01*
X37733000Y-39107936D02*
X37733000Y-40312064D01*
X39553000Y-39107936D02*
X39553000Y-40312064D01*
X50948000Y-39712064D02*
X50948000Y-38507936D01*
X49128000Y-39712064D02*
X49128000Y-38507936D01*
X50735936Y-46334000D02*
X51940064Y-46334000D01*
X50735936Y-48154000D02*
X51940064Y-48154000D01*
X59180000Y-49160000D02*
X55880000Y-49160000D01*
X54880000Y-45110000D02*
X55730000Y-45110000D01*
X55730000Y-45110000D02*
X55730000Y-44810000D01*
X55730000Y-44810000D02*
X59180000Y-44810000D01*
D10*
X43853157Y-44273828D02*
X43853157Y-44759542D01*
X43881728Y-44816685D01*
X43910300Y-44845257D01*
X43967442Y-44873828D01*
X44081728Y-44873828D01*
X44138871Y-44845257D01*
X44167442Y-44816685D01*
X44196014Y-44759542D01*
X44196014Y-44273828D01*
X44453157Y-44330971D02*
X44481728Y-44302400D01*
X44538871Y-44273828D01*
X44681728Y-44273828D01*
X44738871Y-44302400D01*
X44767442Y-44330971D01*
X44796014Y-44388114D01*
X44796014Y-44445257D01*
X44767442Y-44530971D01*
X44424585Y-44873828D01*
X44796014Y-44873828D01*
X43713457Y-37161828D02*
X43713457Y-37647542D01*
X43742028Y-37704685D01*
X43770600Y-37733257D01*
X43827742Y-37761828D01*
X43942028Y-37761828D01*
X43999171Y-37733257D01*
X44027742Y-37704685D01*
X44056314Y-37647542D01*
X44056314Y-37161828D01*
X44284885Y-37161828D02*
X44656314Y-37161828D01*
X44456314Y-37390400D01*
X44542028Y-37390400D01*
X44599171Y-37418971D01*
X44627742Y-37447542D01*
X44656314Y-37504685D01*
X44656314Y-37647542D01*
X44627742Y-37704685D01*
X44599171Y-37733257D01*
X44542028Y-37761828D01*
X44370600Y-37761828D01*
X44313457Y-37733257D01*
X44284885Y-37704685D01*
X50774657Y-42749828D02*
X50774657Y-43235542D01*
X50803228Y-43292685D01*
X50831800Y-43321257D01*
X50888942Y-43349828D01*
X51003228Y-43349828D01*
X51060371Y-43321257D01*
X51088942Y-43292685D01*
X51117514Y-43235542D01*
X51117514Y-42749828D01*
X51660371Y-42949828D02*
X51660371Y-43349828D01*
X51517514Y-42721257D02*
X51374657Y-43149828D01*
X51746085Y-43149828D01*
X56920476Y-38677904D02*
X56920476Y-39325523D01*
X56958571Y-39401714D01*
X56996666Y-39439809D01*
X57072857Y-39477904D01*
X57225238Y-39477904D01*
X57301428Y-39439809D01*
X57339523Y-39401714D01*
X57377619Y-39325523D01*
X57377619Y-38677904D01*
X57872857Y-39020761D02*
X57796666Y-38982666D01*
X57758571Y-38944571D01*
X57720476Y-38868380D01*
X57720476Y-38830285D01*
X57758571Y-38754095D01*
X57796666Y-38716000D01*
X57872857Y-38677904D01*
X58025238Y-38677904D01*
X58101428Y-38716000D01*
X58139523Y-38754095D01*
X58177619Y-38830285D01*
X58177619Y-38868380D01*
X58139523Y-38944571D01*
X58101428Y-38982666D01*
X58025238Y-39020761D01*
X57872857Y-39020761D01*
X57796666Y-39058857D01*
X57758571Y-39096952D01*
X57720476Y-39173142D01*
X57720476Y-39325523D01*
X57758571Y-39401714D01*
X57796666Y-39439809D01*
X57872857Y-39477904D01*
X58025238Y-39477904D01*
X58101428Y-39439809D01*
X58139523Y-39401714D01*
X58177619Y-39325523D01*
X58177619Y-39173142D01*
X58139523Y-39096952D01*
X58101428Y-39058857D01*
X58025238Y-39020761D01*
X32823166Y-46640714D02*
X32785071Y-46678809D01*
X32670785Y-46716904D01*
X32594595Y-46716904D01*
X32480309Y-46678809D01*
X32404119Y-46602619D01*
X32366023Y-46526428D01*
X32327928Y-46374047D01*
X32327928Y-46259761D01*
X32366023Y-46107380D01*
X32404119Y-46031190D01*
X32480309Y-45955000D01*
X32594595Y-45916904D01*
X32670785Y-45916904D01*
X32785071Y-45955000D01*
X32823166Y-45993095D01*
X33127928Y-45993095D02*
X33166023Y-45955000D01*
X33242214Y-45916904D01*
X33432690Y-45916904D01*
X33508880Y-45955000D01*
X33546976Y-45993095D01*
X33585071Y-46069285D01*
X33585071Y-46145476D01*
X33546976Y-46259761D01*
X33089833Y-46716904D01*
X33585071Y-46716904D01*
X35680666Y-46577214D02*
X35642571Y-46615309D01*
X35528285Y-46653404D01*
X35452095Y-46653404D01*
X35337809Y-46615309D01*
X35261619Y-46539119D01*
X35223523Y-46462928D01*
X35185428Y-46310547D01*
X35185428Y-46196261D01*
X35223523Y-46043880D01*
X35261619Y-45967690D01*
X35337809Y-45891500D01*
X35452095Y-45853404D01*
X35528285Y-45853404D01*
X35642571Y-45891500D01*
X35680666Y-45929595D01*
X35947333Y-45853404D02*
X36442571Y-45853404D01*
X36175904Y-46158166D01*
X36290190Y-46158166D01*
X36366380Y-46196261D01*
X36404476Y-46234357D01*
X36442571Y-46310547D01*
X36442571Y-46501023D01*
X36404476Y-46577214D01*
X36366380Y-46615309D01*
X36290190Y-46653404D01*
X36061619Y-46653404D01*
X35985428Y-46615309D01*
X35947333Y-46577214D01*
X52571666Y-39401714D02*
X52533571Y-39439809D01*
X52419285Y-39477904D01*
X52343095Y-39477904D01*
X52228809Y-39439809D01*
X52152619Y-39363619D01*
X52114523Y-39287428D01*
X52076428Y-39135047D01*
X52076428Y-39020761D01*
X52114523Y-38868380D01*
X52152619Y-38792190D01*
X52228809Y-38716000D01*
X52343095Y-38677904D01*
X52419285Y-38677904D01*
X52533571Y-38716000D01*
X52571666Y-38754095D01*
X52838333Y-38677904D02*
X53371666Y-38677904D01*
X53028809Y-39477904D01*
D13*
X31997666Y-40112904D02*
X31731000Y-39731952D01*
X31540523Y-40112904D02*
X31540523Y-39312904D01*
X31845285Y-39312904D01*
X31921476Y-39351000D01*
X31959571Y-39389095D01*
X31997666Y-39465285D01*
X31997666Y-39579571D01*
X31959571Y-39655761D01*
X31921476Y-39693857D01*
X31845285Y-39731952D01*
X31540523Y-39731952D01*
X32759571Y-40112904D02*
X32302428Y-40112904D01*
X32531000Y-40112904D02*
X32531000Y-39312904D01*
X32454809Y-39427190D01*
X32378619Y-39503380D01*
X32302428Y-39541476D01*
D10*
X34791666Y-40071904D02*
X34525000Y-39690952D01*
X34334523Y-40071904D02*
X34334523Y-39271904D01*
X34639285Y-39271904D01*
X34715476Y-39310000D01*
X34753571Y-39348095D01*
X34791666Y-39424285D01*
X34791666Y-39538571D01*
X34753571Y-39614761D01*
X34715476Y-39652857D01*
X34639285Y-39690952D01*
X34334523Y-39690952D01*
X35096428Y-39348095D02*
X35134523Y-39310000D01*
X35210714Y-39271904D01*
X35401190Y-39271904D01*
X35477380Y-39310000D01*
X35515476Y-39348095D01*
X35553571Y-39424285D01*
X35553571Y-39500476D01*
X35515476Y-39614761D01*
X35058333Y-40071904D01*
X35553571Y-40071904D01*
X38474666Y-46671904D02*
X38208000Y-46290952D01*
X38017523Y-46671904D02*
X38017523Y-45871904D01*
X38322285Y-45871904D01*
X38398476Y-45910000D01*
X38436571Y-45948095D01*
X38474666Y-46024285D01*
X38474666Y-46138571D01*
X38436571Y-46214761D01*
X38398476Y-46252857D01*
X38322285Y-46290952D01*
X38017523Y-46290952D01*
X38741333Y-45871904D02*
X39274666Y-45871904D01*
X38931809Y-46671904D01*
X38538166Y-40071904D02*
X38271500Y-39690952D01*
X38081023Y-40071904D02*
X38081023Y-39271904D01*
X38385785Y-39271904D01*
X38461976Y-39310000D01*
X38500071Y-39348095D01*
X38538166Y-39424285D01*
X38538166Y-39538571D01*
X38500071Y-39614761D01*
X38461976Y-39652857D01*
X38385785Y-39690952D01*
X38081023Y-39690952D01*
X38995309Y-39614761D02*
X38919119Y-39576666D01*
X38881023Y-39538571D01*
X38842928Y-39462380D01*
X38842928Y-39424285D01*
X38881023Y-39348095D01*
X38919119Y-39310000D01*
X38995309Y-39271904D01*
X39147690Y-39271904D01*
X39223880Y-39310000D01*
X39261976Y-39348095D01*
X39300071Y-39424285D01*
X39300071Y-39462380D01*
X39261976Y-39538571D01*
X39223880Y-39576666D01*
X39147690Y-39614761D01*
X38995309Y-39614761D01*
X38919119Y-39652857D01*
X38881023Y-39690952D01*
X38842928Y-39767142D01*
X38842928Y-39919523D01*
X38881023Y-39995714D01*
X38919119Y-40033809D01*
X38995309Y-40071904D01*
X39147690Y-40071904D01*
X39223880Y-40033809D01*
X39261976Y-39995714D01*
X39300071Y-39919523D01*
X39300071Y-39767142D01*
X39261976Y-39690952D01*
X39223880Y-39652857D01*
X39147690Y-39614761D01*
X49904666Y-39477904D02*
X49638000Y-39096952D01*
X49447523Y-39477904D02*
X49447523Y-38677904D01*
X49752285Y-38677904D01*
X49828476Y-38716000D01*
X49866571Y-38754095D01*
X49904666Y-38830285D01*
X49904666Y-38944571D01*
X49866571Y-39020761D01*
X49828476Y-39058857D01*
X49752285Y-39096952D01*
X49447523Y-39096952D01*
X50285619Y-39477904D02*
X50438000Y-39477904D01*
X50514190Y-39439809D01*
X50552285Y-39401714D01*
X50628476Y-39287428D01*
X50666571Y-39135047D01*
X50666571Y-38830285D01*
X50628476Y-38754095D01*
X50590380Y-38716000D01*
X50514190Y-38677904D01*
X50361809Y-38677904D01*
X50285619Y-38716000D01*
X50247523Y-38754095D01*
X50209428Y-38830285D01*
X50209428Y-39020761D01*
X50247523Y-39096952D01*
X50285619Y-39135047D01*
X50361809Y-39173142D01*
X50514190Y-39173142D01*
X50590380Y-39135047D01*
X50628476Y-39096952D01*
X50666571Y-39020761D01*
X51579428Y-47629714D02*
X51293714Y-47829714D01*
X51579428Y-47972571D02*
X50979428Y-47972571D01*
X50979428Y-47744000D01*
X51008000Y-47686857D01*
X51036571Y-47658285D01*
X51093714Y-47629714D01*
X51179428Y-47629714D01*
X51236571Y-47658285D01*
X51265142Y-47686857D01*
X51293714Y-47744000D01*
X51293714Y-47972571D01*
X51579428Y-47058285D02*
X51579428Y-47401142D01*
X51579428Y-47229714D02*
X50979428Y-47229714D01*
X51065142Y-47286857D01*
X51122285Y-47344000D01*
X51150857Y-47401142D01*
X51579428Y-46486857D02*
X51579428Y-46829714D01*
X51579428Y-46658285D02*
X50979428Y-46658285D01*
X51065142Y-46715428D01*
X51122285Y-46772571D01*
X51150857Y-46829714D01*
X56920476Y-46551904D02*
X56920476Y-47199523D01*
X56958571Y-47275714D01*
X56996666Y-47313809D01*
X57072857Y-47351904D01*
X57225238Y-47351904D01*
X57301428Y-47313809D01*
X57339523Y-47275714D01*
X57377619Y-47199523D01*
X57377619Y-46551904D01*
X58139523Y-46551904D02*
X57758571Y-46551904D01*
X57720476Y-46932857D01*
X57758571Y-46894761D01*
X57834761Y-46856666D01*
X58025238Y-46856666D01*
X58101428Y-46894761D01*
X58139523Y-46932857D01*
X58177619Y-47009047D01*
X58177619Y-47199523D01*
X58139523Y-47275714D01*
X58101428Y-47313809D01*
X58025238Y-47351904D01*
X57834761Y-47351904D01*
X57758571Y-47313809D01*
X57720476Y-47275714D01*
M02*
