%TF.GenerationSoftware,KiCad,Pcbnew,5.0.2+dfsg1-1~bpo9+1*%
%TF.CreationDate,2019-03-10T13:40:58-05:00*%
%TF.ProjectId,SUPPLY_POWER,53555050-4c59-45f5-904f-5745522e6b69,rev?*%
%TF.SameCoordinates,Original*%
%TF.FileFunction,Soldermask,Bot*%
%TF.FilePolarity,Negative*%
%FSLAX46Y46*%
G04 Gerber Fmt 4.6, Leading zero omitted, Abs format (unit mm)*
G04 Created by KiCad (PCBNEW 5.0.2+dfsg1-1~bpo9+1) date dom 10 mar 2019 13:40:58 -05*
%MOMM*%
%LPD*%
G01*
G04 APERTURE LIST*
%ADD10C,0.150000*%
G04 APERTURE END LIST*
D10*
X30480000Y-50546000D02*
X30480000Y-30988000D01*
X61061600Y-50546000D02*
X30480000Y-50546000D01*
X61061600Y-30988000D02*
X61061600Y-50546000D01*
X30480000Y-30988000D02*
X61061600Y-30988000D01*
G36*
X50268214Y-49535879D02*
X50268216Y-49535880D01*
X50268217Y-49535880D01*
X50459394Y-49615068D01*
X50631451Y-49730033D01*
X50777767Y-49876349D01*
X50892732Y-50048406D01*
X50971921Y-50239586D01*
X51012290Y-50442534D01*
X51012290Y-50649466D01*
X50971921Y-50852414D01*
X50892732Y-51043594D01*
X50777767Y-51215651D01*
X50631451Y-51361967D01*
X50631448Y-51361969D01*
X50459394Y-51476932D01*
X50268217Y-51556120D01*
X50268216Y-51556120D01*
X50268214Y-51556121D01*
X50065266Y-51596490D01*
X49858334Y-51596490D01*
X49655386Y-51556121D01*
X49655384Y-51556120D01*
X49655383Y-51556120D01*
X49464206Y-51476932D01*
X49292152Y-51361969D01*
X49292149Y-51361967D01*
X49145833Y-51215651D01*
X49030868Y-51043594D01*
X48951679Y-50852414D01*
X48911310Y-50649466D01*
X48911310Y-50442534D01*
X48951679Y-50239586D01*
X49030868Y-50048406D01*
X49145833Y-49876349D01*
X49292149Y-49730033D01*
X49464206Y-49615068D01*
X49655383Y-49535880D01*
X49655384Y-49535880D01*
X49655386Y-49535879D01*
X49858334Y-49495510D01*
X50065266Y-49495510D01*
X50268214Y-49535879D01*
X50268214Y-49535879D01*
G37*
G36*
X39168414Y-49535879D02*
X39168416Y-49535880D01*
X39168417Y-49535880D01*
X39359594Y-49615068D01*
X39531651Y-49730033D01*
X39677967Y-49876349D01*
X39792932Y-50048406D01*
X39872121Y-50239586D01*
X39912490Y-50442534D01*
X39912490Y-50649466D01*
X39872121Y-50852414D01*
X39792932Y-51043594D01*
X39677967Y-51215651D01*
X39531651Y-51361967D01*
X39531648Y-51361969D01*
X39359594Y-51476932D01*
X39168417Y-51556120D01*
X39168416Y-51556120D01*
X39168414Y-51556121D01*
X38965466Y-51596490D01*
X38758534Y-51596490D01*
X38555586Y-51556121D01*
X38555584Y-51556120D01*
X38555583Y-51556120D01*
X38364406Y-51476932D01*
X38192352Y-51361969D01*
X38192349Y-51361967D01*
X38046033Y-51215651D01*
X37931068Y-51043594D01*
X37851879Y-50852414D01*
X37811510Y-50649466D01*
X37811510Y-50442534D01*
X37851879Y-50239586D01*
X37931068Y-50048406D01*
X38046033Y-49876349D01*
X38192349Y-49730033D01*
X38364406Y-49615068D01*
X38555583Y-49535880D01*
X38555584Y-49535880D01*
X38555586Y-49535879D01*
X38758534Y-49495510D01*
X38965466Y-49495510D01*
X39168414Y-49535879D01*
X39168414Y-49535879D01*
G37*
G36*
X51838604Y-46426347D02*
X51875145Y-46437432D01*
X51908820Y-46455431D01*
X51938341Y-46479659D01*
X51962569Y-46509180D01*
X51980568Y-46542855D01*
X51991653Y-46579396D01*
X51996000Y-46623538D01*
X51996000Y-48072462D01*
X51991653Y-48116604D01*
X51980568Y-48153145D01*
X51962569Y-48186820D01*
X51938341Y-48216341D01*
X51908820Y-48240569D01*
X51875145Y-48258568D01*
X51838604Y-48269653D01*
X51794462Y-48274000D01*
X50845538Y-48274000D01*
X50801396Y-48269653D01*
X50764855Y-48258568D01*
X50731180Y-48240569D01*
X50701659Y-48216341D01*
X50677431Y-48186820D01*
X50659432Y-48153145D01*
X50648347Y-48116604D01*
X50644000Y-48072462D01*
X50644000Y-46623538D01*
X50648347Y-46579396D01*
X50659432Y-46542855D01*
X50677431Y-46509180D01*
X50701659Y-46479659D01*
X50731180Y-46455431D01*
X50764855Y-46437432D01*
X50801396Y-46426347D01*
X50845538Y-46422000D01*
X51794462Y-46422000D01*
X51838604Y-46426347D01*
X51838604Y-46426347D01*
G37*
G36*
X54638604Y-46426347D02*
X54675145Y-46437432D01*
X54708820Y-46455431D01*
X54738341Y-46479659D01*
X54762569Y-46509180D01*
X54780568Y-46542855D01*
X54791653Y-46579396D01*
X54796000Y-46623538D01*
X54796000Y-48072462D01*
X54791653Y-48116604D01*
X54780568Y-48153145D01*
X54762569Y-48186820D01*
X54738341Y-48216341D01*
X54708820Y-48240569D01*
X54675145Y-48258568D01*
X54638604Y-48269653D01*
X54594462Y-48274000D01*
X53645538Y-48274000D01*
X53601396Y-48269653D01*
X53564855Y-48258568D01*
X53531180Y-48240569D01*
X53501659Y-48216341D01*
X53477431Y-48186820D01*
X53459432Y-48153145D01*
X53448347Y-48116604D01*
X53444000Y-48072462D01*
X53444000Y-46623538D01*
X53448347Y-46579396D01*
X53459432Y-46542855D01*
X53477431Y-46509180D01*
X53501659Y-46479659D01*
X53531180Y-46455431D01*
X53564855Y-46437432D01*
X53601396Y-46426347D01*
X53645538Y-46422000D01*
X54594462Y-46422000D01*
X54638604Y-46426347D01*
X54638604Y-46426347D01*
G37*
G36*
X37472604Y-45926347D02*
X37509145Y-45937432D01*
X37542820Y-45955431D01*
X37572341Y-45979659D01*
X37596569Y-46009180D01*
X37614568Y-46042855D01*
X37625653Y-46079396D01*
X37630000Y-46123538D01*
X37630000Y-47572462D01*
X37625653Y-47616604D01*
X37614568Y-47653145D01*
X37596569Y-47686820D01*
X37572341Y-47716341D01*
X37542820Y-47740569D01*
X37509145Y-47758568D01*
X37472604Y-47769653D01*
X37428462Y-47774000D01*
X36479538Y-47774000D01*
X36435396Y-47769653D01*
X36398855Y-47758568D01*
X36365180Y-47740569D01*
X36335659Y-47716341D01*
X36311431Y-47686820D01*
X36293432Y-47653145D01*
X36282347Y-47616604D01*
X36278000Y-47572462D01*
X36278000Y-46123538D01*
X36282347Y-46079396D01*
X36293432Y-46042855D01*
X36311431Y-46009180D01*
X36335659Y-45979659D01*
X36365180Y-45955431D01*
X36398855Y-45937432D01*
X36435396Y-45926347D01*
X36479538Y-45922000D01*
X37428462Y-45922000D01*
X37472604Y-45926347D01*
X37472604Y-45926347D01*
G37*
G36*
X34672604Y-45926347D02*
X34709145Y-45937432D01*
X34742820Y-45955431D01*
X34772341Y-45979659D01*
X34796569Y-46009180D01*
X34814568Y-46042855D01*
X34825653Y-46079396D01*
X34830000Y-46123538D01*
X34830000Y-47572462D01*
X34825653Y-47616604D01*
X34814568Y-47653145D01*
X34796569Y-47686820D01*
X34772341Y-47716341D01*
X34742820Y-47740569D01*
X34709145Y-47758568D01*
X34672604Y-47769653D01*
X34628462Y-47774000D01*
X33679538Y-47774000D01*
X33635396Y-47769653D01*
X33598855Y-47758568D01*
X33565180Y-47740569D01*
X33535659Y-47716341D01*
X33511431Y-47686820D01*
X33493432Y-47653145D01*
X33482347Y-47616604D01*
X33478000Y-47572462D01*
X33478000Y-46123538D01*
X33482347Y-46079396D01*
X33493432Y-46042855D01*
X33511431Y-46009180D01*
X33535659Y-45979659D01*
X33565180Y-45955431D01*
X33598855Y-45937432D01*
X33635396Y-45926347D01*
X33679538Y-45922000D01*
X34628462Y-45922000D01*
X34672604Y-45926347D01*
X34672604Y-45926347D01*
G37*
G36*
X57398000Y-47208900D02*
X56196000Y-47208900D01*
X56196000Y-45861900D01*
X57398000Y-45861900D01*
X57398000Y-47208900D01*
X57398000Y-47208900D01*
G37*
G36*
X40503000Y-46874000D02*
X38841000Y-46874000D01*
X38841000Y-44222000D01*
X40503000Y-44222000D01*
X40503000Y-46874000D01*
X40503000Y-46874000D01*
G37*
G36*
X49606000Y-46874000D02*
X47944000Y-46874000D01*
X47944000Y-46122000D01*
X49606000Y-46122000D01*
X49606000Y-46874000D01*
X49606000Y-46874000D01*
G37*
G36*
X46906000Y-46874000D02*
X45244000Y-46874000D01*
X45244000Y-44222000D01*
X46906000Y-44222000D01*
X46906000Y-46874000D01*
X46906000Y-46874000D01*
G37*
G36*
X43203000Y-46874000D02*
X41541000Y-46874000D01*
X41541000Y-46122000D01*
X43203000Y-46122000D01*
X43203000Y-46874000D01*
X43203000Y-46874000D01*
G37*
G36*
X51838604Y-43426347D02*
X51875145Y-43437432D01*
X51908820Y-43455431D01*
X51938341Y-43479659D01*
X51962569Y-43509180D01*
X51980568Y-43542855D01*
X51991653Y-43579396D01*
X51996000Y-43623538D01*
X51996000Y-45072462D01*
X51991653Y-45116604D01*
X51980568Y-45153145D01*
X51962569Y-45186820D01*
X51938341Y-45216341D01*
X51908820Y-45240569D01*
X51875145Y-45258568D01*
X51838604Y-45269653D01*
X51794462Y-45274000D01*
X50845538Y-45274000D01*
X50801396Y-45269653D01*
X50764855Y-45258568D01*
X50731180Y-45240569D01*
X50701659Y-45216341D01*
X50677431Y-45186820D01*
X50659432Y-45153145D01*
X50648347Y-45116604D01*
X50644000Y-45072462D01*
X50644000Y-43623538D01*
X50648347Y-43579396D01*
X50659432Y-43542855D01*
X50677431Y-43509180D01*
X50701659Y-43479659D01*
X50731180Y-43455431D01*
X50764855Y-43437432D01*
X50801396Y-43426347D01*
X50845538Y-43422000D01*
X51794462Y-43422000D01*
X51838604Y-43426347D01*
X51838604Y-43426347D01*
G37*
G36*
X54638604Y-43426347D02*
X54675145Y-43437432D01*
X54708820Y-43455431D01*
X54738341Y-43479659D01*
X54762569Y-43509180D01*
X54780568Y-43542855D01*
X54791653Y-43579396D01*
X54796000Y-43623538D01*
X54796000Y-45072462D01*
X54791653Y-45116604D01*
X54780568Y-45153145D01*
X54762569Y-45186820D01*
X54738341Y-45216341D01*
X54708820Y-45240569D01*
X54675145Y-45258568D01*
X54638604Y-45269653D01*
X54594462Y-45274000D01*
X53645538Y-45274000D01*
X53601396Y-45269653D01*
X53564855Y-45258568D01*
X53531180Y-45240569D01*
X53501659Y-45216341D01*
X53477431Y-45186820D01*
X53459432Y-45153145D01*
X53448347Y-45116604D01*
X53444000Y-45072462D01*
X53444000Y-43623538D01*
X53448347Y-43579396D01*
X53459432Y-43542855D01*
X53477431Y-43509180D01*
X53501659Y-43479659D01*
X53531180Y-43455431D01*
X53564855Y-43437432D01*
X53601396Y-43426347D01*
X53645538Y-43422000D01*
X54594462Y-43422000D01*
X54638604Y-43426347D01*
X54638604Y-43426347D01*
G37*
G36*
X57398000Y-45183900D02*
X56196000Y-45183900D01*
X56196000Y-43836900D01*
X57398000Y-43836900D01*
X57398000Y-45183900D01*
X57398000Y-45183900D01*
G37*
G36*
X43203000Y-44974000D02*
X41541000Y-44974000D01*
X41541000Y-44222000D01*
X43203000Y-44222000D01*
X43203000Y-44974000D01*
X43203000Y-44974000D01*
G37*
G36*
X49606000Y-44974000D02*
X47944000Y-44974000D01*
X47944000Y-44222000D01*
X49606000Y-44222000D01*
X49606000Y-44974000D01*
X49606000Y-44974000D01*
G37*
G36*
X37472604Y-42726347D02*
X37509145Y-42737432D01*
X37542820Y-42755431D01*
X37572341Y-42779659D01*
X37596569Y-42809180D01*
X37614568Y-42842855D01*
X37625653Y-42879396D01*
X37630000Y-42923538D01*
X37630000Y-44372462D01*
X37625653Y-44416604D01*
X37614568Y-44453145D01*
X37596569Y-44486820D01*
X37572341Y-44516341D01*
X37542820Y-44540569D01*
X37509145Y-44558568D01*
X37472604Y-44569653D01*
X37428462Y-44574000D01*
X36479538Y-44574000D01*
X36435396Y-44569653D01*
X36398855Y-44558568D01*
X36365180Y-44540569D01*
X36335659Y-44516341D01*
X36311431Y-44486820D01*
X36293432Y-44453145D01*
X36282347Y-44416604D01*
X36278000Y-44372462D01*
X36278000Y-42923538D01*
X36282347Y-42879396D01*
X36293432Y-42842855D01*
X36311431Y-42809180D01*
X36335659Y-42779659D01*
X36365180Y-42755431D01*
X36398855Y-42737432D01*
X36435396Y-42726347D01*
X36479538Y-42722000D01*
X37428462Y-42722000D01*
X37472604Y-42726347D01*
X37472604Y-42726347D01*
G37*
G36*
X34672604Y-42726347D02*
X34709145Y-42737432D01*
X34742820Y-42755431D01*
X34772341Y-42779659D01*
X34796569Y-42809180D01*
X34814568Y-42842855D01*
X34825653Y-42879396D01*
X34830000Y-42923538D01*
X34830000Y-44372462D01*
X34825653Y-44416604D01*
X34814568Y-44453145D01*
X34796569Y-44486820D01*
X34772341Y-44516341D01*
X34742820Y-44540569D01*
X34709145Y-44558568D01*
X34672604Y-44569653D01*
X34628462Y-44574000D01*
X33679538Y-44574000D01*
X33635396Y-44569653D01*
X33598855Y-44558568D01*
X33565180Y-44540569D01*
X33535659Y-44516341D01*
X33511431Y-44486820D01*
X33493432Y-44453145D01*
X33482347Y-44416604D01*
X33478000Y-44372462D01*
X33478000Y-42923538D01*
X33482347Y-42879396D01*
X33493432Y-42842855D01*
X33511431Y-42809180D01*
X33535659Y-42779659D01*
X33565180Y-42755431D01*
X33598855Y-42737432D01*
X33635396Y-42726347D01*
X33679538Y-42722000D01*
X34628462Y-42722000D01*
X34672604Y-42726347D01*
X34672604Y-42726347D01*
G37*
G36*
X30786414Y-42169879D02*
X30786416Y-42169880D01*
X30786417Y-42169880D01*
X30977594Y-42249068D01*
X31149651Y-42364033D01*
X31295967Y-42510349D01*
X31410932Y-42682406D01*
X31490121Y-42873586D01*
X31530490Y-43076534D01*
X31530490Y-43283466D01*
X31491465Y-43479659D01*
X31490120Y-43486417D01*
X31451607Y-43579396D01*
X31410932Y-43677594D01*
X31295967Y-43849651D01*
X31149651Y-43995967D01*
X31149648Y-43995969D01*
X30977594Y-44110932D01*
X30786417Y-44190120D01*
X30786416Y-44190120D01*
X30786414Y-44190121D01*
X30583466Y-44230490D01*
X30376534Y-44230490D01*
X30173586Y-44190121D01*
X30173584Y-44190120D01*
X30173583Y-44190120D01*
X29982406Y-44110932D01*
X29810352Y-43995969D01*
X29810349Y-43995967D01*
X29664033Y-43849651D01*
X29549068Y-43677594D01*
X29508393Y-43579396D01*
X29469880Y-43486417D01*
X29468536Y-43479659D01*
X29429510Y-43283466D01*
X29429510Y-43076534D01*
X29469879Y-42873586D01*
X29549068Y-42682406D01*
X29664033Y-42510349D01*
X29810349Y-42364033D01*
X29982406Y-42249068D01*
X30173583Y-42169880D01*
X30173584Y-42169880D01*
X30173586Y-42169879D01*
X30376534Y-42129510D01*
X30583466Y-42129510D01*
X30786414Y-42169879D01*
X30786414Y-42169879D01*
G37*
G36*
X57398000Y-43208900D02*
X56196000Y-43208900D01*
X56196000Y-41861900D01*
X57398000Y-41861900D01*
X57398000Y-43208900D01*
X57398000Y-43208900D01*
G37*
G36*
X54638604Y-40226347D02*
X54675145Y-40237432D01*
X54708820Y-40255431D01*
X54738341Y-40279659D01*
X54762569Y-40309180D01*
X54780568Y-40342855D01*
X54791653Y-40379396D01*
X54796000Y-40423538D01*
X54796000Y-41872462D01*
X54791653Y-41916604D01*
X54780568Y-41953145D01*
X54762569Y-41986820D01*
X54738341Y-42016341D01*
X54708820Y-42040569D01*
X54675145Y-42058568D01*
X54638604Y-42069653D01*
X54594462Y-42074000D01*
X53645538Y-42074000D01*
X53601396Y-42069653D01*
X53564855Y-42058568D01*
X53531180Y-42040569D01*
X53501659Y-42016341D01*
X53477431Y-41986820D01*
X53459432Y-41953145D01*
X53448347Y-41916604D01*
X53444000Y-41872462D01*
X53444000Y-40423538D01*
X53448347Y-40379396D01*
X53459432Y-40342855D01*
X53477431Y-40309180D01*
X53501659Y-40279659D01*
X53531180Y-40255431D01*
X53564855Y-40237432D01*
X53601396Y-40226347D01*
X53645538Y-40222000D01*
X54594462Y-40222000D01*
X54638604Y-40226347D01*
X54638604Y-40226347D01*
G37*
G36*
X51838604Y-40226347D02*
X51875145Y-40237432D01*
X51908820Y-40255431D01*
X51938341Y-40279659D01*
X51962569Y-40309180D01*
X51980568Y-40342855D01*
X51991653Y-40379396D01*
X51996000Y-40423538D01*
X51996000Y-41872462D01*
X51991653Y-41916604D01*
X51980568Y-41953145D01*
X51962569Y-41986820D01*
X51938341Y-42016341D01*
X51908820Y-42040569D01*
X51875145Y-42058568D01*
X51838604Y-42069653D01*
X51794462Y-42074000D01*
X50845538Y-42074000D01*
X50801396Y-42069653D01*
X50764855Y-42058568D01*
X50731180Y-42040569D01*
X50701659Y-42016341D01*
X50677431Y-41986820D01*
X50659432Y-41953145D01*
X50648347Y-41916604D01*
X50644000Y-41872462D01*
X50644000Y-40423538D01*
X50648347Y-40379396D01*
X50659432Y-40342855D01*
X50677431Y-40309180D01*
X50701659Y-40279659D01*
X50731180Y-40255431D01*
X50764855Y-40237432D01*
X50801396Y-40226347D01*
X50845538Y-40222000D01*
X51794462Y-40222000D01*
X51838604Y-40226347D01*
X51838604Y-40226347D01*
G37*
G36*
X40503000Y-41674000D02*
X38841000Y-41674000D01*
X38841000Y-39022000D01*
X40503000Y-39022000D01*
X40503000Y-41674000D01*
X40503000Y-41674000D01*
G37*
G36*
X43203000Y-41674000D02*
X41541000Y-41674000D01*
X41541000Y-40922000D01*
X43203000Y-40922000D01*
X43203000Y-41674000D01*
X43203000Y-41674000D01*
G37*
G36*
X46906000Y-41674000D02*
X45244000Y-41674000D01*
X45244000Y-39022000D01*
X46906000Y-39022000D01*
X46906000Y-41674000D01*
X46906000Y-41674000D01*
G37*
G36*
X49606000Y-41674000D02*
X47944000Y-41674000D01*
X47944000Y-40922000D01*
X49606000Y-40922000D01*
X49606000Y-41674000D01*
X49606000Y-41674000D01*
G37*
G36*
X34672604Y-39626347D02*
X34709145Y-39637432D01*
X34742820Y-39655431D01*
X34772341Y-39679659D01*
X34796569Y-39709180D01*
X34814568Y-39742855D01*
X34825653Y-39779396D01*
X34830000Y-39823538D01*
X34830000Y-41272462D01*
X34825653Y-41316604D01*
X34814568Y-41353145D01*
X34796569Y-41386820D01*
X34772341Y-41416341D01*
X34742820Y-41440569D01*
X34709145Y-41458568D01*
X34672604Y-41469653D01*
X34628462Y-41474000D01*
X33679538Y-41474000D01*
X33635396Y-41469653D01*
X33598855Y-41458568D01*
X33565180Y-41440569D01*
X33535659Y-41416341D01*
X33511431Y-41386820D01*
X33493432Y-41353145D01*
X33482347Y-41316604D01*
X33478000Y-41272462D01*
X33478000Y-39823538D01*
X33482347Y-39779396D01*
X33493432Y-39742855D01*
X33511431Y-39709180D01*
X33535659Y-39679659D01*
X33565180Y-39655431D01*
X33598855Y-39637432D01*
X33635396Y-39626347D01*
X33679538Y-39622000D01*
X34628462Y-39622000D01*
X34672604Y-39626347D01*
X34672604Y-39626347D01*
G37*
G36*
X37472604Y-39626347D02*
X37509145Y-39637432D01*
X37542820Y-39655431D01*
X37572341Y-39679659D01*
X37596569Y-39709180D01*
X37614568Y-39742855D01*
X37625653Y-39779396D01*
X37630000Y-39823538D01*
X37630000Y-41272462D01*
X37625653Y-41316604D01*
X37614568Y-41353145D01*
X37596569Y-41386820D01*
X37572341Y-41416341D01*
X37542820Y-41440569D01*
X37509145Y-41458568D01*
X37472604Y-41469653D01*
X37428462Y-41474000D01*
X36479538Y-41474000D01*
X36435396Y-41469653D01*
X36398855Y-41458568D01*
X36365180Y-41440569D01*
X36335659Y-41416341D01*
X36311431Y-41386820D01*
X36293432Y-41353145D01*
X36282347Y-41316604D01*
X36278000Y-41272462D01*
X36278000Y-39823538D01*
X36282347Y-39779396D01*
X36293432Y-39742855D01*
X36311431Y-39709180D01*
X36335659Y-39679659D01*
X36365180Y-39655431D01*
X36398855Y-39637432D01*
X36435396Y-39626347D01*
X36479538Y-39622000D01*
X37428462Y-39622000D01*
X37472604Y-39626347D01*
X37472604Y-39626347D01*
G37*
G36*
X57398000Y-41183900D02*
X56196000Y-41183900D01*
X56196000Y-39836900D01*
X57398000Y-39836900D01*
X57398000Y-41183900D01*
X57398000Y-41183900D01*
G37*
G36*
X49606000Y-39774000D02*
X47944000Y-39774000D01*
X47944000Y-39022000D01*
X49606000Y-39022000D01*
X49606000Y-39774000D01*
X49606000Y-39774000D01*
G37*
G36*
X43203000Y-39774000D02*
X41541000Y-39774000D01*
X41541000Y-39022000D01*
X43203000Y-39022000D01*
X43203000Y-39774000D01*
X43203000Y-39774000D01*
G37*
G36*
X54638604Y-37026347D02*
X54675145Y-37037432D01*
X54708820Y-37055431D01*
X54738341Y-37079659D01*
X54762569Y-37109180D01*
X54780568Y-37142855D01*
X54791653Y-37179396D01*
X54796000Y-37223538D01*
X54796000Y-38672462D01*
X54791653Y-38716604D01*
X54780568Y-38753145D01*
X54762569Y-38786820D01*
X54738341Y-38816341D01*
X54708820Y-38840569D01*
X54675145Y-38858568D01*
X54638604Y-38869653D01*
X54594462Y-38874000D01*
X53645538Y-38874000D01*
X53601396Y-38869653D01*
X53564855Y-38858568D01*
X53531180Y-38840569D01*
X53501659Y-38816341D01*
X53477431Y-38786820D01*
X53459432Y-38753145D01*
X53448347Y-38716604D01*
X53444000Y-38672462D01*
X53444000Y-37223538D01*
X53448347Y-37179396D01*
X53459432Y-37142855D01*
X53477431Y-37109180D01*
X53501659Y-37079659D01*
X53531180Y-37055431D01*
X53564855Y-37037432D01*
X53601396Y-37026347D01*
X53645538Y-37022000D01*
X54594462Y-37022000D01*
X54638604Y-37026347D01*
X54638604Y-37026347D01*
G37*
G36*
X51838604Y-37026347D02*
X51875145Y-37037432D01*
X51908820Y-37055431D01*
X51938341Y-37079659D01*
X51962569Y-37109180D01*
X51980568Y-37142855D01*
X51991653Y-37179396D01*
X51996000Y-37223538D01*
X51996000Y-38672462D01*
X51991653Y-38716604D01*
X51980568Y-38753145D01*
X51962569Y-38786820D01*
X51938341Y-38816341D01*
X51908820Y-38840569D01*
X51875145Y-38858568D01*
X51838604Y-38869653D01*
X51794462Y-38874000D01*
X50845538Y-38874000D01*
X50801396Y-38869653D01*
X50764855Y-38858568D01*
X50731180Y-38840569D01*
X50701659Y-38816341D01*
X50677431Y-38786820D01*
X50659432Y-38753145D01*
X50648347Y-38716604D01*
X50644000Y-38672462D01*
X50644000Y-37223538D01*
X50648347Y-37179396D01*
X50659432Y-37142855D01*
X50677431Y-37109180D01*
X50701659Y-37079659D01*
X50731180Y-37055431D01*
X50764855Y-37037432D01*
X50801396Y-37026347D01*
X50845538Y-37022000D01*
X51794462Y-37022000D01*
X51838604Y-37026347D01*
X51838604Y-37026347D01*
G37*
G36*
X34672604Y-36826347D02*
X34709145Y-36837432D01*
X34742820Y-36855431D01*
X34772341Y-36879659D01*
X34796569Y-36909180D01*
X34814568Y-36942855D01*
X34825653Y-36979396D01*
X34830000Y-37023538D01*
X34830000Y-38472462D01*
X34825653Y-38516604D01*
X34814568Y-38553145D01*
X34796569Y-38586820D01*
X34772341Y-38616341D01*
X34742820Y-38640569D01*
X34709145Y-38658568D01*
X34672604Y-38669653D01*
X34628462Y-38674000D01*
X33679538Y-38674000D01*
X33635396Y-38669653D01*
X33598855Y-38658568D01*
X33565180Y-38640569D01*
X33535659Y-38616341D01*
X33511431Y-38586820D01*
X33493432Y-38553145D01*
X33482347Y-38516604D01*
X33478000Y-38472462D01*
X33478000Y-37023538D01*
X33482347Y-36979396D01*
X33493432Y-36942855D01*
X33511431Y-36909180D01*
X33535659Y-36879659D01*
X33565180Y-36855431D01*
X33598855Y-36837432D01*
X33635396Y-36826347D01*
X33679538Y-36822000D01*
X34628462Y-36822000D01*
X34672604Y-36826347D01*
X34672604Y-36826347D01*
G37*
G36*
X37472604Y-36826347D02*
X37509145Y-36837432D01*
X37542820Y-36855431D01*
X37572341Y-36879659D01*
X37596569Y-36909180D01*
X37614568Y-36942855D01*
X37625653Y-36979396D01*
X37630000Y-37023538D01*
X37630000Y-38472462D01*
X37625653Y-38516604D01*
X37614568Y-38553145D01*
X37596569Y-38586820D01*
X37572341Y-38616341D01*
X37542820Y-38640569D01*
X37509145Y-38658568D01*
X37472604Y-38669653D01*
X37428462Y-38674000D01*
X36479538Y-38674000D01*
X36435396Y-38669653D01*
X36398855Y-38658568D01*
X36365180Y-38640569D01*
X36335659Y-38616341D01*
X36311431Y-38586820D01*
X36293432Y-38553145D01*
X36282347Y-38516604D01*
X36278000Y-38472462D01*
X36278000Y-37023538D01*
X36282347Y-36979396D01*
X36293432Y-36942855D01*
X36311431Y-36909180D01*
X36335659Y-36879659D01*
X36365180Y-36855431D01*
X36398855Y-36837432D01*
X36435396Y-36826347D01*
X36479538Y-36822000D01*
X37428462Y-36822000D01*
X37472604Y-36826347D01*
X37472604Y-36826347D01*
G37*
G36*
X30786414Y-34549879D02*
X30786416Y-34549880D01*
X30786417Y-34549880D01*
X30977594Y-34629068D01*
X31149651Y-34744033D01*
X31295967Y-34890349D01*
X31410932Y-35062406D01*
X31490121Y-35253586D01*
X31530490Y-35456534D01*
X31530490Y-35663466D01*
X31490121Y-35866414D01*
X31410932Y-36057594D01*
X31295967Y-36229651D01*
X31149651Y-36375967D01*
X31149648Y-36375969D01*
X30977594Y-36490932D01*
X30786417Y-36570120D01*
X30786416Y-36570120D01*
X30786414Y-36570121D01*
X30583466Y-36610490D01*
X30376534Y-36610490D01*
X30173586Y-36570121D01*
X30173584Y-36570120D01*
X30173583Y-36570120D01*
X29982406Y-36490932D01*
X29810352Y-36375969D01*
X29810349Y-36375967D01*
X29664033Y-36229651D01*
X29549068Y-36057594D01*
X29469879Y-35866414D01*
X29429510Y-35663466D01*
X29429510Y-35456534D01*
X29469879Y-35253586D01*
X29549068Y-35062406D01*
X29664033Y-34890349D01*
X29810349Y-34744033D01*
X29982406Y-34629068D01*
X30173583Y-34549880D01*
X30173584Y-34549880D01*
X30173586Y-34549879D01*
X30376534Y-34509510D01*
X30583466Y-34509510D01*
X30786414Y-34549879D01*
X30786414Y-34549879D01*
G37*
G36*
X36436000Y-35456000D02*
X35484000Y-35456000D01*
X35484000Y-34504000D01*
X36436000Y-34504000D01*
X36436000Y-35456000D01*
X36436000Y-35456000D01*
G37*
G36*
X38436000Y-35456000D02*
X37484000Y-35456000D01*
X37484000Y-34504000D01*
X38436000Y-34504000D01*
X38436000Y-35456000D01*
X38436000Y-35456000D01*
G37*
G36*
X40436000Y-35456000D02*
X39484000Y-35456000D01*
X39484000Y-34504000D01*
X40436000Y-34504000D01*
X40436000Y-35456000D01*
X40436000Y-35456000D01*
G37*
G36*
X42436000Y-35456000D02*
X41484000Y-35456000D01*
X41484000Y-34504000D01*
X42436000Y-34504000D01*
X42436000Y-35456000D01*
X42436000Y-35456000D01*
G37*
G36*
X46524000Y-35456000D02*
X45572000Y-35456000D01*
X45572000Y-34504000D01*
X46524000Y-34504000D01*
X46524000Y-35456000D01*
X46524000Y-35456000D01*
G37*
G36*
X48524000Y-35456000D02*
X47572000Y-35456000D01*
X47572000Y-34504000D01*
X48524000Y-34504000D01*
X48524000Y-35456000D01*
X48524000Y-35456000D01*
G37*
G36*
X50524000Y-35456000D02*
X49572000Y-35456000D01*
X49572000Y-34504000D01*
X50524000Y-34504000D01*
X50524000Y-35456000D01*
X50524000Y-35456000D01*
G37*
G36*
X44524000Y-35456000D02*
X43572000Y-35456000D01*
X43572000Y-34504000D01*
X44524000Y-34504000D01*
X44524000Y-35456000D01*
X44524000Y-35456000D01*
G37*
G36*
X33621312Y-32058887D02*
X33711039Y-32086106D01*
X33793731Y-32130306D01*
X33866211Y-32189789D01*
X33925694Y-32262269D01*
X33969894Y-32344961D01*
X33997113Y-32434688D01*
X34006303Y-32528000D01*
X33997113Y-32621312D01*
X33969894Y-32711039D01*
X33925694Y-32793731D01*
X33881397Y-32847706D01*
X33867788Y-32868076D01*
X33858410Y-32890715D01*
X33853630Y-32914748D01*
X33853630Y-32939253D01*
X33858411Y-32963286D01*
X33867788Y-32985925D01*
X33881402Y-33006300D01*
X33898729Y-33023627D01*
X33919104Y-33037240D01*
X33941743Y-33046618D01*
X33978028Y-33052000D01*
X34004000Y-33052000D01*
X34004000Y-34004000D01*
X33052000Y-34004000D01*
X33052000Y-33052000D01*
X33077972Y-33052000D01*
X33102358Y-33049598D01*
X33125807Y-33042485D01*
X33147418Y-33030934D01*
X33166360Y-33015388D01*
X33181906Y-32996446D01*
X33193457Y-32974835D01*
X33200570Y-32951386D01*
X33202972Y-32927000D01*
X33200570Y-32902614D01*
X33193457Y-32879165D01*
X33174601Y-32847705D01*
X33130306Y-32793731D01*
X33086106Y-32711039D01*
X33058887Y-32621312D01*
X33049697Y-32528000D01*
X33058887Y-32434688D01*
X33086106Y-32344961D01*
X33130306Y-32262269D01*
X33189789Y-32189789D01*
X33262269Y-32130306D01*
X33344961Y-32086106D01*
X33434688Y-32058887D01*
X33504616Y-32052000D01*
X33551384Y-32052000D01*
X33621312Y-32058887D01*
X33621312Y-32058887D01*
G37*
G36*
X57064312Y-32042887D02*
X57154039Y-32070106D01*
X57236731Y-32114306D01*
X57309211Y-32173789D01*
X57368694Y-32246269D01*
X57412894Y-32328961D01*
X57440113Y-32418688D01*
X57449303Y-32512000D01*
X57440113Y-32605312D01*
X57412894Y-32695039D01*
X57368694Y-32777731D01*
X57324397Y-32831706D01*
X57310788Y-32852076D01*
X57301410Y-32874715D01*
X57296630Y-32898748D01*
X57296630Y-32923253D01*
X57301411Y-32947286D01*
X57310788Y-32969925D01*
X57324402Y-32990300D01*
X57341729Y-33007627D01*
X57362104Y-33021240D01*
X57372000Y-33025339D01*
X57372000Y-33988000D01*
X56420000Y-33988000D01*
X56420000Y-33025847D01*
X56440418Y-33014934D01*
X56459360Y-32999388D01*
X56474906Y-32980446D01*
X56486457Y-32958835D01*
X56493570Y-32935386D01*
X56495972Y-32911000D01*
X56493570Y-32886614D01*
X56486457Y-32863165D01*
X56467601Y-32831705D01*
X56423306Y-32777731D01*
X56379106Y-32695039D01*
X56351887Y-32605312D01*
X56342697Y-32512000D01*
X56351887Y-32418688D01*
X56379106Y-32328961D01*
X56423306Y-32246269D01*
X56482789Y-32173789D01*
X56555269Y-32114306D01*
X56637961Y-32070106D01*
X56727688Y-32042887D01*
X56797616Y-32036000D01*
X56994384Y-32036000D01*
X57064312Y-32042887D01*
X57064312Y-32042887D01*
G37*
G36*
X59350312Y-32042887D02*
X59440039Y-32070106D01*
X59522731Y-32114306D01*
X59595211Y-32173789D01*
X59654694Y-32246269D01*
X59698894Y-32328961D01*
X59726113Y-32418688D01*
X59735303Y-32512000D01*
X59726113Y-32605312D01*
X59698894Y-32695039D01*
X59654694Y-32777731D01*
X59610397Y-32831706D01*
X59596788Y-32852076D01*
X59587410Y-32874715D01*
X59582630Y-32898748D01*
X59582630Y-32923253D01*
X59587411Y-32947286D01*
X59596788Y-32969925D01*
X59610402Y-32990300D01*
X59627729Y-33007627D01*
X59648104Y-33021240D01*
X59658000Y-33025339D01*
X59658000Y-33988000D01*
X58706000Y-33988000D01*
X58706000Y-33025847D01*
X58726418Y-33014934D01*
X58745360Y-32999388D01*
X58760906Y-32980446D01*
X58772457Y-32958835D01*
X58779570Y-32935386D01*
X58781972Y-32911000D01*
X58779570Y-32886614D01*
X58772457Y-32863165D01*
X58753601Y-32831705D01*
X58709306Y-32777731D01*
X58665106Y-32695039D01*
X58637887Y-32605312D01*
X58628697Y-32512000D01*
X58637887Y-32418688D01*
X58665106Y-32328961D01*
X58709306Y-32246269D01*
X58768789Y-32173789D01*
X58841269Y-32114306D01*
X58923961Y-32070106D01*
X59013688Y-32042887D01*
X59083616Y-32036000D01*
X59280384Y-32036000D01*
X59350312Y-32042887D01*
X59350312Y-32042887D01*
G37*
G36*
X52492312Y-32042887D02*
X52582039Y-32070106D01*
X52664731Y-32114306D01*
X52737211Y-32173789D01*
X52796694Y-32246269D01*
X52840894Y-32328961D01*
X52868113Y-32418688D01*
X52877303Y-32512000D01*
X52868113Y-32605312D01*
X52840894Y-32695039D01*
X52796694Y-32777731D01*
X52752397Y-32831706D01*
X52738788Y-32852076D01*
X52729410Y-32874715D01*
X52724630Y-32898748D01*
X52724630Y-32923253D01*
X52729411Y-32947286D01*
X52738788Y-32969925D01*
X52752402Y-32990300D01*
X52769729Y-33007627D01*
X52790104Y-33021240D01*
X52800000Y-33025339D01*
X52800000Y-33988000D01*
X51848000Y-33988000D01*
X51848000Y-33025847D01*
X51868418Y-33014934D01*
X51887360Y-32999388D01*
X51902906Y-32980446D01*
X51914457Y-32958835D01*
X51921570Y-32935386D01*
X51923972Y-32911000D01*
X51921570Y-32886614D01*
X51914457Y-32863165D01*
X51895601Y-32831705D01*
X51851306Y-32777731D01*
X51807106Y-32695039D01*
X51779887Y-32605312D01*
X51770697Y-32512000D01*
X51779887Y-32418688D01*
X51807106Y-32328961D01*
X51851306Y-32246269D01*
X51910789Y-32173789D01*
X51983269Y-32114306D01*
X52065961Y-32070106D01*
X52155688Y-32042887D01*
X52225616Y-32036000D01*
X52422384Y-32036000D01*
X52492312Y-32042887D01*
X52492312Y-32042887D01*
G37*
G36*
X54778312Y-32042887D02*
X54868039Y-32070106D01*
X54950731Y-32114306D01*
X55023211Y-32173789D01*
X55082694Y-32246269D01*
X55126894Y-32328961D01*
X55154113Y-32418688D01*
X55163303Y-32512000D01*
X55154113Y-32605312D01*
X55126894Y-32695039D01*
X55082694Y-32777731D01*
X55038397Y-32831706D01*
X55024788Y-32852076D01*
X55015410Y-32874715D01*
X55010630Y-32898748D01*
X55010630Y-32923253D01*
X55015411Y-32947286D01*
X55024788Y-32969925D01*
X55038402Y-32990300D01*
X55055729Y-33007627D01*
X55076104Y-33021240D01*
X55086000Y-33025339D01*
X55086000Y-33988000D01*
X54134000Y-33988000D01*
X54134000Y-33025847D01*
X54154418Y-33014934D01*
X54173360Y-32999388D01*
X54188906Y-32980446D01*
X54200457Y-32958835D01*
X54207570Y-32935386D01*
X54209972Y-32911000D01*
X54207570Y-32886614D01*
X54200457Y-32863165D01*
X54181601Y-32831705D01*
X54137306Y-32777731D01*
X54093106Y-32695039D01*
X54065887Y-32605312D01*
X54056697Y-32512000D01*
X54065887Y-32418688D01*
X54093106Y-32328961D01*
X54137306Y-32246269D01*
X54196789Y-32173789D01*
X54269269Y-32114306D01*
X54351961Y-32070106D01*
X54441688Y-32042887D01*
X54511616Y-32036000D01*
X54708384Y-32036000D01*
X54778312Y-32042887D01*
X54778312Y-32042887D01*
G37*
G36*
X36128312Y-32210887D02*
X36218039Y-32238106D01*
X36300731Y-32282306D01*
X36373211Y-32341789D01*
X36432694Y-32414269D01*
X36476894Y-32496961D01*
X36504113Y-32586688D01*
X36513303Y-32680000D01*
X36504113Y-32773312D01*
X36476894Y-32863039D01*
X36432694Y-32945731D01*
X36373211Y-33018211D01*
X36300731Y-33077694D01*
X36218039Y-33121894D01*
X36128312Y-33149113D01*
X36058384Y-33156000D01*
X35861616Y-33156000D01*
X35791688Y-33149113D01*
X35701961Y-33121894D01*
X35619269Y-33077694D01*
X35546789Y-33018211D01*
X35487306Y-32945731D01*
X35443106Y-32863039D01*
X35415887Y-32773312D01*
X35406697Y-32680000D01*
X35415887Y-32586688D01*
X35443106Y-32496961D01*
X35487306Y-32414269D01*
X35546789Y-32341789D01*
X35619269Y-32282306D01*
X35701961Y-32238106D01*
X35791688Y-32210887D01*
X35861616Y-32204000D01*
X36058384Y-32204000D01*
X36128312Y-32210887D01*
X36128312Y-32210887D01*
G37*
G36*
X50216312Y-32210887D02*
X50306039Y-32238106D01*
X50388731Y-32282306D01*
X50461211Y-32341789D01*
X50520694Y-32414269D01*
X50564894Y-32496961D01*
X50592113Y-32586688D01*
X50601303Y-32680000D01*
X50592113Y-32773312D01*
X50564894Y-32863039D01*
X50520694Y-32945731D01*
X50461211Y-33018211D01*
X50388731Y-33077694D01*
X50306039Y-33121894D01*
X50216312Y-33149113D01*
X50146384Y-33156000D01*
X49949616Y-33156000D01*
X49879688Y-33149113D01*
X49789961Y-33121894D01*
X49707269Y-33077694D01*
X49634789Y-33018211D01*
X49575306Y-32945731D01*
X49531106Y-32863039D01*
X49503887Y-32773312D01*
X49494697Y-32680000D01*
X49503887Y-32586688D01*
X49531106Y-32496961D01*
X49575306Y-32414269D01*
X49634789Y-32341789D01*
X49707269Y-32282306D01*
X49789961Y-32238106D01*
X49879688Y-32210887D01*
X49949616Y-32204000D01*
X50146384Y-32204000D01*
X50216312Y-32210887D01*
X50216312Y-32210887D01*
G37*
G36*
X48216312Y-32210887D02*
X48306039Y-32238106D01*
X48388731Y-32282306D01*
X48461211Y-32341789D01*
X48520694Y-32414269D01*
X48564894Y-32496961D01*
X48592113Y-32586688D01*
X48601303Y-32680000D01*
X48592113Y-32773312D01*
X48564894Y-32863039D01*
X48520694Y-32945731D01*
X48461211Y-33018211D01*
X48388731Y-33077694D01*
X48306039Y-33121894D01*
X48216312Y-33149113D01*
X48146384Y-33156000D01*
X47949616Y-33156000D01*
X47879688Y-33149113D01*
X47789961Y-33121894D01*
X47707269Y-33077694D01*
X47634789Y-33018211D01*
X47575306Y-32945731D01*
X47531106Y-32863039D01*
X47503887Y-32773312D01*
X47494697Y-32680000D01*
X47503887Y-32586688D01*
X47531106Y-32496961D01*
X47575306Y-32414269D01*
X47634789Y-32341789D01*
X47707269Y-32282306D01*
X47789961Y-32238106D01*
X47879688Y-32210887D01*
X47949616Y-32204000D01*
X48146384Y-32204000D01*
X48216312Y-32210887D01*
X48216312Y-32210887D01*
G37*
G36*
X46216312Y-32210887D02*
X46306039Y-32238106D01*
X46388731Y-32282306D01*
X46461211Y-32341789D01*
X46520694Y-32414269D01*
X46564894Y-32496961D01*
X46592113Y-32586688D01*
X46601303Y-32680000D01*
X46592113Y-32773312D01*
X46564894Y-32863039D01*
X46520694Y-32945731D01*
X46461211Y-33018211D01*
X46388731Y-33077694D01*
X46306039Y-33121894D01*
X46216312Y-33149113D01*
X46146384Y-33156000D01*
X45949616Y-33156000D01*
X45879688Y-33149113D01*
X45789961Y-33121894D01*
X45707269Y-33077694D01*
X45634789Y-33018211D01*
X45575306Y-32945731D01*
X45531106Y-32863039D01*
X45503887Y-32773312D01*
X45494697Y-32680000D01*
X45503887Y-32586688D01*
X45531106Y-32496961D01*
X45575306Y-32414269D01*
X45634789Y-32341789D01*
X45707269Y-32282306D01*
X45789961Y-32238106D01*
X45879688Y-32210887D01*
X45949616Y-32204000D01*
X46146384Y-32204000D01*
X46216312Y-32210887D01*
X46216312Y-32210887D01*
G37*
G36*
X44216312Y-32210887D02*
X44306039Y-32238106D01*
X44388731Y-32282306D01*
X44461211Y-32341789D01*
X44520694Y-32414269D01*
X44564894Y-32496961D01*
X44592113Y-32586688D01*
X44601303Y-32680000D01*
X44592113Y-32773312D01*
X44564894Y-32863039D01*
X44520694Y-32945731D01*
X44461211Y-33018211D01*
X44388731Y-33077694D01*
X44306039Y-33121894D01*
X44216312Y-33149113D01*
X44146384Y-33156000D01*
X43949616Y-33156000D01*
X43879688Y-33149113D01*
X43789961Y-33121894D01*
X43707269Y-33077694D01*
X43634789Y-33018211D01*
X43575306Y-32945731D01*
X43531106Y-32863039D01*
X43503887Y-32773312D01*
X43494697Y-32680000D01*
X43503887Y-32586688D01*
X43531106Y-32496961D01*
X43575306Y-32414269D01*
X43634789Y-32341789D01*
X43707269Y-32282306D01*
X43789961Y-32238106D01*
X43879688Y-32210887D01*
X43949616Y-32204000D01*
X44146384Y-32204000D01*
X44216312Y-32210887D01*
X44216312Y-32210887D01*
G37*
G36*
X42128312Y-32210887D02*
X42218039Y-32238106D01*
X42300731Y-32282306D01*
X42373211Y-32341789D01*
X42432694Y-32414269D01*
X42476894Y-32496961D01*
X42504113Y-32586688D01*
X42513303Y-32680000D01*
X42504113Y-32773312D01*
X42476894Y-32863039D01*
X42432694Y-32945731D01*
X42373211Y-33018211D01*
X42300731Y-33077694D01*
X42218039Y-33121894D01*
X42128312Y-33149113D01*
X42058384Y-33156000D01*
X41861616Y-33156000D01*
X41791688Y-33149113D01*
X41701961Y-33121894D01*
X41619269Y-33077694D01*
X41546789Y-33018211D01*
X41487306Y-32945731D01*
X41443106Y-32863039D01*
X41415887Y-32773312D01*
X41406697Y-32680000D01*
X41415887Y-32586688D01*
X41443106Y-32496961D01*
X41487306Y-32414269D01*
X41546789Y-32341789D01*
X41619269Y-32282306D01*
X41701961Y-32238106D01*
X41791688Y-32210887D01*
X41861616Y-32204000D01*
X42058384Y-32204000D01*
X42128312Y-32210887D01*
X42128312Y-32210887D01*
G37*
G36*
X40128312Y-32210887D02*
X40218039Y-32238106D01*
X40300731Y-32282306D01*
X40373211Y-32341789D01*
X40432694Y-32414269D01*
X40476894Y-32496961D01*
X40504113Y-32586688D01*
X40513303Y-32680000D01*
X40504113Y-32773312D01*
X40476894Y-32863039D01*
X40432694Y-32945731D01*
X40373211Y-33018211D01*
X40300731Y-33077694D01*
X40218039Y-33121894D01*
X40128312Y-33149113D01*
X40058384Y-33156000D01*
X39861616Y-33156000D01*
X39791688Y-33149113D01*
X39701961Y-33121894D01*
X39619269Y-33077694D01*
X39546789Y-33018211D01*
X39487306Y-32945731D01*
X39443106Y-32863039D01*
X39415887Y-32773312D01*
X39406697Y-32680000D01*
X39415887Y-32586688D01*
X39443106Y-32496961D01*
X39487306Y-32414269D01*
X39546789Y-32341789D01*
X39619269Y-32282306D01*
X39701961Y-32238106D01*
X39791688Y-32210887D01*
X39861616Y-32204000D01*
X40058384Y-32204000D01*
X40128312Y-32210887D01*
X40128312Y-32210887D01*
G37*
G36*
X38053312Y-32210887D02*
X38143039Y-32238106D01*
X38225731Y-32282306D01*
X38298211Y-32341789D01*
X38357694Y-32414269D01*
X38401894Y-32496961D01*
X38429113Y-32586688D01*
X38438303Y-32680000D01*
X38429113Y-32773312D01*
X38401894Y-32863039D01*
X38357694Y-32945731D01*
X38298211Y-33018211D01*
X38225731Y-33077694D01*
X38143039Y-33121894D01*
X38053312Y-33149113D01*
X37983384Y-33156000D01*
X37936616Y-33156000D01*
X37866688Y-33149113D01*
X37776961Y-33121894D01*
X37694269Y-33077694D01*
X37621789Y-33018211D01*
X37562306Y-32945731D01*
X37518106Y-32863039D01*
X37490887Y-32773312D01*
X37481697Y-32680000D01*
X37490887Y-32586688D01*
X37518106Y-32496961D01*
X37562306Y-32414269D01*
X37621789Y-32341789D01*
X37694269Y-32282306D01*
X37776961Y-32238106D01*
X37866688Y-32210887D01*
X37936616Y-32204000D01*
X37983384Y-32204000D01*
X38053312Y-32210887D01*
X38053312Y-32210887D01*
G37*
M02*
