M48
;DRILL file {KiCad 5.0.2+dfsg1-1~bpo9+1} date lun 22 abr 2019 13:35:54 -05
;FORMAT={-:-/ absolute / inch / decimal}
FMAT,2
INCH,TZ
T1C0.0118
T2C0.0157
T3C0.0197
T4C0.0315
T5C0.0354
T6C0.0394
T7C0.0433
T8C0.0551
%
G90
G05
T1
X5.2541Y-3.0724
X5.2694Y-3.0242
X5.283Y-3.2655
X5.3474Y-3.7963
X5.3927Y-4.8474
X5.4203Y-3.0651
X5.4409Y-3.6417
X5.4518Y-3.69
X5.4672Y-2.7241
X5.4744Y-3.4547
X5.4815Y-4.1181
X5.497Y-2.8347
X5.5118Y-4.2028
X5.5197Y-4.0866
X5.5394Y-2.7874
X5.6063Y-2.8425
X5.626Y-3.6122
X5.6412Y-2.784
X5.6516Y-3.7126
X5.6565Y-2.2795
X5.6634Y-3.3189
X5.7421Y-2.8513
X5.7461Y-3.6516
X5.751Y-3.4843
X5.7638Y-3.5591
X5.7657Y-3.6122
X5.7864Y-4.1821
X5.8091Y-3.0433
X5.813Y-2.8051
X5.8402Y-3.0734
X5.9094Y-3.061
X5.9794Y-2.814
X5.9961Y-2.7087
X6.047Y-3.0873
X6.1004Y-2.5443
X6.1113Y-2.6652
X6.1329Y-2.69
X6.1339Y-3.5571
X6.1398Y-3.7362
X6.1713Y-3.7008
X6.1713Y-4.19
X6.1929Y-2.7904
X6.2756Y-2.6909
X6.2982Y-2.7835
X6.3228Y-3.252
X6.3307Y-4.0827
X6.3474Y-2.8012
X6.3553Y-3.31
X6.4498Y-3.3327
X6.5013Y-3.0709
X6.5028Y-3.5957
X6.5591Y-3.878
X6.6703Y-2.7224
X6.8415Y-3.003
X6.8711Y-2.9734
T2
X4.964Y-3.2411
X5.3947Y-4.0089
X5.4659Y-2.6375
X5.5394Y-3.8051
X5.8661Y-2.7717
X5.8907Y-2.4508
X5.9606Y-2.5581
X6.1161Y-2.2756
X6.2608Y-3.6033
X6.3012Y-2.3937
X6.5876Y-2.3494
X6.6378Y-3.0709
T3
X4.8976Y-3.6217
X4.8976Y-3.661
X4.8976Y-3.7004
X4.8976Y-3.7398
X4.8969Y-3.5433
X4.8976Y-3.8185
X4.8976Y-3.8579
X4.8976Y-3.8972
X4.8976Y-3.9366
X4.8976Y-3.976
X4.8976Y-4.0154
X4.8969Y-3.1417
X4.8969Y-3.1811
X4.8969Y-3.2205
X4.8969Y-3.2598
X4.8969Y-3.2992
X4.8969Y-3.3386
X4.9913Y-3.5433
X6.8268Y-2.626
X6.8268Y-2.6654
X6.8268Y-2.7047
X6.8268Y-2.7441
X4.8976Y-2.9803
X4.8976Y-4.0941
X4.8976Y-4.1335
X4.8976Y-4.1728
X4.9921Y-2.9803
X4.8972Y-4.2516
X4.8972Y-4.2909
X4.8972Y-4.3303
X4.8972Y-4.3697
X5.1102Y-1.8504
X5.1496Y-1.8504
X6.8268Y-2.5472
X4.8969Y-3.4169
X4.8969Y-3.4563
X6.8268Y-2.8228
X6.8268Y-2.9016
X4.8976Y-3.063
X4.9921Y-3.063
T4
X6.626Y-2.1181
X6.6811Y-2.1181
X6.7362Y-2.1181
X6.7913Y-2.1181
T6
X4.9213Y-4.7795
X4.9213Y-4.8795
X4.9213Y-4.9795
X4.9209Y-4.4795
X4.9209Y-4.5795
X4.9209Y-4.6795
X4.9291Y-2.0906
X4.9291Y-2.1906
X4.9291Y-1.8173
X4.9291Y-1.9173
T7
X6.1425Y-2.1142
X6.2425Y-2.1142
X6.3425Y-2.1142
T5
X6.6752Y-1.8189G85X6.7421Y-1.8189
G05
T8
X6.5874Y-2.048G85X6.5874Y-2.0307
G05
X6.8299Y-2.0307G85X6.8299Y-2.048
G05
T0
M30
