%!PS-Adobe-3.0
%%Creator: PCBNEW
%%CreationDate: Mon Apr 22 13:35:55 2019
%%Title: /home/fandres/GIT/FrosTool-single-pcb/Broker/PCB/CPU/Gerber/CPU-NPTH-drl_map.ps
%%Pages: 1
%%PageOrder: Ascend
%%BoundingBox: 0 0 596 842
%%DocumentMedia: A4 595 842 0 () ()
%%Orientation: Landscape
%%EndComments
%%BeginProlog
/line { newpath moveto lineto stroke } bind def
/cir0 { newpath 0 360 arc stroke } bind def
/cir1 { newpath 0 360 arc gsave fill grestore stroke } bind def
/cir2 { newpath 0 360 arc gsave fill grestore stroke } bind def
/arc0 { newpath arc stroke } bind def
/arc1 { newpath 4 index 4 index moveto arc closepath gsave fill
    grestore stroke } bind def
/arc2 { newpath 4 index 4 index moveto arc closepath gsave fill
    grestore stroke } bind def
/poly0 { stroke } bind def
/poly1 { closepath gsave fill grestore stroke } bind def
/poly2 { closepath gsave fill grestore stroke } bind def
/rect0 { rectstroke } bind def
/rect1 { rectfill } bind def
/rect2 { rectfill } bind def
/linemode0 { 0 setlinecap 0 setlinejoin 0 setlinewidth } bind def
/linemode1 { 1 setlinecap 1 setlinejoin } bind def
/dashedline { [200] 100 setdash } bind def
/solidline { [] 0 setdash } bind def
/phantomshow { moveto
    /KicadFont findfont 0.000001 scalefont setfont
    show } bind def
/textshow { gsave
    findfont exch scalefont setfont concat 1 scale 0 0 moveto show
    } bind def
/reencodefont {
  findfont dup length dict begin
  { 1 index /FID ne
    { def }
    { pop pop } ifelse
  } forall
  /Encoding ISOLatin1Encoding def
  currentdict
  end } bind def
/KicadFont /Helvetica reencodefont definefont pop
/KicadFont-Bold /Helvetica-Bold reencodefont definefont pop
/KicadFont-Oblique /Helvetica-Oblique reencodefont definefont pop
/KicadFont-BoldOblique /Helvetica-BoldOblique reencodefont definefont pop
%%EndProlog
%%Page: 1 1
%%BeginPageSetup
gsave
0.0072 0.0072 scale
linemode1
82680 0 translate 90 rotate
62.9853 setlinewidth
%%EndPageSetup
0 0 0 setrgbcolor
74.3921 setlinewidth
newpath
45570.4 78705.8 moveto
45570.4 37046.2 lineto
stroke
0 0 0 setrgbcolor
newpath
45570.4 37046.2 moveto
71359.6 37046.2 lineto
stroke
0 0 0 setrgbcolor
newpath
71359.6 78705.8 moveto
71359.6 37046.2 lineto
stroke
0 0 0 setrgbcolor
newpath
45570.4 78705.8 moveto
71359.6 78705.8 lineto
stroke
78.7401 setlinewidth
newpath
63821.2 78160.3 moveto
64267.6 77713.9 lineto
stroke
newpath
64267.6 78160.3 moveto
63821.2 77713.9 lineto
stroke
newpath
64961.9 78160.3 moveto
65408.3 77713.9 lineto
stroke
newpath
65408.3 78160.3 moveto
64961.9 77713.9 lineto
stroke
47462.4 69510.9 247.974 cir0
47462.4 65553.3 247.974 cir0
newpath
59625.5 58619.9 moveto
59625.5 57826.4 lineto
stroke
newpath
59228.8 58223.2 moveto
60022.3 58223.2 lineto
stroke
118.11 setlinewidth
0 0 0 setrgbcolor
0 0 0 setrgbcolor
newpath
46660.8 35175.5 moveto
46660.8 36356.6 lineto
46942.1 36356.6 lineto
47110.8 36300.3 lineto
47223.3 36187.9 lineto
47279.5 36075.4 lineto
47335.8 35850.4 lineto
47335.8 35681.7 lineto
47279.5 35456.7 lineto
47223.3 35344.2 lineto
47110.8 35231.7 lineto
46942.1 35175.5 lineto
46660.8 35175.5 lineto
stroke
newpath
47841.9 35175.5 moveto
47841.9 35962.9 lineto
stroke
newpath
47841.9 35737.9 moveto
47898.2 35850.4 lineto
47954.4 35906.6 lineto
48066.9 35962.9 lineto
48179.4 35962.9 lineto
stroke
newpath
48573.1 35175.5 moveto
48573.1 35962.9 lineto
stroke
newpath
48573.1 36356.6 moveto
48516.9 36300.3 lineto
48573.1 36244.1 lineto
48629.3 36300.3 lineto
48573.1 36356.6 lineto
48573.1 36244.1 lineto
stroke
newpath
49304.3 35175.5 moveto
49191.8 35231.7 lineto
49135.5 35344.2 lineto
49135.5 36356.6 lineto
stroke
newpath
49922.9 35175.5 moveto
49810.4 35231.7 lineto
49754.2 35344.2 lineto
49754.2 36356.6 lineto
stroke
newpath
51272.8 35175.5 moveto
51272.8 36356.6 lineto
51666.5 35512.9 lineto
52060.2 36356.6 lineto
52060.2 35175.5 lineto
stroke
newpath
53128.8 35175.5 moveto
53128.8 35794.2 lineto
53072.5 35906.6 lineto
52960.1 35962.9 lineto
52735.1 35962.9 lineto
52622.6 35906.6 lineto
stroke
newpath
53128.8 35231.7 moveto
53016.3 35175.5 lineto
52735.1 35175.5 lineto
52622.6 35231.7 lineto
52566.4 35344.2 lineto
52566.4 35456.7 lineto
52622.6 35569.2 lineto
52735.1 35625.4 lineto
53016.3 35625.4 lineto
53128.8 35681.7 lineto
stroke
newpath
53691.2 35962.9 moveto
53691.2 34781.8 lineto
stroke
newpath
53691.2 35906.6 moveto
53803.7 35962.9 lineto
54028.7 35962.9 lineto
54141.2 35906.6 lineto
54197.4 35850.4 lineto
54253.6 35737.9 lineto
54253.6 35400.5 lineto
54197.4 35288 lineto
54141.2 35231.7 lineto
54028.7 35175.5 lineto
53803.7 35175.5 lineto
53691.2 35231.7 lineto
stroke
newpath
54759.8 35288 moveto
54816.1 35231.7 lineto
54759.8 35175.5 lineto
54703.6 35231.7 lineto
54759.8 35288 lineto
54759.8 35175.5 lineto
stroke
newpath
54759.8 35906.6 moveto
54816.1 35850.4 lineto
54759.8 35794.2 lineto
54703.6 35850.4 lineto
54759.8 35906.6 lineto
54759.8 35794.2 lineto
stroke
newpath
45086.8 33452.7 moveto
45533.2 33006.3 lineto
stroke
newpath
45533.2 33452.7 moveto
45086.8 33006.3 lineto
stroke
0 0 0 setrgbcolor
0 0 0 setrgbcolor
newpath
46885.8 33876.3 moveto
46998.3 33876.3 lineto
47110.8 33820 lineto
47167 33763.8 lineto
47223.3 33651.3 lineto
47279.5 33426.3 lineto
47279.5 33145.1 lineto
47223.3 32920.1 lineto
47167 32807.7 lineto
47110.8 32751.4 lineto
46998.3 32695.2 lineto
46885.8 32695.2 lineto
46773.3 32751.4 lineto
46717.1 32807.7 lineto
46660.8 32920.1 lineto
46604.6 33145.1 lineto
46604.6 33426.3 lineto
46660.8 33651.3 lineto
46717.1 33763.8 lineto
46773.3 33820 lineto
46885.8 33876.3 lineto
stroke
newpath
47785.7 32807.7 moveto
47841.9 32751.4 lineto
47785.7 32695.2 lineto
47729.5 32751.4 lineto
47785.7 32807.7 lineto
47785.7 32695.2 lineto
stroke
newpath
48404.4 32695.2 moveto
48629.3 32695.2 lineto
48741.8 32751.4 lineto
48798.1 32807.7 lineto
48910.6 32976.4 lineto
48966.8 33201.4 lineto
48966.8 33651.3 lineto
48910.6 33763.8 lineto
48854.3 33820 lineto
48741.8 33876.3 lineto
48516.9 33876.3 lineto
48404.4 33820 lineto
48348.1 33763.8 lineto
48291.9 33651.3 lineto
48291.9 33370.1 lineto
48348.1 33257.6 lineto
48404.4 33201.4 lineto
48516.9 33145.1 lineto
48741.8 33145.1 lineto
48854.3 33201.4 lineto
48910.6 33257.6 lineto
48966.8 33370.1 lineto
stroke
newpath
49698 33876.3 moveto
49810.4 33876.3 lineto
49922.9 33820 lineto
49979.2 33763.8 lineto
50035.4 33651.3 lineto
50091.7 33426.3 lineto
50091.7 33145.1 lineto
50035.4 32920.1 lineto
49979.2 32807.7 lineto
49922.9 32751.4 lineto
49810.4 32695.2 lineto
49698 32695.2 lineto
49585.5 32751.4 lineto
49529.2 32807.7 lineto
49473 32920.1 lineto
49416.7 33145.1 lineto
49416.7 33426.3 lineto
49473 33651.3 lineto
49529.2 33763.8 lineto
49585.5 33820 lineto
49698 33876.3 lineto
stroke
newpath
50597.8 32695.2 moveto
50597.8 33482.6 lineto
stroke
newpath
50597.8 33370.1 moveto
50654.1 33426.3 lineto
50766.6 33482.6 lineto
50935.3 33482.6 lineto
51047.8 33426.3 lineto
51104 33313.8 lineto
51104 32695.2 lineto
stroke
newpath
51104 33313.8 moveto
51160.3 33426.3 lineto
51272.8 33482.6 lineto
51441.5 33482.6 lineto
51554 33426.3 lineto
51610.2 33313.8 lineto
51610.2 32695.2 lineto
stroke
newpath
52172.7 32695.2 moveto
52172.7 33482.6 lineto
stroke
newpath
52172.7 33370.1 moveto
52228.9 33426.3 lineto
52341.4 33482.6 lineto
52510.1 33482.6 lineto
52622.6 33426.3 lineto
52678.8 33313.8 lineto
52678.8 32695.2 lineto
stroke
newpath
52678.8 33313.8 moveto
52735.1 33426.3 lineto
52847.6 33482.6 lineto
53016.3 33482.6 lineto
53128.8 33426.3 lineto
53185 33313.8 lineto
53185 32695.2 lineto
stroke
newpath
55491 33932.5 moveto
54478.6 32414 lineto
stroke
newpath
57009.5 33876.3 moveto
57122 33876.3 lineto
57234.5 33820 lineto
57290.8 33763.8 lineto
57347 33651.3 lineto
57403.2 33426.3 lineto
57403.2 33145.1 lineto
57347 32920.1 lineto
57290.8 32807.7 lineto
57234.5 32751.4 lineto
57122 32695.2 lineto
57009.5 32695.2 lineto
56897.1 32751.4 lineto
56840.8 32807.7 lineto
56784.6 32920.1 lineto
56728.3 33145.1 lineto
56728.3 33426.3 lineto
56784.6 33651.3 lineto
56840.8 33763.8 lineto
56897.1 33820 lineto
57009.5 33876.3 lineto
stroke
newpath
57909.4 32807.7 moveto
57965.7 32751.4 lineto
57909.4 32695.2 lineto
57853.2 32751.4 lineto
57909.4 32807.7 lineto
57909.4 32695.2 lineto
stroke
newpath
58696.8 33876.3 moveto
58809.3 33876.3 lineto
58921.8 33820 lineto
58978.1 33763.8 lineto
59034.3 33651.3 lineto
59090.5 33426.3 lineto
59090.5 33145.1 lineto
59034.3 32920.1 lineto
58978.1 32807.7 lineto
58921.8 32751.4 lineto
58809.3 32695.2 lineto
58696.8 32695.2 lineto
58584.4 32751.4 lineto
58528.1 32807.7 lineto
58471.9 32920.1 lineto
58415.6 33145.1 lineto
58415.6 33426.3 lineto
58471.9 33651.3 lineto
58528.1 33763.8 lineto
58584.4 33820 lineto
58696.8 33876.3 lineto
stroke
newpath
59484.2 33876.3 moveto
60215.4 33876.3 lineto
59821.7 33426.3 lineto
59990.4 33426.3 lineto
60102.9 33370.1 lineto
60159.2 33313.8 lineto
60215.4 33201.4 lineto
60215.4 32920.1 lineto
60159.2 32807.7 lineto
60102.9 32751.4 lineto
59990.4 32695.2 lineto
59653 32695.2 lineto
59540.5 32751.4 lineto
59484.2 32807.7 lineto
stroke
newpath
61284 33876.3 moveto
60721.6 33876.3 lineto
60665.3 33313.8 lineto
60721.6 33370.1 lineto
60834.1 33426.3 lineto
61115.3 33426.3 lineto
61227.8 33370.1 lineto
61284 33313.8 lineto
61340.3 33201.4 lineto
61340.3 32920.1 lineto
61284 32807.7 lineto
61227.8 32751.4 lineto
61115.3 32695.2 lineto
60834.1 32695.2 lineto
60721.6 32751.4 lineto
60665.3 32807.7 lineto
stroke
newpath
61790.2 33876.3 moveto
61790.2 33651.3 lineto
stroke
newpath
62240.1 33876.3 moveto
62240.1 33651.3 lineto
stroke
newpath
63983.7 32245.2 moveto
63927.4 32301.5 lineto
63814.9 32470.2 lineto
63758.7 32582.7 lineto
63702.5 32751.4 lineto
63646.2 33032.6 lineto
63646.2 33257.6 lineto
63702.5 33538.8 lineto
63758.7 33707.5 lineto
63814.9 33820 lineto
63927.4 33988.8 lineto
63983.7 34045 lineto
stroke
newpath
64377.4 33763.8 moveto
64433.6 33820 lineto
64546.1 33876.3 lineto
64827.3 33876.3 lineto
64939.8 33820 lineto
64996 33763.8 lineto
65052.3 33651.3 lineto
65052.3 33538.8 lineto
64996 33370.1 lineto
64321.1 32695.2 lineto
65052.3 32695.2 lineto
stroke
newpath
66458.4 32695.2 moveto
66458.4 33876.3 lineto
stroke
newpath
66964.6 32695.2 moveto
66964.6 33313.8 lineto
66908.3 33426.3 lineto
66795.8 33482.6 lineto
66627.1 33482.6 lineto
66514.6 33426.3 lineto
66458.4 33370.1 lineto
stroke
newpath
67695.7 32695.2 moveto
67583.2 32751.4 lineto
67527 32807.7 lineto
67470.7 32920.1 lineto
67470.7 33257.6 lineto
67527 33370.1 lineto
67583.2 33426.3 lineto
67695.7 33482.6 lineto
67864.4 33482.6 lineto
67976.9 33426.3 lineto
68033.2 33370.1 lineto
68089.4 33257.6 lineto
68089.4 32920.1 lineto
68033.2 32807.7 lineto
67976.9 32751.4 lineto
67864.4 32695.2 lineto
67695.7 32695.2 lineto
stroke
newpath
68764.3 32695.2 moveto
68651.8 32751.4 lineto
68595.6 32863.9 lineto
68595.6 33876.3 lineto
stroke
newpath
69664.2 32751.4 moveto
69551.7 32695.2 lineto
69326.8 32695.2 lineto
69214.3 32751.4 lineto
69158 32863.9 lineto
69158 33313.8 lineto
69214.3 33426.3 lineto
69326.8 33482.6 lineto
69551.7 33482.6 lineto
69664.2 33426.3 lineto
69720.5 33313.8 lineto
69720.5 33201.4 lineto
69158 33088.9 lineto
stroke
newpath
70170.4 32751.4 moveto
70282.9 32695.2 lineto
70507.9 32695.2 lineto
70620.3 32751.4 lineto
70676.6 32863.9 lineto
70676.6 32920.1 lineto
70620.3 33032.6 lineto
70507.9 33088.9 lineto
70339.1 33088.9 lineto
70226.6 33145.1 lineto
70170.4 33257.6 lineto
70170.4 33313.8 lineto
70226.6 33426.3 lineto
70339.1 33482.6 lineto
70507.9 33482.6 lineto
70620.3 33426.3 lineto
stroke
newpath
71070.3 32245.2 moveto
71126.5 32301.5 lineto
71239 32470.2 lineto
71295.3 32582.7 lineto
71351.5 32751.4 lineto
71407.7 33032.6 lineto
71407.7 33257.6 lineto
71351.5 33538.8 lineto
71295.3 33707.5 lineto
71239 33820 lineto
71126.5 33988.8 lineto
71070.3 34045 lineto
stroke
newpath
73207.5 32245.2 moveto
73151.3 32301.5 lineto
73038.8 32470.2 lineto
72982.6 32582.7 lineto
72926.3 32751.4 lineto
72870.1 33032.6 lineto
72870.1 33257.6 lineto
72926.3 33538.8 lineto
72982.6 33707.5 lineto
73038.8 33820 lineto
73151.3 33988.8 lineto
73207.5 34045 lineto
stroke
newpath
73657.5 33482.6 moveto
73657.5 32695.2 lineto
stroke
newpath
73657.5 33370.1 moveto
73713.7 33426.3 lineto
73826.2 33482.6 lineto
73994.9 33482.6 lineto
74107.4 33426.3 lineto
74163.7 33313.8 lineto
74163.7 32695.2 lineto
stroke
newpath
74894.8 32695.2 moveto
74782.3 32751.4 lineto
74726.1 32807.7 lineto
74669.8 32920.1 lineto
74669.8 33257.6 lineto
74726.1 33370.1 lineto
74782.3 33426.3 lineto
74894.8 33482.6 lineto
75063.5 33482.6 lineto
75176 33426.3 lineto
75232.3 33370.1 lineto
75288.5 33257.6 lineto
75288.5 32920.1 lineto
75232.3 32807.7 lineto
75176 32751.4 lineto
75063.5 32695.2 lineto
74894.8 32695.2 lineto
stroke
newpath
75626 33482.6 moveto
76075.9 33482.6 lineto
stroke
newpath
75794.7 33876.3 moveto
75794.7 32863.9 lineto
75850.9 32751.4 lineto
75963.4 32695.2 lineto
76075.9 32695.2 lineto
stroke
newpath
77369.5 33482.6 moveto
77369.5 32301.5 lineto
stroke
newpath
77369.5 33426.3 moveto
77482 33482.6 lineto
77707 33482.6 lineto
77819.4 33426.3 lineto
77875.7 33370.1 lineto
77931.9 33257.6 lineto
77931.9 32920.1 lineto
77875.7 32807.7 lineto
77819.4 32751.4 lineto
77707 32695.2 lineto
77482 32695.2 lineto
77369.5 32751.4 lineto
stroke
newpath
78606.8 32695.2 moveto
78494.4 32751.4 lineto
78438.1 32863.9 lineto
78438.1 33876.3 lineto
stroke
newpath
79563 32695.2 moveto
79563 33313.8 lineto
79506.7 33426.3 lineto
79394.3 33482.6 lineto
79169.3 33482.6 lineto
79056.8 33426.3 lineto
stroke
newpath
79563 32751.4 moveto
79450.5 32695.2 lineto
79169.3 32695.2 lineto
79056.8 32751.4 lineto
79000.5 32863.9 lineto
79000.5 32976.4 lineto
79056.8 33088.9 lineto
79169.3 33145.1 lineto
79450.5 33145.1 lineto
79563 33201.4 lineto
stroke
newpath
79956.7 33482.6 moveto
80406.6 33482.6 lineto
stroke
newpath
80125.4 33876.3 moveto
80125.4 32863.9 lineto
80181.7 32751.4 lineto
80294.1 32695.2 lineto
80406.6 32695.2 lineto
stroke
newpath
81250.3 32751.4 moveto
81137.8 32695.2 lineto
80912.8 32695.2 lineto
80800.3 32751.4 lineto
80744.1 32863.9 lineto
80744.1 33313.8 lineto
80800.3 33426.3 lineto
80912.8 33482.6 lineto
81137.8 33482.6 lineto
81250.3 33426.3 lineto
81306.5 33313.8 lineto
81306.5 33201.4 lineto
80744.1 33088.9 lineto
stroke
newpath
82318.9 32695.2 moveto
82318.9 33876.3 lineto
stroke
newpath
82318.9 32751.4 moveto
82206.4 32695.2 lineto
81981.4 32695.2 lineto
81868.9 32751.4 lineto
81812.7 32807.7 lineto
81756.5 32920.1 lineto
81756.5 33257.6 lineto
81812.7 33370.1 lineto
81868.9 33426.3 lineto
81981.4 33482.6 lineto
82206.4 33482.6 lineto
82318.9 33426.3 lineto
stroke
newpath
82768.8 32245.2 moveto
82825.1 32301.5 lineto
82937.6 32470.2 lineto
82993.8 32582.7 lineto
83050 32751.4 lineto
83106.3 33032.6 lineto
83106.3 33257.6 lineto
83050 33538.8 lineto
82993.8 33707.5 lineto
82937.6 33820 lineto
82825.1 33988.8 lineto
82768.8 34045 lineto
stroke
45285.2 31670.4 247.974 cir0
0 0 0 setrgbcolor
0 0 0 setrgbcolor
newpath
47279.5 31136.1 moveto
46604.6 31136.1 lineto
stroke
newpath
46942.1 31136.1 moveto
46942.1 32317.2 lineto
46829.6 32148.5 lineto
46717.1 32036 lineto
46604.6 31979.8 lineto
stroke
newpath
47785.7 31248.6 moveto
47841.9 31192.4 lineto
47785.7 31136.1 lineto
47729.5 31192.4 lineto
47785.7 31248.6 lineto
47785.7 31136.1 lineto
stroke
newpath
48573.1 32317.2 moveto
48685.6 32317.2 lineto
48798.1 32261 lineto
48854.3 32204.7 lineto
48910.6 32092.2 lineto
48966.8 31867.3 lineto
48966.8 31586.1 lineto
48910.6 31361.1 lineto
48854.3 31248.6 lineto
48798.1 31192.4 lineto
48685.6 31136.1 lineto
48573.1 31136.1 lineto
48460.6 31192.4 lineto
48404.4 31248.6 lineto
48348.1 31361.1 lineto
48291.9 31586.1 lineto
48291.9 31867.3 lineto
48348.1 32092.2 lineto
48404.4 32204.7 lineto
48460.6 32261 lineto
48573.1 32317.2 lineto
stroke
newpath
49698 32317.2 moveto
49810.4 32317.2 lineto
49922.9 32261 lineto
49979.2 32204.7 lineto
50035.4 32092.2 lineto
50091.7 31867.3 lineto
50091.7 31586.1 lineto
50035.4 31361.1 lineto
49979.2 31248.6 lineto
49922.9 31192.4 lineto
49810.4 31136.1 lineto
49698 31136.1 lineto
49585.5 31192.4 lineto
49529.2 31248.6 lineto
49473 31361.1 lineto
49416.7 31586.1 lineto
49416.7 31867.3 lineto
49473 32092.2 lineto
49529.2 32204.7 lineto
49585.5 32261 lineto
49698 32317.2 lineto
stroke
newpath
50597.8 31136.1 moveto
50597.8 31923.5 lineto
stroke
newpath
50597.8 31811 moveto
50654.1 31867.3 lineto
50766.6 31923.5 lineto
50935.3 31923.5 lineto
51047.8 31867.3 lineto
51104 31754.8 lineto
51104 31136.1 lineto
stroke
newpath
51104 31754.8 moveto
51160.3 31867.3 lineto
51272.8 31923.5 lineto
51441.5 31923.5 lineto
51554 31867.3 lineto
51610.2 31754.8 lineto
51610.2 31136.1 lineto
stroke
newpath
52172.7 31136.1 moveto
52172.7 31923.5 lineto
stroke
newpath
52172.7 31811 moveto
52228.9 31867.3 lineto
52341.4 31923.5 lineto
52510.1 31923.5 lineto
52622.6 31867.3 lineto
52678.8 31754.8 lineto
52678.8 31136.1 lineto
stroke
newpath
52678.8 31754.8 moveto
52735.1 31867.3 lineto
52847.6 31923.5 lineto
53016.3 31923.5 lineto
53128.8 31867.3 lineto
53185 31754.8 lineto
53185 31136.1 lineto
stroke
newpath
55491 32373.5 moveto
54478.6 30854.9 lineto
stroke
newpath
57009.5 32317.2 moveto
57122 32317.2 lineto
57234.5 32261 lineto
57290.8 32204.7 lineto
57347 32092.2 lineto
57403.2 31867.3 lineto
57403.2 31586.1 lineto
57347 31361.1 lineto
57290.8 31248.6 lineto
57234.5 31192.4 lineto
57122 31136.1 lineto
57009.5 31136.1 lineto
56897.1 31192.4 lineto
56840.8 31248.6 lineto
56784.6 31361.1 lineto
56728.3 31586.1 lineto
56728.3 31867.3 lineto
56784.6 32092.2 lineto
56840.8 32204.7 lineto
56897.1 32261 lineto
57009.5 32317.2 lineto
stroke
newpath
57909.4 31248.6 moveto
57965.7 31192.4 lineto
57909.4 31136.1 lineto
57853.2 31192.4 lineto
57909.4 31248.6 lineto
57909.4 31136.1 lineto
stroke
newpath
58696.8 32317.2 moveto
58809.3 32317.2 lineto
58921.8 32261 lineto
58978.1 32204.7 lineto
59034.3 32092.2 lineto
59090.5 31867.3 lineto
59090.5 31586.1 lineto
59034.3 31361.1 lineto
58978.1 31248.6 lineto
58921.8 31192.4 lineto
58809.3 31136.1 lineto
58696.8 31136.1 lineto
58584.4 31192.4 lineto
58528.1 31248.6 lineto
58471.9 31361.1 lineto
58415.6 31586.1 lineto
58415.6 31867.3 lineto
58471.9 32092.2 lineto
58528.1 32204.7 lineto
58584.4 32261 lineto
58696.8 32317.2 lineto
stroke
newpath
59484.2 32317.2 moveto
60215.4 32317.2 lineto
59821.7 31867.3 lineto
59990.4 31867.3 lineto
60102.9 31811 lineto
60159.2 31754.8 lineto
60215.4 31642.3 lineto
60215.4 31361.1 lineto
60159.2 31248.6 lineto
60102.9 31192.4 lineto
59990.4 31136.1 lineto
59653 31136.1 lineto
59540.5 31192.4 lineto
59484.2 31248.6 lineto
stroke
newpath
60777.8 31136.1 moveto
61002.8 31136.1 lineto
61115.3 31192.4 lineto
61171.5 31248.6 lineto
61284 31417.3 lineto
61340.3 31642.3 lineto
61340.3 32092.2 lineto
61284 32204.7 lineto
61227.8 32261 lineto
61115.3 32317.2 lineto
60890.3 32317.2 lineto
60777.8 32261 lineto
60721.6 32204.7 lineto
60665.3 32092.2 lineto
60665.3 31811 lineto
60721.6 31698.5 lineto
60777.8 31642.3 lineto
60890.3 31586.1 lineto
61115.3 31586.1 lineto
61227.8 31642.3 lineto
61284 31698.5 lineto
61340.3 31811 lineto
stroke
newpath
61790.2 32317.2 moveto
61790.2 32092.2 lineto
stroke
newpath
62240.1 32317.2 moveto
62240.1 32092.2 lineto
stroke
newpath
63983.7 30686.2 moveto
63927.4 30742.4 lineto
63814.9 30911.1 lineto
63758.7 31023.6 lineto
63702.5 31192.4 lineto
63646.2 31473.6 lineto
63646.2 31698.5 lineto
63702.5 31979.8 lineto
63758.7 32148.5 lineto
63814.9 32261 lineto
63927.4 32429.7 lineto
63983.7 32485.9 lineto
stroke
newpath
64377.4 32204.7 moveto
64433.6 32261 lineto
64546.1 32317.2 lineto
64827.3 32317.2 lineto
64939.8 32261 lineto
64996 32204.7 lineto
65052.3 32092.2 lineto
65052.3 31979.8 lineto
64996 31811 lineto
64321.1 31136.1 lineto
65052.3 31136.1 lineto
stroke
newpath
66458.4 31136.1 moveto
66458.4 32317.2 lineto
stroke
newpath
66964.6 31136.1 moveto
66964.6 31754.8 lineto
66908.3 31867.3 lineto
66795.8 31923.5 lineto
66627.1 31923.5 lineto
66514.6 31867.3 lineto
66458.4 31811 lineto
stroke
newpath
67695.7 31136.1 moveto
67583.2 31192.4 lineto
67527 31248.6 lineto
67470.7 31361.1 lineto
67470.7 31698.5 lineto
67527 31811 lineto
67583.2 31867.3 lineto
67695.7 31923.5 lineto
67864.4 31923.5 lineto
67976.9 31867.3 lineto
68033.2 31811 lineto
68089.4 31698.5 lineto
68089.4 31361.1 lineto
68033.2 31248.6 lineto
67976.9 31192.4 lineto
67864.4 31136.1 lineto
67695.7 31136.1 lineto
stroke
newpath
68764.3 31136.1 moveto
68651.8 31192.4 lineto
68595.6 31304.8 lineto
68595.6 32317.2 lineto
stroke
newpath
69664.2 31192.4 moveto
69551.7 31136.1 lineto
69326.8 31136.1 lineto
69214.3 31192.4 lineto
69158 31304.8 lineto
69158 31754.8 lineto
69214.3 31867.3 lineto
69326.8 31923.5 lineto
69551.7 31923.5 lineto
69664.2 31867.3 lineto
69720.5 31754.8 lineto
69720.5 31642.3 lineto
69158 31529.8 lineto
stroke
newpath
70170.4 31192.4 moveto
70282.9 31136.1 lineto
70507.9 31136.1 lineto
70620.3 31192.4 lineto
70676.6 31304.8 lineto
70676.6 31361.1 lineto
70620.3 31473.6 lineto
70507.9 31529.8 lineto
70339.1 31529.8 lineto
70226.6 31586.1 lineto
70170.4 31698.5 lineto
70170.4 31754.8 lineto
70226.6 31867.3 lineto
70339.1 31923.5 lineto
70507.9 31923.5 lineto
70620.3 31867.3 lineto
stroke
newpath
71070.3 30686.2 moveto
71126.5 30742.4 lineto
71239 30911.1 lineto
71295.3 31023.6 lineto
71351.5 31192.4 lineto
71407.7 31473.6 lineto
71407.7 31698.5 lineto
71351.5 31979.8 lineto
71295.3 32148.5 lineto
71239 32261 lineto
71126.5 32429.7 lineto
71070.3 32485.9 lineto
stroke
newpath
73207.5 30686.2 moveto
73151.3 30742.4 lineto
73038.8 30911.1 lineto
72982.6 31023.6 lineto
72926.3 31192.4 lineto
72870.1 31473.6 lineto
72870.1 31698.5 lineto
72926.3 31979.8 lineto
72982.6 32148.5 lineto
73038.8 32261 lineto
73151.3 32429.7 lineto
73207.5 32485.9 lineto
stroke
newpath
73657.5 31923.5 moveto
73657.5 31136.1 lineto
stroke
newpath
73657.5 31811 moveto
73713.7 31867.3 lineto
73826.2 31923.5 lineto
73994.9 31923.5 lineto
74107.4 31867.3 lineto
74163.7 31754.8 lineto
74163.7 31136.1 lineto
stroke
newpath
74894.8 31136.1 moveto
74782.3 31192.4 lineto
74726.1 31248.6 lineto
74669.8 31361.1 lineto
74669.8 31698.5 lineto
74726.1 31811 lineto
74782.3 31867.3 lineto
74894.8 31923.5 lineto
75063.5 31923.5 lineto
75176 31867.3 lineto
75232.3 31811 lineto
75288.5 31698.5 lineto
75288.5 31361.1 lineto
75232.3 31248.6 lineto
75176 31192.4 lineto
75063.5 31136.1 lineto
74894.8 31136.1 lineto
stroke
newpath
75626 31923.5 moveto
76075.9 31923.5 lineto
stroke
newpath
75794.7 32317.2 moveto
75794.7 31304.8 lineto
75850.9 31192.4 lineto
75963.4 31136.1 lineto
76075.9 31136.1 lineto
stroke
newpath
77369.5 31923.5 moveto
77369.5 30742.4 lineto
stroke
newpath
77369.5 31867.3 moveto
77482 31923.5 lineto
77707 31923.5 lineto
77819.4 31867.3 lineto
77875.7 31811 lineto
77931.9 31698.5 lineto
77931.9 31361.1 lineto
77875.7 31248.6 lineto
77819.4 31192.4 lineto
77707 31136.1 lineto
77482 31136.1 lineto
77369.5 31192.4 lineto
stroke
newpath
78606.8 31136.1 moveto
78494.4 31192.4 lineto
78438.1 31304.8 lineto
78438.1 32317.2 lineto
stroke
newpath
79563 31136.1 moveto
79563 31754.8 lineto
79506.7 31867.3 lineto
79394.3 31923.5 lineto
79169.3 31923.5 lineto
79056.8 31867.3 lineto
stroke
newpath
79563 31192.4 moveto
79450.5 31136.1 lineto
79169.3 31136.1 lineto
79056.8 31192.4 lineto
79000.5 31304.8 lineto
79000.5 31417.3 lineto
79056.8 31529.8 lineto
79169.3 31586.1 lineto
79450.5 31586.1 lineto
79563 31642.3 lineto
stroke
newpath
79956.7 31923.5 moveto
80406.6 31923.5 lineto
stroke
newpath
80125.4 32317.2 moveto
80125.4 31304.8 lineto
80181.7 31192.4 lineto
80294.1 31136.1 lineto
80406.6 31136.1 lineto
stroke
newpath
81250.3 31192.4 moveto
81137.8 31136.1 lineto
80912.8 31136.1 lineto
80800.3 31192.4 lineto
80744.1 31304.8 lineto
80744.1 31754.8 lineto
80800.3 31867.3 lineto
80912.8 31923.5 lineto
81137.8 31923.5 lineto
81250.3 31867.3 lineto
81306.5 31754.8 lineto
81306.5 31642.3 lineto
80744.1 31529.8 lineto
stroke
newpath
82318.9 31136.1 moveto
82318.9 32317.2 lineto
stroke
newpath
82318.9 31192.4 moveto
82206.4 31136.1 lineto
81981.4 31136.1 lineto
81868.9 31192.4 lineto
81812.7 31248.6 lineto
81756.5 31361.1 lineto
81756.5 31698.5 lineto
81812.7 31811 lineto
81868.9 31867.3 lineto
81981.4 31923.5 lineto
82206.4 31923.5 lineto
82318.9 31867.3 lineto
stroke
newpath
82768.8 30686.2 moveto
82825.1 30742.4 lineto
82937.6 30911.1 lineto
82993.8 31023.6 lineto
83050 31192.4 lineto
83106.3 31473.6 lineto
83106.3 31698.5 lineto
83050 31979.8 lineto
82993.8 32148.5 lineto
82937.6 32261 lineto
82825.1 32429.7 lineto
82768.8 32485.9 lineto
stroke
newpath
45136.4 30508.1 moveto
45136.4 29714.6 lineto
stroke
newpath
44739.7 30111.4 moveto
45533.2 30111.4 lineto
stroke
0 0 0 setrgbcolor
0 0 0 setrgbcolor
newpath
47279.5 29577.1 moveto
46604.6 29577.1 lineto
stroke
newpath
46942.1 29577.1 moveto
46942.1 30758.2 lineto
46829.6 30589.4 lineto
46717.1 30476.9 lineto
46604.6 30420.7 lineto
stroke
newpath
47785.7 29689.5 moveto
47841.9 29633.3 lineto
47785.7 29577.1 lineto
47729.5 29633.3 lineto
47785.7 29689.5 lineto
47785.7 29577.1 lineto
stroke
newpath
48854.3 30758.2 moveto
48629.3 30758.2 lineto
48516.9 30701.9 lineto
48460.6 30645.7 lineto
48348.1 30476.9 lineto
48291.9 30252 lineto
48291.9 29802 lineto
48348.1 29689.5 lineto
48404.4 29633.3 lineto
48516.9 29577.1 lineto
48741.8 29577.1 lineto
48854.3 29633.3 lineto
48910.6 29689.5 lineto
48966.8 29802 lineto
48966.8 30083.2 lineto
48910.6 30195.7 lineto
48854.3 30252 lineto
48741.8 30308.2 lineto
48516.9 30308.2 lineto
48404.4 30252 lineto
48348.1 30195.7 lineto
48291.9 30083.2 lineto
stroke
newpath
49698 30758.2 moveto
49810.4 30758.2 lineto
49922.9 30701.9 lineto
49979.2 30645.7 lineto
50035.4 30533.2 lineto
50091.7 30308.2 lineto
50091.7 30027 lineto
50035.4 29802 lineto
49979.2 29689.5 lineto
49922.9 29633.3 lineto
49810.4 29577.1 lineto
49698 29577.1 lineto
49585.5 29633.3 lineto
49529.2 29689.5 lineto
49473 29802 lineto
49416.7 30027 lineto
49416.7 30308.2 lineto
49473 30533.2 lineto
49529.2 30645.7 lineto
49585.5 30701.9 lineto
49698 30758.2 lineto
stroke
newpath
50597.8 29577.1 moveto
50597.8 30364.5 lineto
stroke
newpath
50597.8 30252 moveto
50654.1 30308.2 lineto
50766.6 30364.5 lineto
50935.3 30364.5 lineto
51047.8 30308.2 lineto
51104 30195.7 lineto
51104 29577.1 lineto
stroke
newpath
51104 30195.7 moveto
51160.3 30308.2 lineto
51272.8 30364.5 lineto
51441.5 30364.5 lineto
51554 30308.2 lineto
51610.2 30195.7 lineto
51610.2 29577.1 lineto
stroke
newpath
52172.7 29577.1 moveto
52172.7 30364.5 lineto
stroke
newpath
52172.7 30252 moveto
52228.9 30308.2 lineto
52341.4 30364.5 lineto
52510.1 30364.5 lineto
52622.6 30308.2 lineto
52678.8 30195.7 lineto
52678.8 29577.1 lineto
stroke
newpath
52678.8 30195.7 moveto
52735.1 30308.2 lineto
52847.6 30364.5 lineto
53016.3 30364.5 lineto
53128.8 30308.2 lineto
53185 30195.7 lineto
53185 29577.1 lineto
stroke
newpath
55491 30814.4 moveto
54478.6 29295.8 lineto
stroke
newpath
57009.5 30758.2 moveto
57122 30758.2 lineto
57234.5 30701.9 lineto
57290.8 30645.7 lineto
57347 30533.2 lineto
57403.2 30308.2 lineto
57403.2 30027 lineto
57347 29802 lineto
57290.8 29689.5 lineto
57234.5 29633.3 lineto
57122 29577.1 lineto
57009.5 29577.1 lineto
56897.1 29633.3 lineto
56840.8 29689.5 lineto
56784.6 29802 lineto
56728.3 30027 lineto
56728.3 30308.2 lineto
56784.6 30533.2 lineto
56840.8 30645.7 lineto
56897.1 30701.9 lineto
57009.5 30758.2 lineto
stroke
newpath
57909.4 29689.5 moveto
57965.7 29633.3 lineto
57909.4 29577.1 lineto
57853.2 29633.3 lineto
57909.4 29689.5 lineto
57909.4 29577.1 lineto
stroke
newpath
58696.8 30758.2 moveto
58809.3 30758.2 lineto
58921.8 30701.9 lineto
58978.1 30645.7 lineto
59034.3 30533.2 lineto
59090.5 30308.2 lineto
59090.5 30027 lineto
59034.3 29802 lineto
58978.1 29689.5 lineto
58921.8 29633.3 lineto
58809.3 29577.1 lineto
58696.8 29577.1 lineto
58584.4 29633.3 lineto
58528.1 29689.5 lineto
58471.9 29802 lineto
58415.6 30027 lineto
58415.6 30308.2 lineto
58471.9 30533.2 lineto
58528.1 30645.7 lineto
58584.4 30701.9 lineto
58696.8 30758.2 lineto
stroke
newpath
60102.9 30758.2 moveto
59877.9 30758.2 lineto
59765.5 30701.9 lineto
59709.2 30645.7 lineto
59596.7 30476.9 lineto
59540.5 30252 lineto
59540.5 29802 lineto
59596.7 29689.5 lineto
59653 29633.3 lineto
59765.5 29577.1 lineto
59990.4 29577.1 lineto
60102.9 29633.3 lineto
60159.2 29689.5 lineto
60215.4 29802 lineto
60215.4 30083.2 lineto
60159.2 30195.7 lineto
60102.9 30252 lineto
59990.4 30308.2 lineto
59765.5 30308.2 lineto
59653 30252 lineto
59596.7 30195.7 lineto
59540.5 30083.2 lineto
stroke
newpath
60609.1 30758.2 moveto
61340.3 30758.2 lineto
60946.6 30308.2 lineto
61115.3 30308.2 lineto
61227.8 30252 lineto
61284 30195.7 lineto
61340.3 30083.2 lineto
61340.3 29802 lineto
61284 29689.5 lineto
61227.8 29633.3 lineto
61115.3 29577.1 lineto
60777.8 29577.1 lineto
60665.3 29633.3 lineto
60609.1 29689.5 lineto
stroke
newpath
61790.2 30758.2 moveto
61790.2 30533.2 lineto
stroke
newpath
62240.1 30758.2 moveto
62240.1 30533.2 lineto
stroke
newpath
63983.7 29127.1 moveto
63927.4 29183.4 lineto
63814.9 29352.1 lineto
63758.7 29464.6 lineto
63702.5 29633.3 lineto
63646.2 29914.5 lineto
63646.2 30139.5 lineto
63702.5 30420.7 lineto
63758.7 30589.4 lineto
63814.9 30701.9 lineto
63927.4 30870.6 lineto
63983.7 30926.9 lineto
stroke
newpath
65052.3 29577.1 moveto
64377.4 29577.1 lineto
stroke
newpath
64714.8 29577.1 moveto
64714.8 30758.2 lineto
64602.3 30589.4 lineto
64489.9 30476.9 lineto
64377.4 30420.7 lineto
stroke
newpath
66458.4 29577.1 moveto
66458.4 30758.2 lineto
stroke
newpath
66964.6 29577.1 moveto
66964.6 30195.7 lineto
66908.3 30308.2 lineto
66795.8 30364.5 lineto
66627.1 30364.5 lineto
66514.6 30308.2 lineto
66458.4 30252 lineto
stroke
newpath
67695.7 29577.1 moveto
67583.2 29633.3 lineto
67527 29689.5 lineto
67470.7 29802 lineto
67470.7 30139.5 lineto
67527 30252 lineto
67583.2 30308.2 lineto
67695.7 30364.5 lineto
67864.4 30364.5 lineto
67976.9 30308.2 lineto
68033.2 30252 lineto
68089.4 30139.5 lineto
68089.4 29802 lineto
68033.2 29689.5 lineto
67976.9 29633.3 lineto
67864.4 29577.1 lineto
67695.7 29577.1 lineto
stroke
newpath
68764.3 29577.1 moveto
68651.8 29633.3 lineto
68595.6 29745.8 lineto
68595.6 30758.2 lineto
stroke
newpath
69664.2 29633.3 moveto
69551.7 29577.1 lineto
69326.8 29577.1 lineto
69214.3 29633.3 lineto
69158 29745.8 lineto
69158 30195.7 lineto
69214.3 30308.2 lineto
69326.8 30364.5 lineto
69551.7 30364.5 lineto
69664.2 30308.2 lineto
69720.5 30195.7 lineto
69720.5 30083.2 lineto
69158 29970.8 lineto
stroke
newpath
70114.2 29127.1 moveto
70170.4 29183.4 lineto
70282.9 29352.1 lineto
70339.1 29464.6 lineto
70395.4 29633.3 lineto
70451.6 29914.5 lineto
70451.6 30139.5 lineto
70395.4 30420.7 lineto
70339.1 30589.4 lineto
70282.9 30701.9 lineto
70170.4 30870.6 lineto
70114.2 30926.9 lineto
stroke
newpath
72251.4 29127.1 moveto
72195.1 29183.4 lineto
72082.7 29352.1 lineto
72026.4 29464.6 lineto
71970.2 29633.3 lineto
71913.9 29914.5 lineto
71913.9 30139.5 lineto
71970.2 30420.7 lineto
72026.4 30589.4 lineto
72082.7 30701.9 lineto
72195.1 30870.6 lineto
72251.4 30926.9 lineto
stroke
newpath
72701.3 30364.5 moveto
72701.3 29577.1 lineto
stroke
newpath
72701.3 30252 moveto
72757.6 30308.2 lineto
72870.1 30364.5 lineto
73038.8 30364.5 lineto
73151.3 30308.2 lineto
73207.5 30195.7 lineto
73207.5 29577.1 lineto
stroke
newpath
73938.7 29577.1 moveto
73826.2 29633.3 lineto
73770 29689.5 lineto
73713.7 29802 lineto
73713.7 30139.5 lineto
73770 30252 lineto
73826.2 30308.2 lineto
73938.7 30364.5 lineto
74107.4 30364.5 lineto
74219.9 30308.2 lineto
74276.1 30252 lineto
74332.4 30139.5 lineto
74332.4 29802 lineto
74276.1 29689.5 lineto
74219.9 29633.3 lineto
74107.4 29577.1 lineto
73938.7 29577.1 lineto
stroke
newpath
74669.8 30364.5 moveto
75119.8 30364.5 lineto
stroke
newpath
74838.6 30758.2 moveto
74838.6 29745.8 lineto
74894.8 29633.3 lineto
75007.3 29577.1 lineto
75119.8 29577.1 lineto
stroke
newpath
76413.4 30364.5 moveto
76413.4 29183.4 lineto
stroke
newpath
76413.4 30308.2 moveto
76525.9 30364.5 lineto
76750.8 30364.5 lineto
76863.3 30308.2 lineto
76919.6 30252 lineto
76975.8 30139.5 lineto
76975.8 29802 lineto
76919.6 29689.5 lineto
76863.3 29633.3 lineto
76750.8 29577.1 lineto
76525.9 29577.1 lineto
76413.4 29633.3 lineto
stroke
newpath
77650.7 29577.1 moveto
77538.2 29633.3 lineto
77482 29745.8 lineto
77482 30758.2 lineto
stroke
newpath
78606.8 29577.1 moveto
78606.8 30195.7 lineto
78550.6 30308.2 lineto
78438.1 30364.5 lineto
78213.1 30364.5 lineto
78100.7 30308.2 lineto
stroke
newpath
78606.8 29633.3 moveto
78494.4 29577.1 lineto
78213.1 29577.1 lineto
78100.7 29633.3 lineto
78044.4 29745.8 lineto
78044.4 29858.3 lineto
78100.7 29970.8 lineto
78213.1 30027 lineto
78494.4 30027 lineto
78606.8 30083.2 lineto
stroke
newpath
79000.5 30364.5 moveto
79450.5 30364.5 lineto
stroke
newpath
79169.3 30758.2 moveto
79169.3 29745.8 lineto
79225.5 29633.3 lineto
79338 29577.1 lineto
79450.5 29577.1 lineto
stroke
newpath
80294.1 29633.3 moveto
80181.7 29577.1 lineto
79956.7 29577.1 lineto
79844.2 29633.3 lineto
79788 29745.8 lineto
79788 30195.7 lineto
79844.2 30308.2 lineto
79956.7 30364.5 lineto
80181.7 30364.5 lineto
80294.1 30308.2 lineto
80350.4 30195.7 lineto
80350.4 30083.2 lineto
79788 29970.8 lineto
stroke
newpath
81362.8 29577.1 moveto
81362.8 30758.2 lineto
stroke
newpath
81362.8 29633.3 moveto
81250.3 29577.1 lineto
81025.3 29577.1 lineto
80912.8 29633.3 lineto
80856.6 29689.5 lineto
80800.3 29802 lineto
80800.3 30139.5 lineto
80856.6 30252 lineto
80912.8 30308.2 lineto
81025.3 30364.5 lineto
81250.3 30364.5 lineto
81362.8 30308.2 lineto
stroke
newpath
81812.7 29127.1 moveto
81868.9 29183.4 lineto
81981.4 29352.1 lineto
82037.7 29464.6 lineto
82093.9 29633.3 lineto
82150.2 29914.5 lineto
82150.2 30139.5 lineto
82093.9 30420.7 lineto
82037.7 30589.4 lineto
81981.4 30701.9 lineto
81868.9 30870.6 lineto
81812.7 30926.9 lineto
stroke
showpage
grestore
%%EOF
