%!PS-Adobe-3.0
%%Creator: PCBNEW
%%CreationDate: Mon Apr 22 13:35:55 2019
%%Title: /home/fandres/GIT/FrosTool-single-pcb/Broker/PCB/CPU/Gerber/CPU-PTH-drl_map.ps
%%Pages: 1
%%PageOrder: Ascend
%%BoundingBox: 0 0 596 842
%%DocumentMedia: A4 595 842 0 () ()
%%Orientation: Landscape
%%EndComments
%%BeginProlog
/line { newpath moveto lineto stroke } bind def
/cir0 { newpath 0 360 arc stroke } bind def
/cir1 { newpath 0 360 arc gsave fill grestore stroke } bind def
/cir2 { newpath 0 360 arc gsave fill grestore stroke } bind def
/arc0 { newpath arc stroke } bind def
/arc1 { newpath 4 index 4 index moveto arc closepath gsave fill
    grestore stroke } bind def
/arc2 { newpath 4 index 4 index moveto arc closepath gsave fill
    grestore stroke } bind def
/poly0 { stroke } bind def
/poly1 { closepath gsave fill grestore stroke } bind def
/poly2 { closepath gsave fill grestore stroke } bind def
/rect0 { rectstroke } bind def
/rect1 { rectfill } bind def
/rect2 { rectfill } bind def
/linemode0 { 0 setlinecap 0 setlinejoin 0 setlinewidth } bind def
/linemode1 { 1 setlinecap 1 setlinejoin } bind def
/dashedline { [200] 100 setdash } bind def
/solidline { [] 0 setdash } bind def
/phantomshow { moveto
    /KicadFont findfont 0.000001 scalefont setfont
    show } bind def
/textshow { gsave
    findfont exch scalefont setfont concat 1 scale 0 0 moveto show
    } bind def
/reencodefont {
  findfont dup length dict begin
  { 1 index /FID ne
    { def }
    { pop pop } ifelse
  } forall
  /Encoding ISOLatin1Encoding def
  currentdict
  end } bind def
/KicadFont /Helvetica reencodefont definefont pop
/KicadFont-Bold /Helvetica-Bold reencodefont definefont pop
/KicadFont-Oblique /Helvetica-Oblique reencodefont definefont pop
/KicadFont-BoldOblique /Helvetica-BoldOblique reencodefont definefont pop
%%EndProlog
%%Page: 1 1
%%BeginPageSetup
gsave
0.0072 0.0072 scale
linemode1
82680 0 translate 90 rotate
62.9853 setlinewidth
%%EndPageSetup
0 0 0 setrgbcolor
74.3921 setlinewidth
newpath
45570.4 78705.8 moveto
45570.4 37046.2 lineto
stroke
0 0 0 setrgbcolor
newpath
45570.4 37046.2 moveto
71359.6 37046.2 lineto
stroke
0 0 0 setrgbcolor
newpath
71359.6 78705.8 moveto
71359.6 37046.2 lineto
stroke
0 0 0 setrgbcolor
newpath
45570.4 78705.8 moveto
71359.6 78705.8 lineto
stroke
78.7401 setlinewidth
newpath
50631 62047.8 moveto
50779.8 61899 lineto
stroke
newpath
50779.8 62047.8 moveto
50631 61899 lineto
stroke
newpath
50823.2 62654.9 moveto
50972 62506.1 lineto
stroke
newpath
50972 62654.9 moveto
50823.2 62506.1 lineto
stroke
newpath
50994.8 59614.8 moveto
51143.6 59466 lineto
stroke
newpath
51143.6 59614.8 moveto
50994.8 59466 lineto
stroke
newpath
51806.9 52928.9 moveto
51955.7 52780.1 lineto
stroke
newpath
51955.7 52928.9 moveto
51806.9 52780.1 lineto
stroke
newpath
52377.2 39687.1 moveto
52526 39538.3 lineto
stroke
newpath
52526 39687.1 moveto
52377.2 39538.3 lineto
stroke
newpath
52724.4 62139.6 moveto
52873.2 61990.8 lineto
stroke
newpath
52873.2 62139.6 moveto
52724.4 61990.8 lineto
stroke
newpath
52984.8 54875.5 moveto
53133.6 54726.7 lineto
stroke
newpath
53133.6 54875.5 moveto
52984.8 54726.7 lineto
stroke
newpath
53121.2 54268 moveto
53269.9 54119.2 lineto
stroke
newpath
53269.9 54268 moveto
53121.2 54119.2 lineto
stroke
newpath
53316.1 66434.9 moveto
53464.9 66286.1 lineto
stroke
newpath
53464.9 66434.9 moveto
53316.1 66286.1 lineto
stroke
newpath
53406.3 57231.3 moveto
53555.1 57082.5 lineto
stroke
newpath
53555.1 57231.3 moveto
53406.3 57082.5 lineto
stroke
newpath
53495.4 48874.6 moveto
53644.2 48725.8 lineto
stroke
newpath
53644.2 48874.6 moveto
53495.4 48725.8 lineto
stroke
newpath
53690.9 65041.2 moveto
53839.6 64892.4 lineto
stroke
newpath
53839.6 65041.2 moveto
53690.9 64892.4 lineto
stroke
newpath
53877.5 47808.3 moveto
54026.3 47659.5 lineto
stroke
newpath
54026.3 47808.3 moveto
53877.5 47659.5 lineto
stroke
newpath
53976.7 49271.3 moveto
54125.5 49122.5 lineto
stroke
newpath
54125.5 49271.3 moveto
53976.7 49122.5 lineto
stroke
newpath
54224.6 65637.6 moveto
54373.4 65488.8 lineto
stroke
newpath
54373.4 65637.6 moveto
54224.6 65488.8 lineto
stroke
newpath
55067.8 64943.3 moveto
55216.5 64794.5 lineto
stroke
newpath
55216.5 64943.3 moveto
55067.8 64794.5 lineto
stroke
newpath
55315.7 55247.5 moveto
55464.5 55098.7 lineto
stroke
newpath
55464.5 55247.5 moveto
55315.7 55098.7 lineto
stroke
newpath
55507.8 65680.8 moveto
55656.5 65532 lineto
stroke
newpath
55656.5 65680.8 moveto
55507.8 65532 lineto
stroke
newpath
55638.1 53982.8 moveto
55786.9 53834 lineto
stroke
newpath
55786.9 53982.8 moveto
55638.1 53834 lineto
stroke
newpath
55700.1 72035.3 moveto
55848.9 71886.5 lineto
stroke
newpath
55848.9 72035.3 moveto
55700.1 71886.5 lineto
stroke
newpath
55786.9 58942.3 moveto
55935.7 58793.5 lineto
stroke
newpath
55935.7 58942.3 moveto
55786.9 58793.5 lineto
stroke
newpath
56777.9 64832.3 moveto
56926.7 64683.5 lineto
stroke
newpath
56926.7 64832.3 moveto
56777.9 64683.5 lineto
stroke
newpath
56828.7 54751.2 moveto
56977.5 54602.4 lineto
stroke
newpath
56977.5 54751.2 moveto
56828.7 54602.4 lineto
stroke
newpath
56890.4 56859.3 moveto
57039.2 56710.5 lineto
stroke
newpath
57039.2 56859.3 moveto
56890.4 56710.5 lineto
stroke
newpath
57051.5 55917 moveto
57200.3 55768.2 lineto
stroke
newpath
57200.3 55917 moveto
57051.5 55768.2 lineto
stroke
newpath
57076.3 55247.5 moveto
57225.1 55098.7 lineto
stroke
newpath
57225.1 55247.5 moveto
57076.3 55098.7 lineto
stroke
newpath
57336.7 48068.6 moveto
57485.5 47919.9 lineto
stroke
newpath
57485.5 48068.6 moveto
57336.7 47919.9 lineto
stroke
newpath
57621.9 62413.9 moveto
57770.7 62265.1 lineto
stroke
newpath
57770.7 62413.9 moveto
57621.9 62265.1 lineto
stroke
newpath
57671.5 65414.4 moveto
57820.3 65265.6 lineto
stroke
newpath
57820.3 65414.4 moveto
57671.5 65265.6 lineto
stroke
newpath
58014.1 62034.6 moveto
58162.9 61885.8 lineto
stroke
newpath
58162.9 62034.6 moveto
58014.1 61885.8 lineto
stroke
newpath
58886.6 62190.7 moveto
59035.3 62042 lineto
stroke
newpath
59035.3 62190.7 moveto
58886.6 62042 lineto
stroke
newpath
59767.5 65302.2 moveto
59916.3 65153.4 lineto
stroke
newpath
59916.3 65302.2 moveto
59767.5 65153.4 lineto
stroke
newpath
59977.6 66629.5 moveto
60126.4 66480.7 lineto
stroke
newpath
60126.4 66629.5 moveto
59977.6 66480.7 lineto
stroke
newpath
60619.1 61859.5 moveto
60767.9 61710.7 lineto
stroke
newpath
60767.9 61859.5 moveto
60619.1 61710.7 lineto
stroke
newpath
61291.9 68700.1 moveto
61440.7 68551.3 lineto
stroke
newpath
61440.7 68700.1 moveto
61291.9 68551.3 lineto
stroke
newpath
61428.8 67177.2 moveto
61577.6 67028.5 lineto
stroke
newpath
61577.6 67177.2 moveto
61428.8 67028.5 lineto
stroke
newpath
61701.1 66865 moveto
61849.8 66716.3 lineto
stroke
newpath
61849.8 66865 moveto
61701.1 66716.3 lineto
stroke
newpath
61713.5 55941.8 moveto
61862.2 55793 lineto
stroke
newpath
61862.2 55941.8 moveto
61713.5 55793 lineto
stroke
newpath
61787.8 53685.2 moveto
61936.6 53536.5 lineto
stroke
newpath
61936.6 53685.2 moveto
61787.8 53536.5 lineto
stroke
newpath
62184.6 54131.6 moveto
62333.4 53982.8 lineto
stroke
newpath
62333.4 54131.6 moveto
62184.6 53982.8 lineto
stroke
newpath
62184.6 47969.4 moveto
62333.4 47820.7 lineto
stroke
newpath
62333.4 47969.4 moveto
62184.6 47820.7 lineto
stroke
newpath
62457.4 65600.4 moveto
62606.2 65451.6 lineto
stroke
newpath
62606.2 65600.4 moveto
62457.4 65451.6 lineto
stroke
newpath
63498.9 66852.6 moveto
63647.7 66703.9 lineto
stroke
newpath
63647.7 66852.6 moveto
63498.9 66703.9 lineto
stroke
newpath
63784 65687.1 moveto
63932.8 65538.3 lineto
stroke
newpath
63932.8 65687.1 moveto
63784 65538.3 lineto
stroke
newpath
64094 59785.4 moveto
64242.8 59636.6 lineto
stroke
newpath
64242.8 59785.4 moveto
64094 59636.6 lineto
stroke
newpath
64193.2 49320.9 moveto
64342 49172.1 lineto
stroke
newpath
64342 49320.9 moveto
64193.2 49172.1 lineto
stroke
newpath
64404.1 65464 moveto
64552.9 65315.2 lineto
stroke
newpath
64552.9 65464 moveto
64404.1 65315.2 lineto
stroke
newpath
64503.2 59053.9 moveto
64651.9 58905.1 lineto
stroke
newpath
64651.9 59053.9 moveto
64503.2 58905.1 lineto
stroke
newpath
65693.4 58768.7 moveto
65842.2 58619.9 lineto
stroke
newpath
65842.2 58768.7 moveto
65693.4 58619.9 lineto
stroke
newpath
66341.5 62066.1 moveto
66490.3 61917.3 lineto
stroke
newpath
66490.3 62066.1 moveto
66341.5 61917.3 lineto
stroke
newpath
66361.3 55455.2 moveto
66510.1 55306.4 lineto
stroke
newpath
66510.1 55455.2 moveto
66361.3 55306.4 lineto
stroke
newpath
67069.7 51899.8 moveto
67218.5 51751 lineto
stroke
newpath
67218.5 51899.8 moveto
67069.7 51751 lineto
stroke
newpath
68470.7 66455.9 moveto
68619.5 66307.1 lineto
stroke
newpath
68619.5 66455.9 moveto
68470.7 66307.1 lineto
stroke
newpath
70627.3 62922.1 moveto
70776 62773.3 lineto
stroke
newpath
70776 62922.1 moveto
70627.3 62773.3 lineto
stroke
newpath
71000.1 63294.9 moveto
71148.9 63146.2 lineto
stroke
newpath
71148.9 63294.9 moveto
71000.1 63146.2 lineto
stroke
47050.8 59847.4 99.1895 cir0
52476.4 50176.4 99.1895 cir0
53374 67452 99.1895 cir0
54299 52742.9 99.1895 cir0
58415.4 65761.6 99.1895 cir0
58725.4 69803.5 99.1895 cir0
59605.7 68452.1 99.1895 cir0
61564.7 72010.5 99.1895 cir0
63387.3 55284.7 99.1895 cir0
63895.6 70522.7 99.1895 cir0
67503.6 71080.6 99.1895 cir0
68136 61992.4 99.1895 cir0
newpath
46215.1 55178 moveto
46215.1 54930.1 lineto
stroke
newpath
46091.1 55054.1 moveto
46339.1 55054.1 lineto
stroke
newpath
46215.1 54682.1 moveto
46215.1 54434.1 lineto
stroke
newpath
46091.1 54558.1 moveto
46339.1 54558.1 lineto
stroke
newpath
46215.1 54186.2 moveto
46215.1 53938.2 lineto
stroke
newpath
46091.1 54062.2 moveto
46339.1 54062.2 lineto
stroke
newpath
46215.1 53690.2 moveto
46215.1 53442.2 lineto
stroke
newpath
46091.1 53566.2 moveto
46339.1 53566.2 lineto
stroke
newpath
46205.2 56165 moveto
46205.2 55917 lineto
stroke
newpath
46081.2 56041 moveto
46329.2 56041 lineto
stroke
newpath
46215.1 52698.3 moveto
46215.1 52450.3 lineto
stroke
newpath
46091.1 52574.3 moveto
46339.1 52574.3 lineto
stroke
newpath
46215.1 52202.4 moveto
46215.1 51954.4 lineto
stroke
newpath
46091.1 52078.4 moveto
46339.1 52078.4 lineto
stroke
newpath
46215.1 51706.4 moveto
46215.1 51458.4 lineto
stroke
newpath
46091.1 51582.4 moveto
46339.1 51582.4 lineto
stroke
newpath
46215.1 51210.5 moveto
46215.1 50962.5 lineto
stroke
newpath
46091.1 51086.5 moveto
46339.1 51086.5 lineto
stroke
newpath
46215.1 50714.5 moveto
46215.1 50466.5 lineto
stroke
newpath
46091.1 50590.5 moveto
46339.1 50590.5 lineto
stroke
newpath
46215.1 50218.6 moveto
46215.1 49970.6 lineto
stroke
newpath
46091.1 50094.6 moveto
46339.1 50094.6 lineto
stroke
newpath
46205.2 61223.6 moveto
46205.2 60975.7 lineto
stroke
newpath
46081.2 61099.7 moveto
46329.2 61099.7 lineto
stroke
newpath
46205.2 60727.7 moveto
46205.2 60479.7 lineto
stroke
newpath
46081.2 60603.7 moveto
46329.2 60603.7 lineto
stroke
newpath
46205.2 60231.8 moveto
46205.2 59983.8 lineto
stroke
newpath
46081.2 60107.8 moveto
46329.2 60107.8 lineto
stroke
newpath
46205.2 59735.8 moveto
46205.2 59487.8 lineto
stroke
newpath
46081.2 59611.8 moveto
46329.2 59611.8 lineto
stroke
newpath
46205.2 59239.9 moveto
46205.2 58991.9 lineto
stroke
newpath
46081.2 59115.9 moveto
46329.2 59115.9 lineto
stroke
newpath
46205.2 58743.9 moveto
46205.2 58495.9 lineto
stroke
newpath
46081.2 58619.9 moveto
46329.2 58619.9 lineto
stroke
newpath
47395.5 56165 moveto
47395.5 55917 lineto
stroke
newpath
47271.5 56041 moveto
47519.4 56041 lineto
stroke
newpath
70516.5 67720.6 moveto
70516.5 67472.6 lineto
stroke
newpath
70392.5 67596.6 moveto
70640.5 67596.6 lineto
stroke
newpath
70516.5 67224.6 moveto
70516.5 66976.6 lineto
stroke
newpath
70392.5 67100.6 moveto
70640.5 67100.6 lineto
stroke
newpath
70516.5 66728.7 moveto
70516.5 66480.7 lineto
stroke
newpath
70392.5 66604.7 moveto
70640.5 66604.7 lineto
stroke
newpath
70516.5 66232.7 moveto
70516.5 65984.7 lineto
stroke
newpath
70392.5 66108.7 moveto
70640.5 66108.7 lineto
stroke
newpath
46215.1 63257 moveto
46215.1 63009.1 lineto
stroke
newpath
46091.1 63133 moveto
46339.1 63133 lineto
stroke
newpath
46215.1 49226.7 moveto
46215.1 48978.7 lineto
stroke
newpath
46091.1 49102.7 moveto
46339.1 49102.7 lineto
stroke
newpath
46215.1 48730.7 moveto
46215.1 48482.8 lineto
stroke
newpath
46091.1 48606.7 moveto
46339.1 48606.7 lineto
stroke
newpath
46215.1 48234.8 moveto
46215.1 47986.8 lineto
stroke
newpath
46091.1 48110.8 moveto
46339.1 48110.8 lineto
stroke
newpath
47405.4 63257 moveto
47405.4 63009.1 lineto
stroke
newpath
47281.4 63133 moveto
47529.4 63133 lineto
stroke
newpath
46210.1 47242.9 moveto
46210.1 46994.9 lineto
stroke
newpath
46086.1 47118.9 moveto
46334.1 47118.9 lineto
stroke
newpath
46210.1 46746.9 moveto
46210.1 46499 lineto
stroke
newpath
46086.1 46623 moveto
46334.1 46623 lineto
stroke
newpath
46210.1 46251 moveto
46210.1 46003 lineto
stroke
newpath
46086.1 46127 moveto
46334.1 46127 lineto
stroke
newpath
46210.1 45755 moveto
46210.1 45507.1 lineto
stroke
newpath
46086.1 45631.1 moveto
46334.1 45631.1 lineto
stroke
newpath
48893.2 77490.7 moveto
48893.2 77242.8 lineto
stroke
newpath
48769.2 77366.7 moveto
49017.2 77366.7 lineto
stroke
newpath
49389.2 77490.7 moveto
49389.2 77242.8 lineto
stroke
newpath
49265.2 77366.7 moveto
49513.1 77366.7 lineto
stroke
newpath
70516.5 68712.5 moveto
70516.5 68464.5 lineto
stroke
newpath
70392.5 68588.5 moveto
70640.5 68588.5 lineto
stroke
newpath
46205.2 57757 moveto
46205.2 57509 lineto
stroke
newpath
46081.2 57633 moveto
46329.2 57633 lineto
stroke
newpath
46205.2 57261 moveto
46205.2 57013.1 lineto
stroke
newpath
46081.2 57137 moveto
46329.2 57137 lineto
stroke
newpath
70516.5 65240.8 moveto
70516.5 64992.8 lineto
stroke
newpath
70392.5 65116.8 moveto
70640.5 65116.8 lineto
stroke
newpath
70516.5 64248.9 moveto
70516.5 64001 lineto
stroke
newpath
70392.5 64124.9 moveto
70640.5 64124.9 lineto
stroke
newpath
46215.1 62215.5 moveto
46215.1 61967.6 lineto
stroke
newpath
46091.1 62091.6 moveto
46339.1 62091.6 lineto
stroke
newpath
47405.4 62215.5 moveto
47405.4 61967.6 lineto
stroke
newpath
47281.4 62091.6 moveto
47529.4 62091.6 lineto
stroke
newpath
68127.5 73854 moveto
68127.5 74134.6 lineto
67846.9 74134.6 lineto
67846.9 73854 lineto
68127.5 73854 lineto
poly0
newpath
68821.8 73854 moveto
68821.8 74134.6 lineto
68541.2 74134.6 lineto
68541.2 73854 lineto
68821.8 73854 lineto
poly0
newpath
69516.1 73854 moveto
69516.1 74134.6 lineto
69235.6 74134.6 lineto
69235.6 73854 lineto
69516.1 73854 lineto
poly0
newpath
70210.4 73854 moveto
70210.4 74134.6 lineto
69929.9 74134.6 lineto
69929.9 73854 lineto
70210.4 73854 lineto
poly0
newpath
69028.7 77540.3 moveto
69251.9 77763.5 lineto
69028.7 77986.7 lineto
68805.5 77763.5 lineto
69028.7 77540.3 lineto
poly0
newpath
68607.1 77579.7 moveto
69450.2 77579.7 lineto
stroke
newpath
68607.1 77947.3 moveto
69450.2 77947.3 lineto
stroke
69450.2 77763.5 183.806 270 450 arc0
68607.1 77763.5 183.806 90 270 arc0
newpath
46264.7 40716.2 moveto
46760.6 40220.3 lineto
stroke
newpath
46760.6 40716.2 moveto
46264.7 40220.3 lineto
stroke
46512.7 40468.2 247.974 cir0
newpath
46264.7 39456.5 moveto
46760.6 38960.6 lineto
stroke
newpath
46760.6 39456.5 moveto
46264.7 38960.6 lineto
stroke
46512.7 39208.5 247.974 cir0
newpath
46264.7 38196.8 moveto
46760.6 37700.9 lineto
stroke
newpath
46760.6 38196.8 moveto
46264.7 37700.9 lineto
stroke
46512.7 37948.8 247.974 cir0
newpath
46259.7 44495.3 moveto
46755.7 43999.4 lineto
stroke
newpath
46755.7 44495.3 moveto
46259.7 43999.4 lineto
stroke
46507.7 44247.4 247.974 cir0
newpath
46259.7 43235.6 moveto
46755.7 42739.7 lineto
stroke
newpath
46755.7 43235.6 moveto
46259.7 42739.7 lineto
stroke
46507.7 42987.7 247.974 cir0
newpath
46259.7 41975.9 moveto
46755.7 41480 lineto
stroke
newpath
46755.7 41975.9 moveto
46259.7 41480 lineto
stroke
46507.7 41727.9 247.974 cir0
newpath
46363.9 74589.4 moveto
46859.8 74093.5 lineto
stroke
newpath
46859.8 74589.4 moveto
46363.9 74093.5 lineto
stroke
46611.9 74341.5 247.974 cir0
newpath
46363.9 73329.7 moveto
46859.8 72833.8 lineto
stroke
newpath
46859.8 73329.7 moveto
46363.9 72833.8 lineto
stroke
46611.9 73081.8 247.974 cir0
newpath
46363.9 78031.3 moveto
46859.8 77535.4 lineto
stroke
newpath
46859.8 78031.3 moveto
46363.9 77535.4 lineto
stroke
46611.9 77783.3 247.974 cir0
newpath
46363.9 76771.6 moveto
46859.8 76275.7 lineto
stroke
newpath
46859.8 76771.6 moveto
46363.9 76275.7 lineto
stroke
46611.9 76523.6 247.974 cir0
newpath
61624.2 74316.7 moveto
62169.7 73771.1 lineto
stroke
newpath
62169.7 74316.7 moveto
61624.2 73771.1 lineto
stroke
newpath
61897 74316.7 moveto
61897 73771.1 lineto
stroke
newpath
61624.2 74043.9 moveto
62169.7 74043.9 lineto
stroke
newpath
62883.9 74316.7 moveto
63429.4 73771.1 lineto
stroke
newpath
63429.4 74316.7 moveto
62883.9 73771.1 lineto
stroke
newpath
63156.7 74316.7 moveto
63156.7 73771.1 lineto
stroke
newpath
62883.9 74043.9 moveto
63429.4 74043.9 lineto
stroke
newpath
64143.6 74316.7 moveto
64689.1 73771.1 lineto
stroke
newpath
64689.1 74316.7 moveto
64143.6 73771.1 lineto
stroke
newpath
64416.4 74316.7 moveto
64416.4 73771.1 lineto
stroke
newpath
64143.6 74043.9 moveto
64689.1 74043.9 lineto
stroke
newpath
67154 75333.4 moveto
67848.3 74639 lineto
stroke
newpath
67848.3 75333.4 moveto
67154 74639 lineto
stroke
newpath
67746.6 74740.7 moveto
67746.6 75231.7 lineto
67255.7 75231.7 lineto
67255.7 74740.7 lineto
67746.6 74740.7 lineto
poly0
newpath
67809 74877.1 moveto
67809 75095.3 lineto
stroke
newpath
67193.4 74877.1 moveto
67193.4 75095.3 lineto
stroke
67501.2 75095.3 307.793 360 540 arc0
67501.2 74877.1 307.793 180 360 arc0
newpath
70209 75333.4 moveto
70903.4 74639 lineto
stroke
newpath
70903.4 75333.4 moveto
70209 74639 lineto
stroke
newpath
70801.7 74740.7 moveto
70801.7 75231.7 lineto
70310.7 75231.7 lineto
70310.7 74740.7 lineto
70801.7 74740.7 lineto
poly0
newpath
70248.4 75095.3 moveto
70248.4 74877.1 lineto
stroke
newpath
70864 75095.3 moveto
70864 74877.1 lineto
stroke
70556.2 74877.1 307.793 180 360 arc0
70556.2 75095.3 307.793 0 180 arc0
118.11 setlinewidth
0 0 0 setrgbcolor
0 0 0 setrgbcolor
newpath
46660.8 35175.5 moveto
46660.8 36356.6 lineto
46942.1 36356.6 lineto
47110.8 36300.3 lineto
47223.3 36187.9 lineto
47279.5 36075.4 lineto
47335.8 35850.4 lineto
47335.8 35681.7 lineto
47279.5 35456.7 lineto
47223.3 35344.2 lineto
47110.8 35231.7 lineto
46942.1 35175.5 lineto
46660.8 35175.5 lineto
stroke
newpath
47841.9 35175.5 moveto
47841.9 35962.9 lineto
stroke
newpath
47841.9 35737.9 moveto
47898.2 35850.4 lineto
47954.4 35906.6 lineto
48066.9 35962.9 lineto
48179.4 35962.9 lineto
stroke
newpath
48573.1 35175.5 moveto
48573.1 35962.9 lineto
stroke
newpath
48573.1 36356.6 moveto
48516.9 36300.3 lineto
48573.1 36244.1 lineto
48629.3 36300.3 lineto
48573.1 36356.6 lineto
48573.1 36244.1 lineto
stroke
newpath
49304.3 35175.5 moveto
49191.8 35231.7 lineto
49135.5 35344.2 lineto
49135.5 36356.6 lineto
stroke
newpath
49922.9 35175.5 moveto
49810.4 35231.7 lineto
49754.2 35344.2 lineto
49754.2 36356.6 lineto
stroke
newpath
51272.8 35175.5 moveto
51272.8 36356.6 lineto
51666.5 35512.9 lineto
52060.2 36356.6 lineto
52060.2 35175.5 lineto
stroke
newpath
53128.8 35175.5 moveto
53128.8 35794.2 lineto
53072.5 35906.6 lineto
52960.1 35962.9 lineto
52735.1 35962.9 lineto
52622.6 35906.6 lineto
stroke
newpath
53128.8 35231.7 moveto
53016.3 35175.5 lineto
52735.1 35175.5 lineto
52622.6 35231.7 lineto
52566.4 35344.2 lineto
52566.4 35456.7 lineto
52622.6 35569.2 lineto
52735.1 35625.4 lineto
53016.3 35625.4 lineto
53128.8 35681.7 lineto
stroke
newpath
53691.2 35962.9 moveto
53691.2 34781.8 lineto
stroke
newpath
53691.2 35906.6 moveto
53803.7 35962.9 lineto
54028.7 35962.9 lineto
54141.2 35906.6 lineto
54197.4 35850.4 lineto
54253.6 35737.9 lineto
54253.6 35400.5 lineto
54197.4 35288 lineto
54141.2 35231.7 lineto
54028.7 35175.5 lineto
53803.7 35175.5 lineto
53691.2 35231.7 lineto
stroke
newpath
54759.8 35288 moveto
54816.1 35231.7 lineto
54759.8 35175.5 lineto
54703.6 35231.7 lineto
54759.8 35288 lineto
54759.8 35175.5 lineto
stroke
newpath
54759.8 35906.6 moveto
54816.1 35850.4 lineto
54759.8 35794.2 lineto
54703.6 35850.4 lineto
54759.8 35906.6 lineto
54759.8 35794.2 lineto
stroke
newpath
45384.4 33303.9 moveto
45533.2 33155.1 lineto
stroke
newpath
45533.2 33303.9 moveto
45384.4 33155.1 lineto
stroke
0 0 0 setrgbcolor
0 0 0 setrgbcolor
newpath
46885.8 33876.3 moveto
46998.3 33876.3 lineto
47110.8 33820 lineto
47167 33763.8 lineto
47223.3 33651.3 lineto
47279.5 33426.3 lineto
47279.5 33145.1 lineto
47223.3 32920.1 lineto
47167 32807.7 lineto
47110.8 32751.4 lineto
46998.3 32695.2 lineto
46885.8 32695.2 lineto
46773.3 32751.4 lineto
46717.1 32807.7 lineto
46660.8 32920.1 lineto
46604.6 33145.1 lineto
46604.6 33426.3 lineto
46660.8 33651.3 lineto
46717.1 33763.8 lineto
46773.3 33820 lineto
46885.8 33876.3 lineto
stroke
newpath
47785.7 32807.7 moveto
47841.9 32751.4 lineto
47785.7 32695.2 lineto
47729.5 32751.4 lineto
47785.7 32807.7 lineto
47785.7 32695.2 lineto
stroke
newpath
48235.6 33876.3 moveto
48966.8 33876.3 lineto
48573.1 33426.3 lineto
48741.8 33426.3 lineto
48854.3 33370.1 lineto
48910.6 33313.8 lineto
48966.8 33201.4 lineto
48966.8 32920.1 lineto
48910.6 32807.7 lineto
48854.3 32751.4 lineto
48741.8 32695.2 lineto
48404.4 32695.2 lineto
48291.9 32751.4 lineto
48235.6 32807.7 lineto
stroke
newpath
49698 33876.3 moveto
49810.4 33876.3 lineto
49922.9 33820 lineto
49979.2 33763.8 lineto
50035.4 33651.3 lineto
50091.7 33426.3 lineto
50091.7 33145.1 lineto
50035.4 32920.1 lineto
49979.2 32807.7 lineto
49922.9 32751.4 lineto
49810.4 32695.2 lineto
49698 32695.2 lineto
49585.5 32751.4 lineto
49529.2 32807.7 lineto
49473 32920.1 lineto
49416.7 33145.1 lineto
49416.7 33426.3 lineto
49473 33651.3 lineto
49529.2 33763.8 lineto
49585.5 33820 lineto
49698 33876.3 lineto
stroke
newpath
50597.8 32695.2 moveto
50597.8 33482.6 lineto
stroke
newpath
50597.8 33370.1 moveto
50654.1 33426.3 lineto
50766.6 33482.6 lineto
50935.3 33482.6 lineto
51047.8 33426.3 lineto
51104 33313.8 lineto
51104 32695.2 lineto
stroke
newpath
51104 33313.8 moveto
51160.3 33426.3 lineto
51272.8 33482.6 lineto
51441.5 33482.6 lineto
51554 33426.3 lineto
51610.2 33313.8 lineto
51610.2 32695.2 lineto
stroke
newpath
52172.7 32695.2 moveto
52172.7 33482.6 lineto
stroke
newpath
52172.7 33370.1 moveto
52228.9 33426.3 lineto
52341.4 33482.6 lineto
52510.1 33482.6 lineto
52622.6 33426.3 lineto
52678.8 33313.8 lineto
52678.8 32695.2 lineto
stroke
newpath
52678.8 33313.8 moveto
52735.1 33426.3 lineto
52847.6 33482.6 lineto
53016.3 33482.6 lineto
53128.8 33426.3 lineto
53185 33313.8 lineto
53185 32695.2 lineto
stroke
newpath
55491 33932.5 moveto
54478.6 32414 lineto
stroke
newpath
57009.5 33876.3 moveto
57122 33876.3 lineto
57234.5 33820 lineto
57290.8 33763.8 lineto
57347 33651.3 lineto
57403.2 33426.3 lineto
57403.2 33145.1 lineto
57347 32920.1 lineto
57290.8 32807.7 lineto
57234.5 32751.4 lineto
57122 32695.2 lineto
57009.5 32695.2 lineto
56897.1 32751.4 lineto
56840.8 32807.7 lineto
56784.6 32920.1 lineto
56728.3 33145.1 lineto
56728.3 33426.3 lineto
56784.6 33651.3 lineto
56840.8 33763.8 lineto
56897.1 33820 lineto
57009.5 33876.3 lineto
stroke
newpath
57909.4 32807.7 moveto
57965.7 32751.4 lineto
57909.4 32695.2 lineto
57853.2 32751.4 lineto
57909.4 32807.7 lineto
57909.4 32695.2 lineto
stroke
newpath
58696.8 33876.3 moveto
58809.3 33876.3 lineto
58921.8 33820 lineto
58978.1 33763.8 lineto
59034.3 33651.3 lineto
59090.5 33426.3 lineto
59090.5 33145.1 lineto
59034.3 32920.1 lineto
58978.1 32807.7 lineto
58921.8 32751.4 lineto
58809.3 32695.2 lineto
58696.8 32695.2 lineto
58584.4 32751.4 lineto
58528.1 32807.7 lineto
58471.9 32920.1 lineto
58415.6 33145.1 lineto
58415.6 33426.3 lineto
58471.9 33651.3 lineto
58528.1 33763.8 lineto
58584.4 33820 lineto
58696.8 33876.3 lineto
stroke
newpath
60215.4 32695.2 moveto
59540.5 32695.2 lineto
stroke
newpath
59877.9 32695.2 moveto
59877.9 33876.3 lineto
59765.5 33707.5 lineto
59653 33595.1 lineto
59540.5 33538.8 lineto
stroke
newpath
60665.3 33763.8 moveto
60721.6 33820 lineto
60834.1 33876.3 lineto
61115.3 33876.3 lineto
61227.8 33820 lineto
61284 33763.8 lineto
61340.3 33651.3 lineto
61340.3 33538.8 lineto
61284 33370.1 lineto
60609.1 32695.2 lineto
61340.3 32695.2 lineto
stroke
newpath
61790.2 33876.3 moveto
61790.2 33651.3 lineto
stroke
newpath
62240.1 33876.3 moveto
62240.1 33651.3 lineto
stroke
newpath
63983.7 32245.2 moveto
63927.4 32301.5 lineto
63814.9 32470.2 lineto
63758.7 32582.7 lineto
63702.5 32751.4 lineto
63646.2 33032.6 lineto
63646.2 33257.6 lineto
63702.5 33538.8 lineto
63758.7 33707.5 lineto
63814.9 33820 lineto
63927.4 33988.8 lineto
63983.7 34045 lineto
stroke
newpath
64996 33876.3 moveto
64433.6 33876.3 lineto
64377.4 33313.8 lineto
64433.6 33370.1 lineto
64546.1 33426.3 lineto
64827.3 33426.3 lineto
64939.8 33370.1 lineto
64996 33313.8 lineto
65052.3 33201.4 lineto
65052.3 32920.1 lineto
64996 32807.7 lineto
64939.8 32751.4 lineto
64827.3 32695.2 lineto
64546.1 32695.2 lineto
64433.6 32751.4 lineto
64377.4 32807.7 lineto
stroke
newpath
66120.9 33876.3 moveto
65558.5 33876.3 lineto
65502.2 33313.8 lineto
65558.5 33370.1 lineto
65671 33426.3 lineto
65952.2 33426.3 lineto
66064.7 33370.1 lineto
66120.9 33313.8 lineto
66177.2 33201.4 lineto
66177.2 32920.1 lineto
66120.9 32807.7 lineto
66064.7 32751.4 lineto
65952.2 32695.2 lineto
65671 32695.2 lineto
65558.5 32751.4 lineto
65502.2 32807.7 lineto
stroke
newpath
67583.2 32695.2 moveto
67583.2 33876.3 lineto
stroke
newpath
68089.4 32695.2 moveto
68089.4 33313.8 lineto
68033.2 33426.3 lineto
67920.7 33482.6 lineto
67752 33482.6 lineto
67639.5 33426.3 lineto
67583.2 33370.1 lineto
stroke
newpath
68820.6 32695.2 moveto
68708.1 32751.4 lineto
68651.8 32807.7 lineto
68595.6 32920.1 lineto
68595.6 33257.6 lineto
68651.8 33370.1 lineto
68708.1 33426.3 lineto
68820.6 33482.6 lineto
68989.3 33482.6 lineto
69101.8 33426.3 lineto
69158 33370.1 lineto
69214.3 33257.6 lineto
69214.3 32920.1 lineto
69158 32807.7 lineto
69101.8 32751.4 lineto
68989.3 32695.2 lineto
68820.6 32695.2 lineto
stroke
newpath
69889.2 32695.2 moveto
69776.7 32751.4 lineto
69720.5 32863.9 lineto
69720.5 33876.3 lineto
stroke
newpath
70789.1 32751.4 moveto
70676.6 32695.2 lineto
70451.6 32695.2 lineto
70339.1 32751.4 lineto
70282.9 32863.9 lineto
70282.9 33313.8 lineto
70339.1 33426.3 lineto
70451.6 33482.6 lineto
70676.6 33482.6 lineto
70789.1 33426.3 lineto
70845.3 33313.8 lineto
70845.3 33201.4 lineto
70282.9 33088.9 lineto
stroke
newpath
71295.3 32751.4 moveto
71407.7 32695.2 lineto
71632.7 32695.2 lineto
71745.2 32751.4 lineto
71801.4 32863.9 lineto
71801.4 32920.1 lineto
71745.2 33032.6 lineto
71632.7 33088.9 lineto
71464 33088.9 lineto
71351.5 33145.1 lineto
71295.3 33257.6 lineto
71295.3 33313.8 lineto
71351.5 33426.3 lineto
71464 33482.6 lineto
71632.7 33482.6 lineto
71745.2 33426.3 lineto
stroke
newpath
72195.1 32245.2 moveto
72251.4 32301.5 lineto
72363.9 32470.2 lineto
72420.1 32582.7 lineto
72476.4 32751.4 lineto
72532.6 33032.6 lineto
72532.6 33257.6 lineto
72476.4 33538.8 lineto
72420.1 33707.5 lineto
72363.9 33820 lineto
72251.4 33988.8 lineto
72195.1 34045 lineto
stroke
45434 31670.4 99.1895 cir0
0 0 0 setrgbcolor
0 0 0 setrgbcolor
newpath
46885.8 32317.2 moveto
46998.3 32317.2 lineto
47110.8 32261 lineto
47167 32204.7 lineto
47223.3 32092.2 lineto
47279.5 31867.3 lineto
47279.5 31586.1 lineto
47223.3 31361.1 lineto
47167 31248.6 lineto
47110.8 31192.4 lineto
46998.3 31136.1 lineto
46885.8 31136.1 lineto
46773.3 31192.4 lineto
46717.1 31248.6 lineto
46660.8 31361.1 lineto
46604.6 31586.1 lineto
46604.6 31867.3 lineto
46660.8 32092.2 lineto
46717.1 32204.7 lineto
46773.3 32261 lineto
46885.8 32317.2 lineto
stroke
newpath
47785.7 31248.6 moveto
47841.9 31192.4 lineto
47785.7 31136.1 lineto
47729.5 31192.4 lineto
47785.7 31248.6 lineto
47785.7 31136.1 lineto
stroke
newpath
48854.3 31923.5 moveto
48854.3 31136.1 lineto
stroke
newpath
48573.1 32373.5 moveto
48291.9 31529.8 lineto
49023 31529.8 lineto
stroke
newpath
49698 32317.2 moveto
49810.4 32317.2 lineto
49922.9 32261 lineto
49979.2 32204.7 lineto
50035.4 32092.2 lineto
50091.7 31867.3 lineto
50091.7 31586.1 lineto
50035.4 31361.1 lineto
49979.2 31248.6 lineto
49922.9 31192.4 lineto
49810.4 31136.1 lineto
49698 31136.1 lineto
49585.5 31192.4 lineto
49529.2 31248.6 lineto
49473 31361.1 lineto
49416.7 31586.1 lineto
49416.7 31867.3 lineto
49473 32092.2 lineto
49529.2 32204.7 lineto
49585.5 32261 lineto
49698 32317.2 lineto
stroke
newpath
50597.8 31136.1 moveto
50597.8 31923.5 lineto
stroke
newpath
50597.8 31811 moveto
50654.1 31867.3 lineto
50766.6 31923.5 lineto
50935.3 31923.5 lineto
51047.8 31867.3 lineto
51104 31754.8 lineto
51104 31136.1 lineto
stroke
newpath
51104 31754.8 moveto
51160.3 31867.3 lineto
51272.8 31923.5 lineto
51441.5 31923.5 lineto
51554 31867.3 lineto
51610.2 31754.8 lineto
51610.2 31136.1 lineto
stroke
newpath
52172.7 31136.1 moveto
52172.7 31923.5 lineto
stroke
newpath
52172.7 31811 moveto
52228.9 31867.3 lineto
52341.4 31923.5 lineto
52510.1 31923.5 lineto
52622.6 31867.3 lineto
52678.8 31754.8 lineto
52678.8 31136.1 lineto
stroke
newpath
52678.8 31754.8 moveto
52735.1 31867.3 lineto
52847.6 31923.5 lineto
53016.3 31923.5 lineto
53128.8 31867.3 lineto
53185 31754.8 lineto
53185 31136.1 lineto
stroke
newpath
55491 32373.5 moveto
54478.6 30854.9 lineto
stroke
newpath
57009.5 32317.2 moveto
57122 32317.2 lineto
57234.5 32261 lineto
57290.8 32204.7 lineto
57347 32092.2 lineto
57403.2 31867.3 lineto
57403.2 31586.1 lineto
57347 31361.1 lineto
57290.8 31248.6 lineto
57234.5 31192.4 lineto
57122 31136.1 lineto
57009.5 31136.1 lineto
56897.1 31192.4 lineto
56840.8 31248.6 lineto
56784.6 31361.1 lineto
56728.3 31586.1 lineto
56728.3 31867.3 lineto
56784.6 32092.2 lineto
56840.8 32204.7 lineto
56897.1 32261 lineto
57009.5 32317.2 lineto
stroke
newpath
57909.4 31248.6 moveto
57965.7 31192.4 lineto
57909.4 31136.1 lineto
57853.2 31192.4 lineto
57909.4 31248.6 lineto
57909.4 31136.1 lineto
stroke
newpath
58696.8 32317.2 moveto
58809.3 32317.2 lineto
58921.8 32261 lineto
58978.1 32204.7 lineto
59034.3 32092.2 lineto
59090.5 31867.3 lineto
59090.5 31586.1 lineto
59034.3 31361.1 lineto
58978.1 31248.6 lineto
58921.8 31192.4 lineto
58809.3 31136.1 lineto
58696.8 31136.1 lineto
58584.4 31192.4 lineto
58528.1 31248.6 lineto
58471.9 31361.1 lineto
58415.6 31586.1 lineto
58415.6 31867.3 lineto
58471.9 32092.2 lineto
58528.1 32204.7 lineto
58584.4 32261 lineto
58696.8 32317.2 lineto
stroke
newpath
60215.4 31136.1 moveto
59540.5 31136.1 lineto
stroke
newpath
59877.9 31136.1 moveto
59877.9 32317.2 lineto
59765.5 32148.5 lineto
59653 32036 lineto
59540.5 31979.8 lineto
stroke
newpath
61227.8 32317.2 moveto
61002.8 32317.2 lineto
60890.3 32261 lineto
60834.1 32204.7 lineto
60721.6 32036 lineto
60665.3 31811 lineto
60665.3 31361.1 lineto
60721.6 31248.6 lineto
60777.8 31192.4 lineto
60890.3 31136.1 lineto
61115.3 31136.1 lineto
61227.8 31192.4 lineto
61284 31248.6 lineto
61340.3 31361.1 lineto
61340.3 31642.3 lineto
61284 31754.8 lineto
61227.8 31811 lineto
61115.3 31867.3 lineto
60890.3 31867.3 lineto
60777.8 31811 lineto
60721.6 31754.8 lineto
60665.3 31642.3 lineto
stroke
newpath
61790.2 32317.2 moveto
61790.2 32092.2 lineto
stroke
newpath
62240.1 32317.2 moveto
62240.1 32092.2 lineto
stroke
newpath
63983.7 30686.2 moveto
63927.4 30742.4 lineto
63814.9 30911.1 lineto
63758.7 31023.6 lineto
63702.5 31192.4 lineto
63646.2 31473.6 lineto
63646.2 31698.5 lineto
63702.5 31979.8 lineto
63758.7 32148.5 lineto
63814.9 32261 lineto
63927.4 32429.7 lineto
63983.7 32485.9 lineto
stroke
newpath
65052.3 31136.1 moveto
64377.4 31136.1 lineto
stroke
newpath
64714.8 31136.1 moveto
64714.8 32317.2 lineto
64602.3 32148.5 lineto
64489.9 32036 lineto
64377.4 31979.8 lineto
stroke
newpath
65502.2 32204.7 moveto
65558.5 32261 lineto
65671 32317.2 lineto
65952.2 32317.2 lineto
66064.7 32261 lineto
66120.9 32204.7 lineto
66177.2 32092.2 lineto
66177.2 31979.8 lineto
66120.9 31811 lineto
65446 31136.1 lineto
66177.2 31136.1 lineto
stroke
newpath
67583.2 31136.1 moveto
67583.2 32317.2 lineto
stroke
newpath
68089.4 31136.1 moveto
68089.4 31754.8 lineto
68033.2 31867.3 lineto
67920.7 31923.5 lineto
67752 31923.5 lineto
67639.5 31867.3 lineto
67583.2 31811 lineto
stroke
newpath
68820.6 31136.1 moveto
68708.1 31192.4 lineto
68651.8 31248.6 lineto
68595.6 31361.1 lineto
68595.6 31698.5 lineto
68651.8 31811 lineto
68708.1 31867.3 lineto
68820.6 31923.5 lineto
68989.3 31923.5 lineto
69101.8 31867.3 lineto
69158 31811 lineto
69214.3 31698.5 lineto
69214.3 31361.1 lineto
69158 31248.6 lineto
69101.8 31192.4 lineto
68989.3 31136.1 lineto
68820.6 31136.1 lineto
stroke
newpath
69889.2 31136.1 moveto
69776.7 31192.4 lineto
69720.5 31304.8 lineto
69720.5 32317.2 lineto
stroke
newpath
70789.1 31192.4 moveto
70676.6 31136.1 lineto
70451.6 31136.1 lineto
70339.1 31192.4 lineto
70282.9 31304.8 lineto
70282.9 31754.8 lineto
70339.1 31867.3 lineto
70451.6 31923.5 lineto
70676.6 31923.5 lineto
70789.1 31867.3 lineto
70845.3 31754.8 lineto
70845.3 31642.3 lineto
70282.9 31529.8 lineto
stroke
newpath
71295.3 31192.4 moveto
71407.7 31136.1 lineto
71632.7 31136.1 lineto
71745.2 31192.4 lineto
71801.4 31304.8 lineto
71801.4 31361.1 lineto
71745.2 31473.6 lineto
71632.7 31529.8 lineto
71464 31529.8 lineto
71351.5 31586.1 lineto
71295.3 31698.5 lineto
71295.3 31754.8 lineto
71351.5 31867.3 lineto
71464 31923.5 lineto
71632.7 31923.5 lineto
71745.2 31867.3 lineto
stroke
newpath
72195.1 30686.2 moveto
72251.4 30742.4 lineto
72363.9 30911.1 lineto
72420.1 31023.6 lineto
72476.4 31192.4 lineto
72532.6 31473.6 lineto
72532.6 31698.5 lineto
72476.4 31979.8 lineto
72420.1 32148.5 lineto
72363.9 32261 lineto
72251.4 32429.7 lineto
72195.1 32485.9 lineto
stroke
newpath
45409.2 30235.4 moveto
45409.2 29987.4 lineto
stroke
newpath
45285.2 30111.4 moveto
45533.2 30111.4 lineto
stroke
0 0 0 setrgbcolor
0 0 0 setrgbcolor
newpath
46885.8 30758.2 moveto
46998.3 30758.2 lineto
47110.8 30701.9 lineto
47167 30645.7 lineto
47223.3 30533.2 lineto
47279.5 30308.2 lineto
47279.5 30027 lineto
47223.3 29802 lineto
47167 29689.5 lineto
47110.8 29633.3 lineto
46998.3 29577.1 lineto
46885.8 29577.1 lineto
46773.3 29633.3 lineto
46717.1 29689.5 lineto
46660.8 29802 lineto
46604.6 30027 lineto
46604.6 30308.2 lineto
46660.8 30533.2 lineto
46717.1 30645.7 lineto
46773.3 30701.9 lineto
46885.8 30758.2 lineto
stroke
newpath
47785.7 29689.5 moveto
47841.9 29633.3 lineto
47785.7 29577.1 lineto
47729.5 29633.3 lineto
47785.7 29689.5 lineto
47785.7 29577.1 lineto
stroke
newpath
48910.6 30758.2 moveto
48348.1 30758.2 lineto
48291.9 30195.7 lineto
48348.1 30252 lineto
48460.6 30308.2 lineto
48741.8 30308.2 lineto
48854.3 30252 lineto
48910.6 30195.7 lineto
48966.8 30083.2 lineto
48966.8 29802 lineto
48910.6 29689.5 lineto
48854.3 29633.3 lineto
48741.8 29577.1 lineto
48460.6 29577.1 lineto
48348.1 29633.3 lineto
48291.9 29689.5 lineto
stroke
newpath
49698 30758.2 moveto
49810.4 30758.2 lineto
49922.9 30701.9 lineto
49979.2 30645.7 lineto
50035.4 30533.2 lineto
50091.7 30308.2 lineto
50091.7 30027 lineto
50035.4 29802 lineto
49979.2 29689.5 lineto
49922.9 29633.3 lineto
49810.4 29577.1 lineto
49698 29577.1 lineto
49585.5 29633.3 lineto
49529.2 29689.5 lineto
49473 29802 lineto
49416.7 30027 lineto
49416.7 30308.2 lineto
49473 30533.2 lineto
49529.2 30645.7 lineto
49585.5 30701.9 lineto
49698 30758.2 lineto
stroke
newpath
50597.8 29577.1 moveto
50597.8 30364.5 lineto
stroke
newpath
50597.8 30252 moveto
50654.1 30308.2 lineto
50766.6 30364.5 lineto
50935.3 30364.5 lineto
51047.8 30308.2 lineto
51104 30195.7 lineto
51104 29577.1 lineto
stroke
newpath
51104 30195.7 moveto
51160.3 30308.2 lineto
51272.8 30364.5 lineto
51441.5 30364.5 lineto
51554 30308.2 lineto
51610.2 30195.7 lineto
51610.2 29577.1 lineto
stroke
newpath
52172.7 29577.1 moveto
52172.7 30364.5 lineto
stroke
newpath
52172.7 30252 moveto
52228.9 30308.2 lineto
52341.4 30364.5 lineto
52510.1 30364.5 lineto
52622.6 30308.2 lineto
52678.8 30195.7 lineto
52678.8 29577.1 lineto
stroke
newpath
52678.8 30195.7 moveto
52735.1 30308.2 lineto
52847.6 30364.5 lineto
53016.3 30364.5 lineto
53128.8 30308.2 lineto
53185 30195.7 lineto
53185 29577.1 lineto
stroke
newpath
55491 30814.4 moveto
54478.6 29295.8 lineto
stroke
newpath
57009.5 30758.2 moveto
57122 30758.2 lineto
57234.5 30701.9 lineto
57290.8 30645.7 lineto
57347 30533.2 lineto
57403.2 30308.2 lineto
57403.2 30027 lineto
57347 29802 lineto
57290.8 29689.5 lineto
57234.5 29633.3 lineto
57122 29577.1 lineto
57009.5 29577.1 lineto
56897.1 29633.3 lineto
56840.8 29689.5 lineto
56784.6 29802 lineto
56728.3 30027 lineto
56728.3 30308.2 lineto
56784.6 30533.2 lineto
56840.8 30645.7 lineto
56897.1 30701.9 lineto
57009.5 30758.2 lineto
stroke
newpath
57909.4 29689.5 moveto
57965.7 29633.3 lineto
57909.4 29577.1 lineto
57853.2 29633.3 lineto
57909.4 29689.5 lineto
57909.4 29577.1 lineto
stroke
newpath
58696.8 30758.2 moveto
58809.3 30758.2 lineto
58921.8 30701.9 lineto
58978.1 30645.7 lineto
59034.3 30533.2 lineto
59090.5 30308.2 lineto
59090.5 30027 lineto
59034.3 29802 lineto
58978.1 29689.5 lineto
58921.8 29633.3 lineto
58809.3 29577.1 lineto
58696.8 29577.1 lineto
58584.4 29633.3 lineto
58528.1 29689.5 lineto
58471.9 29802 lineto
58415.6 30027 lineto
58415.6 30308.2 lineto
58471.9 30533.2 lineto
58528.1 30645.7 lineto
58584.4 30701.9 lineto
58696.8 30758.2 lineto
stroke
newpath
59540.5 30645.7 moveto
59596.7 30701.9 lineto
59709.2 30758.2 lineto
59990.4 30758.2 lineto
60102.9 30701.9 lineto
60159.2 30645.7 lineto
60215.4 30533.2 lineto
60215.4 30420.7 lineto
60159.2 30252 lineto
59484.2 29577.1 lineto
60215.4 29577.1 lineto
stroke
newpath
60946.6 30758.2 moveto
61059 30758.2 lineto
61171.5 30701.9 lineto
61227.8 30645.7 lineto
61284 30533.2 lineto
61340.3 30308.2 lineto
61340.3 30027 lineto
61284 29802 lineto
61227.8 29689.5 lineto
61171.5 29633.3 lineto
61059 29577.1 lineto
60946.6 29577.1 lineto
60834.1 29633.3 lineto
60777.8 29689.5 lineto
60721.6 29802 lineto
60665.3 30027 lineto
60665.3 30308.2 lineto
60721.6 30533.2 lineto
60777.8 30645.7 lineto
60834.1 30701.9 lineto
60946.6 30758.2 lineto
stroke
newpath
61790.2 30758.2 moveto
61790.2 30533.2 lineto
stroke
newpath
62240.1 30758.2 moveto
62240.1 30533.2 lineto
stroke
newpath
63983.7 29127.1 moveto
63927.4 29183.4 lineto
63814.9 29352.1 lineto
63758.7 29464.6 lineto
63702.5 29633.3 lineto
63646.2 29914.5 lineto
63646.2 30139.5 lineto
63702.5 30420.7 lineto
63758.7 30589.4 lineto
63814.9 30701.9 lineto
63927.4 30870.6 lineto
63983.7 30926.9 lineto
stroke
newpath
64939.8 30364.5 moveto
64939.8 29577.1 lineto
stroke
newpath
64658.6 30814.4 moveto
64377.4 29970.8 lineto
65108.5 29970.8 lineto
stroke
newpath
65783.5 30758.2 moveto
65895.9 30758.2 lineto
66008.4 30701.9 lineto
66064.7 30645.7 lineto
66120.9 30533.2 lineto
66177.2 30308.2 lineto
66177.2 30027 lineto
66120.9 29802 lineto
66064.7 29689.5 lineto
66008.4 29633.3 lineto
65895.9 29577.1 lineto
65783.5 29577.1 lineto
65671 29633.3 lineto
65614.7 29689.5 lineto
65558.5 29802 lineto
65502.2 30027 lineto
65502.2 30308.2 lineto
65558.5 30533.2 lineto
65614.7 30645.7 lineto
65671 30701.9 lineto
65783.5 30758.2 lineto
stroke
newpath
67583.2 29577.1 moveto
67583.2 30758.2 lineto
stroke
newpath
68089.4 29577.1 moveto
68089.4 30195.7 lineto
68033.2 30308.2 lineto
67920.7 30364.5 lineto
67752 30364.5 lineto
67639.5 30308.2 lineto
67583.2 30252 lineto
stroke
newpath
68820.6 29577.1 moveto
68708.1 29633.3 lineto
68651.8 29689.5 lineto
68595.6 29802 lineto
68595.6 30139.5 lineto
68651.8 30252 lineto
68708.1 30308.2 lineto
68820.6 30364.5 lineto
68989.3 30364.5 lineto
69101.8 30308.2 lineto
69158 30252 lineto
69214.3 30139.5 lineto
69214.3 29802 lineto
69158 29689.5 lineto
69101.8 29633.3 lineto
68989.3 29577.1 lineto
68820.6 29577.1 lineto
stroke
newpath
69889.2 29577.1 moveto
69776.7 29633.3 lineto
69720.5 29745.8 lineto
69720.5 30758.2 lineto
stroke
newpath
70789.1 29633.3 moveto
70676.6 29577.1 lineto
70451.6 29577.1 lineto
70339.1 29633.3 lineto
70282.9 29745.8 lineto
70282.9 30195.7 lineto
70339.1 30308.2 lineto
70451.6 30364.5 lineto
70676.6 30364.5 lineto
70789.1 30308.2 lineto
70845.3 30195.7 lineto
70845.3 30083.2 lineto
70282.9 29970.8 lineto
stroke
newpath
71295.3 29633.3 moveto
71407.7 29577.1 lineto
71632.7 29577.1 lineto
71745.2 29633.3 lineto
71801.4 29745.8 lineto
71801.4 29802 lineto
71745.2 29914.5 lineto
71632.7 29970.8 lineto
71464 29970.8 lineto
71351.5 30027 lineto
71295.3 30139.5 lineto
71295.3 30195.7 lineto
71351.5 30308.2 lineto
71464 30364.5 lineto
71632.7 30364.5 lineto
71745.2 30308.2 lineto
stroke
newpath
72195.1 29127.1 moveto
72251.4 29183.4 lineto
72363.9 29352.1 lineto
72420.1 29464.6 lineto
72476.4 29633.3 lineto
72532.6 29914.5 lineto
72532.6 30139.5 lineto
72476.4 30420.7 lineto
72420.1 30589.4 lineto
72363.9 30701.9 lineto
72251.4 30870.6 lineto
72195.1 30926.9 lineto
stroke
newpath
45475.1 28412 moveto
45475.1 28692.6 lineto
45194.5 28692.6 lineto
45194.5 28412 lineto
45475.1 28412 lineto
poly0
0 0 0 setrgbcolor
0 0 0 setrgbcolor
newpath
46885.8 29199.1 moveto
46998.3 29199.1 lineto
47110.8 29142.9 lineto
47167 29086.6 lineto
47223.3 28974.1 lineto
47279.5 28749.2 lineto
47279.5 28468 lineto
47223.3 28243 lineto
47167 28130.5 lineto
47110.8 28074.2 lineto
46998.3 28018 lineto
46885.8 28018 lineto
46773.3 28074.2 lineto
46717.1 28130.5 lineto
46660.8 28243 lineto
46604.6 28468 lineto
46604.6 28749.2 lineto
46660.8 28974.1 lineto
46717.1 29086.6 lineto
46773.3 29142.9 lineto
46885.8 29199.1 lineto
stroke
newpath
47785.7 28130.5 moveto
47841.9 28074.2 lineto
47785.7 28018 lineto
47729.5 28074.2 lineto
47785.7 28130.5 lineto
47785.7 28018 lineto
stroke
newpath
48516.9 28692.9 moveto
48404.4 28749.2 lineto
48348.1 28805.4 lineto
48291.9 28917.9 lineto
48291.9 28974.1 lineto
48348.1 29086.6 lineto
48404.4 29142.9 lineto
48516.9 29199.1 lineto
48741.8 29199.1 lineto
48854.3 29142.9 lineto
48910.6 29086.6 lineto
48966.8 28974.1 lineto
48966.8 28917.9 lineto
48910.6 28805.4 lineto
48854.3 28749.2 lineto
48741.8 28692.9 lineto
48516.9 28692.9 lineto
48404.4 28636.7 lineto
48348.1 28580.4 lineto
48291.9 28468 lineto
48291.9 28243 lineto
48348.1 28130.5 lineto
48404.4 28074.2 lineto
48516.9 28018 lineto
48741.8 28018 lineto
48854.3 28074.2 lineto
48910.6 28130.5 lineto
48966.8 28243 lineto
48966.8 28468 lineto
48910.6 28580.4 lineto
48854.3 28636.7 lineto
48741.8 28692.9 lineto
stroke
newpath
49698 29199.1 moveto
49810.4 29199.1 lineto
49922.9 29142.9 lineto
49979.2 29086.6 lineto
50035.4 28974.1 lineto
50091.7 28749.2 lineto
50091.7 28468 lineto
50035.4 28243 lineto
49979.2 28130.5 lineto
49922.9 28074.2 lineto
49810.4 28018 lineto
49698 28018 lineto
49585.5 28074.2 lineto
49529.2 28130.5 lineto
49473 28243 lineto
49416.7 28468 lineto
49416.7 28749.2 lineto
49473 28974.1 lineto
49529.2 29086.6 lineto
49585.5 29142.9 lineto
49698 29199.1 lineto
stroke
newpath
50597.8 28018 moveto
50597.8 28805.4 lineto
stroke
newpath
50597.8 28692.9 moveto
50654.1 28749.2 lineto
50766.6 28805.4 lineto
50935.3 28805.4 lineto
51047.8 28749.2 lineto
51104 28636.7 lineto
51104 28018 lineto
stroke
newpath
51104 28636.7 moveto
51160.3 28749.2 lineto
51272.8 28805.4 lineto
51441.5 28805.4 lineto
51554 28749.2 lineto
51610.2 28636.7 lineto
51610.2 28018 lineto
stroke
newpath
52172.7 28018 moveto
52172.7 28805.4 lineto
stroke
newpath
52172.7 28692.9 moveto
52228.9 28749.2 lineto
52341.4 28805.4 lineto
52510.1 28805.4 lineto
52622.6 28749.2 lineto
52678.8 28636.7 lineto
52678.8 28018 lineto
stroke
newpath
52678.8 28636.7 moveto
52735.1 28749.2 lineto
52847.6 28805.4 lineto
53016.3 28805.4 lineto
53128.8 28749.2 lineto
53185 28636.7 lineto
53185 28018 lineto
stroke
newpath
55491 29255.4 moveto
54478.6 27736.8 lineto
stroke
newpath
57009.5 29199.1 moveto
57122 29199.1 lineto
57234.5 29142.9 lineto
57290.8 29086.6 lineto
57347 28974.1 lineto
57403.2 28749.2 lineto
57403.2 28468 lineto
57347 28243 lineto
57290.8 28130.5 lineto
57234.5 28074.2 lineto
57122 28018 lineto
57009.5 28018 lineto
56897.1 28074.2 lineto
56840.8 28130.5 lineto
56784.6 28243 lineto
56728.3 28468 lineto
56728.3 28749.2 lineto
56784.6 28974.1 lineto
56840.8 29086.6 lineto
56897.1 29142.9 lineto
57009.5 29199.1 lineto
stroke
newpath
57909.4 28130.5 moveto
57965.7 28074.2 lineto
57909.4 28018 lineto
57853.2 28074.2 lineto
57909.4 28130.5 lineto
57909.4 28018 lineto
stroke
newpath
58696.8 29199.1 moveto
58809.3 29199.1 lineto
58921.8 29142.9 lineto
58978.1 29086.6 lineto
59034.3 28974.1 lineto
59090.5 28749.2 lineto
59090.5 28468 lineto
59034.3 28243 lineto
58978.1 28130.5 lineto
58921.8 28074.2 lineto
58809.3 28018 lineto
58696.8 28018 lineto
58584.4 28074.2 lineto
58528.1 28130.5 lineto
58471.9 28243 lineto
58415.6 28468 lineto
58415.6 28749.2 lineto
58471.9 28974.1 lineto
58528.1 29086.6 lineto
58584.4 29142.9 lineto
58696.8 29199.1 lineto
stroke
newpath
59484.2 29199.1 moveto
60215.4 29199.1 lineto
59821.7 28749.2 lineto
59990.4 28749.2 lineto
60102.9 28692.9 lineto
60159.2 28636.7 lineto
60215.4 28524.2 lineto
60215.4 28243 lineto
60159.2 28130.5 lineto
60102.9 28074.2 lineto
59990.4 28018 lineto
59653 28018 lineto
59540.5 28074.2 lineto
59484.2 28130.5 lineto
stroke
newpath
61340.3 28018 moveto
60665.3 28018 lineto
stroke
newpath
61002.8 28018 moveto
61002.8 29199.1 lineto
60890.3 29030.4 lineto
60777.8 28917.9 lineto
60665.3 28861.7 lineto
stroke
newpath
61790.2 29199.1 moveto
61790.2 28974.1 lineto
stroke
newpath
62240.1 29199.1 moveto
62240.1 28974.1 lineto
stroke
newpath
63983.7 27568.1 moveto
63927.4 27624.3 lineto
63814.9 27793 lineto
63758.7 27905.5 lineto
63702.5 28074.2 lineto
63646.2 28355.5 lineto
63646.2 28580.4 lineto
63702.5 28861.7 lineto
63758.7 29030.4 lineto
63814.9 29142.9 lineto
63927.4 29311.6 lineto
63983.7 29367.8 lineto
stroke
newpath
64939.8 28805.4 moveto
64939.8 28018 lineto
stroke
newpath
64658.6 29255.4 moveto
64377.4 28411.7 lineto
65108.5 28411.7 lineto
stroke
newpath
66458.4 28018 moveto
66458.4 29199.1 lineto
stroke
newpath
66964.6 28018 moveto
66964.6 28636.7 lineto
66908.3 28749.2 lineto
66795.8 28805.4 lineto
66627.1 28805.4 lineto
66514.6 28749.2 lineto
66458.4 28692.9 lineto
stroke
newpath
67695.7 28018 moveto
67583.2 28074.2 lineto
67527 28130.5 lineto
67470.7 28243 lineto
67470.7 28580.4 lineto
67527 28692.9 lineto
67583.2 28749.2 lineto
67695.7 28805.4 lineto
67864.4 28805.4 lineto
67976.9 28749.2 lineto
68033.2 28692.9 lineto
68089.4 28580.4 lineto
68089.4 28243 lineto
68033.2 28130.5 lineto
67976.9 28074.2 lineto
67864.4 28018 lineto
67695.7 28018 lineto
stroke
newpath
68764.3 28018 moveto
68651.8 28074.2 lineto
68595.6 28186.7 lineto
68595.6 29199.1 lineto
stroke
newpath
69664.2 28074.2 moveto
69551.7 28018 lineto
69326.8 28018 lineto
69214.3 28074.2 lineto
69158 28186.7 lineto
69158 28636.7 lineto
69214.3 28749.2 lineto
69326.8 28805.4 lineto
69551.7 28805.4 lineto
69664.2 28749.2 lineto
69720.5 28636.7 lineto
69720.5 28524.2 lineto
69158 28411.7 lineto
stroke
newpath
70170.4 28074.2 moveto
70282.9 28018 lineto
70507.9 28018 lineto
70620.3 28074.2 lineto
70676.6 28186.7 lineto
70676.6 28243 lineto
70620.3 28355.5 lineto
70507.9 28411.7 lineto
70339.1 28411.7 lineto
70226.6 28468 lineto
70170.4 28580.4 lineto
70170.4 28636.7 lineto
70226.6 28749.2 lineto
70339.1 28805.4 lineto
70507.9 28805.4 lineto
70620.3 28749.2 lineto
stroke
newpath
71070.3 27568.1 moveto
71126.5 27624.3 lineto
71239 27793 lineto
71295.3 27905.5 lineto
71351.5 28074.2 lineto
71407.7 28355.5 lineto
71407.7 28580.4 lineto
71351.5 28861.7 lineto
71295.3 29030.4 lineto
71239 29142.9 lineto
71126.5 29311.6 lineto
71070.3 29367.8 lineto
stroke
newpath
45310 26770.1 moveto
45533.2 26993.3 lineto
45310 27216.4 lineto
45086.8 26993.3 lineto
45310 26770.1 lineto
poly0
0 0 0 setrgbcolor
0 0 0 setrgbcolor
newpath
46885.8 27640.1 moveto
46998.3 27640.1 lineto
47110.8 27583.8 lineto
47167 27527.6 lineto
47223.3 27415.1 lineto
47279.5 27190.1 lineto
47279.5 26908.9 lineto
47223.3 26683.9 lineto
47167 26571.4 lineto
47110.8 26515.2 lineto
46998.3 26459 lineto
46885.8 26459 lineto
46773.3 26515.2 lineto
46717.1 26571.4 lineto
46660.8 26683.9 lineto
46604.6 26908.9 lineto
46604.6 27190.1 lineto
46660.8 27415.1 lineto
46717.1 27527.6 lineto
46773.3 27583.8 lineto
46885.8 27640.1 lineto
stroke
newpath
47785.7 26571.4 moveto
47841.9 26515.2 lineto
47785.7 26459 lineto
47729.5 26515.2 lineto
47785.7 26571.4 lineto
47785.7 26459 lineto
stroke
newpath
48404.4 26459 moveto
48629.3 26459 lineto
48741.8 26515.2 lineto
48798.1 26571.4 lineto
48910.6 26740.2 lineto
48966.8 26965.1 lineto
48966.8 27415.1 lineto
48910.6 27527.6 lineto
48854.3 27583.8 lineto
48741.8 27640.1 lineto
48516.9 27640.1 lineto
48404.4 27583.8 lineto
48348.1 27527.6 lineto
48291.9 27415.1 lineto
48291.9 27133.9 lineto
48348.1 27021.4 lineto
48404.4 26965.1 lineto
48516.9 26908.9 lineto
48741.8 26908.9 lineto
48854.3 26965.1 lineto
48910.6 27021.4 lineto
48966.8 27133.9 lineto
stroke
newpath
49698 27640.1 moveto
49810.4 27640.1 lineto
49922.9 27583.8 lineto
49979.2 27527.6 lineto
50035.4 27415.1 lineto
50091.7 27190.1 lineto
50091.7 26908.9 lineto
50035.4 26683.9 lineto
49979.2 26571.4 lineto
49922.9 26515.2 lineto
49810.4 26459 lineto
49698 26459 lineto
49585.5 26515.2 lineto
49529.2 26571.4 lineto
49473 26683.9 lineto
49416.7 26908.9 lineto
49416.7 27190.1 lineto
49473 27415.1 lineto
49529.2 27527.6 lineto
49585.5 27583.8 lineto
49698 27640.1 lineto
stroke
newpath
50597.8 26459 moveto
50597.8 27246.4 lineto
stroke
newpath
50597.8 27133.9 moveto
50654.1 27190.1 lineto
50766.6 27246.4 lineto
50935.3 27246.4 lineto
51047.8 27190.1 lineto
51104 27077.6 lineto
51104 26459 lineto
stroke
newpath
51104 27077.6 moveto
51160.3 27190.1 lineto
51272.8 27246.4 lineto
51441.5 27246.4 lineto
51554 27190.1 lineto
51610.2 27077.6 lineto
51610.2 26459 lineto
stroke
newpath
52172.7 26459 moveto
52172.7 27246.4 lineto
stroke
newpath
52172.7 27133.9 moveto
52228.9 27190.1 lineto
52341.4 27246.4 lineto
52510.1 27246.4 lineto
52622.6 27190.1 lineto
52678.8 27077.6 lineto
52678.8 26459 lineto
stroke
newpath
52678.8 27077.6 moveto
52735.1 27190.1 lineto
52847.6 27246.4 lineto
53016.3 27246.4 lineto
53128.8 27190.1 lineto
53185 27077.6 lineto
53185 26459 lineto
stroke
newpath
55491 27696.3 moveto
54478.6 26177.7 lineto
stroke
newpath
57009.5 27640.1 moveto
57122 27640.1 lineto
57234.5 27583.8 lineto
57290.8 27527.6 lineto
57347 27415.1 lineto
57403.2 27190.1 lineto
57403.2 26908.9 lineto
57347 26683.9 lineto
57290.8 26571.4 lineto
57234.5 26515.2 lineto
57122 26459 lineto
57009.5 26459 lineto
56897.1 26515.2 lineto
56840.8 26571.4 lineto
56784.6 26683.9 lineto
56728.3 26908.9 lineto
56728.3 27190.1 lineto
56784.6 27415.1 lineto
56840.8 27527.6 lineto
56897.1 27583.8 lineto
57009.5 27640.1 lineto
stroke
newpath
57909.4 26571.4 moveto
57965.7 26515.2 lineto
57909.4 26459 lineto
57853.2 26515.2 lineto
57909.4 26571.4 lineto
57909.4 26459 lineto
stroke
newpath
58696.8 27640.1 moveto
58809.3 27640.1 lineto
58921.8 27583.8 lineto
58978.1 27527.6 lineto
59034.3 27415.1 lineto
59090.5 27190.1 lineto
59090.5 26908.9 lineto
59034.3 26683.9 lineto
58978.1 26571.4 lineto
58921.8 26515.2 lineto
58809.3 26459 lineto
58696.8 26459 lineto
58584.4 26515.2 lineto
58528.1 26571.4 lineto
58471.9 26683.9 lineto
58415.6 26908.9 lineto
58415.6 27190.1 lineto
58471.9 27415.1 lineto
58528.1 27527.6 lineto
58584.4 27583.8 lineto
58696.8 27640.1 lineto
stroke
newpath
59484.2 27640.1 moveto
60215.4 27640.1 lineto
59821.7 27190.1 lineto
59990.4 27190.1 lineto
60102.9 27133.9 lineto
60159.2 27077.6 lineto
60215.4 26965.1 lineto
60215.4 26683.9 lineto
60159.2 26571.4 lineto
60102.9 26515.2 lineto
59990.4 26459 lineto
59653 26459 lineto
59540.5 26515.2 lineto
59484.2 26571.4 lineto
stroke
newpath
61284 27640.1 moveto
60721.6 27640.1 lineto
60665.3 27077.6 lineto
60721.6 27133.9 lineto
60834.1 27190.1 lineto
61115.3 27190.1 lineto
61227.8 27133.9 lineto
61284 27077.6 lineto
61340.3 26965.1 lineto
61340.3 26683.9 lineto
61284 26571.4 lineto
61227.8 26515.2 lineto
61115.3 26459 lineto
60834.1 26459 lineto
60721.6 26515.2 lineto
60665.3 26571.4 lineto
stroke
newpath
61790.2 27640.1 moveto
61790.2 27415.1 lineto
stroke
newpath
62240.1 27640.1 moveto
62240.1 27415.1 lineto
stroke
newpath
63983.7 26009 moveto
63927.4 26065.2 lineto
63814.9 26234 lineto
63758.7 26346.5 lineto
63702.5 26515.2 lineto
63646.2 26796.4 lineto
63646.2 27021.4 lineto
63702.5 27302.6 lineto
63758.7 27471.3 lineto
63814.9 27583.8 lineto
63927.4 27752.5 lineto
63983.7 27808.8 lineto
stroke
newpath
65052.3 26459 moveto
64377.4 26459 lineto
stroke
newpath
64714.8 26459 moveto
64714.8 27640.1 lineto
64602.3 27471.3 lineto
64489.9 27358.8 lineto
64377.4 27302.6 lineto
stroke
newpath
66402.1 26515.2 moveto
66514.6 26459 lineto
66739.6 26459 lineto
66852.1 26515.2 lineto
66908.3 26627.7 lineto
66908.3 26683.9 lineto
66852.1 26796.4 lineto
66739.6 26852.7 lineto
66570.9 26852.7 lineto
66458.4 26908.9 lineto
66402.1 27021.4 lineto
66402.1 27077.6 lineto
66458.4 27190.1 lineto
66570.9 27246.4 lineto
66739.6 27246.4 lineto
66852.1 27190.1 lineto
stroke
newpath
67583.2 26459 moveto
67470.7 26515.2 lineto
67414.5 26627.7 lineto
67414.5 27640.1 lineto
stroke
newpath
68201.9 26459 moveto
68089.4 26515.2 lineto
68033.2 26571.4 lineto
67976.9 26683.9 lineto
67976.9 27021.4 lineto
68033.2 27133.9 lineto
68089.4 27190.1 lineto
68201.9 27246.4 lineto
68370.6 27246.4 lineto
68483.1 27190.1 lineto
68539.4 27133.9 lineto
68595.6 27021.4 lineto
68595.6 26683.9 lineto
68539.4 26571.4 lineto
68483.1 26515.2 lineto
68370.6 26459 lineto
68201.9 26459 lineto
stroke
newpath
68933.1 27246.4 moveto
69383 27246.4 lineto
stroke
newpath
69101.8 27640.1 moveto
69101.8 26627.7 lineto
69158 26515.2 lineto
69270.5 26459 lineto
69383 26459 lineto
stroke
newpath
69664.2 26009 moveto
69720.5 26065.2 lineto
69832.9 26234 lineto
69889.2 26346.5 lineto
69945.4 26515.2 lineto
70001.7 26796.4 lineto
70001.7 27021.4 lineto
69945.4 27302.6 lineto
69889.2 27471.3 lineto
69832.9 27583.8 lineto
69720.5 27752.5 lineto
69664.2 27808.8 lineto
stroke
newpath
45037.2 25682.2 moveto
45533.2 25186.2 lineto
stroke
newpath
45533.2 25682.2 moveto
45037.2 25186.2 lineto
stroke
45285.2 25434.2 247.974 cir0
0 0 0 setrgbcolor
0 0 0 setrgbcolor
newpath
47279.5 24899.9 moveto
46604.6 24899.9 lineto
stroke
newpath
46942.1 24899.9 moveto
46942.1 26081 lineto
46829.6 25912.3 lineto
46717.1 25799.8 lineto
46604.6 25743.5 lineto
stroke
newpath
47785.7 25012.4 moveto
47841.9 24956.1 lineto
47785.7 24899.9 lineto
47729.5 24956.1 lineto
47785.7 25012.4 lineto
47785.7 24899.9 lineto
stroke
newpath
48573.1 26081 moveto
48685.6 26081 lineto
48798.1 26024.8 lineto
48854.3 25968.5 lineto
48910.6 25856 lineto
48966.8 25631.1 lineto
48966.8 25349.8 lineto
48910.6 25124.9 lineto
48854.3 25012.4 lineto
48798.1 24956.1 lineto
48685.6 24899.9 lineto
48573.1 24899.9 lineto
48460.6 24956.1 lineto
48404.4 25012.4 lineto
48348.1 25124.9 lineto
48291.9 25349.8 lineto
48291.9 25631.1 lineto
48348.1 25856 lineto
48404.4 25968.5 lineto
48460.6 26024.8 lineto
48573.1 26081 lineto
stroke
newpath
49698 26081 moveto
49810.4 26081 lineto
49922.9 26024.8 lineto
49979.2 25968.5 lineto
50035.4 25856 lineto
50091.7 25631.1 lineto
50091.7 25349.8 lineto
50035.4 25124.9 lineto
49979.2 25012.4 lineto
49922.9 24956.1 lineto
49810.4 24899.9 lineto
49698 24899.9 lineto
49585.5 24956.1 lineto
49529.2 25012.4 lineto
49473 25124.9 lineto
49416.7 25349.8 lineto
49416.7 25631.1 lineto
49473 25856 lineto
49529.2 25968.5 lineto
49585.5 26024.8 lineto
49698 26081 lineto
stroke
newpath
50597.8 24899.9 moveto
50597.8 25687.3 lineto
stroke
newpath
50597.8 25574.8 moveto
50654.1 25631.1 lineto
50766.6 25687.3 lineto
50935.3 25687.3 lineto
51047.8 25631.1 lineto
51104 25518.6 lineto
51104 24899.9 lineto
stroke
newpath
51104 25518.6 moveto
51160.3 25631.1 lineto
51272.8 25687.3 lineto
51441.5 25687.3 lineto
51554 25631.1 lineto
51610.2 25518.6 lineto
51610.2 24899.9 lineto
stroke
newpath
52172.7 24899.9 moveto
52172.7 25687.3 lineto
stroke
newpath
52172.7 25574.8 moveto
52228.9 25631.1 lineto
52341.4 25687.3 lineto
52510.1 25687.3 lineto
52622.6 25631.1 lineto
52678.8 25518.6 lineto
52678.8 24899.9 lineto
stroke
newpath
52678.8 25518.6 moveto
52735.1 25631.1 lineto
52847.6 25687.3 lineto
53016.3 25687.3 lineto
53128.8 25631.1 lineto
53185 25518.6 lineto
53185 24899.9 lineto
stroke
newpath
55491 26137.2 moveto
54478.6 24618.7 lineto
stroke
newpath
57009.5 26081 moveto
57122 26081 lineto
57234.5 26024.8 lineto
57290.8 25968.5 lineto
57347 25856 lineto
57403.2 25631.1 lineto
57403.2 25349.8 lineto
57347 25124.9 lineto
57290.8 25012.4 lineto
57234.5 24956.1 lineto
57122 24899.9 lineto
57009.5 24899.9 lineto
56897.1 24956.1 lineto
56840.8 25012.4 lineto
56784.6 25124.9 lineto
56728.3 25349.8 lineto
56728.3 25631.1 lineto
56784.6 25856 lineto
56840.8 25968.5 lineto
56897.1 26024.8 lineto
57009.5 26081 lineto
stroke
newpath
57909.4 25012.4 moveto
57965.7 24956.1 lineto
57909.4 24899.9 lineto
57853.2 24956.1 lineto
57909.4 25012.4 lineto
57909.4 24899.9 lineto
stroke
newpath
58696.8 26081 moveto
58809.3 26081 lineto
58921.8 26024.8 lineto
58978.1 25968.5 lineto
59034.3 25856 lineto
59090.5 25631.1 lineto
59090.5 25349.8 lineto
59034.3 25124.9 lineto
58978.1 25012.4 lineto
58921.8 24956.1 lineto
58809.3 24899.9 lineto
58696.8 24899.9 lineto
58584.4 24956.1 lineto
58528.1 25012.4 lineto
58471.9 25124.9 lineto
58415.6 25349.8 lineto
58415.6 25631.1 lineto
58471.9 25856 lineto
58528.1 25968.5 lineto
58584.4 26024.8 lineto
58696.8 26081 lineto
stroke
newpath
59484.2 26081 moveto
60215.4 26081 lineto
59821.7 25631.1 lineto
59990.4 25631.1 lineto
60102.9 25574.8 lineto
60159.2 25518.6 lineto
60215.4 25406.1 lineto
60215.4 25124.9 lineto
60159.2 25012.4 lineto
60102.9 24956.1 lineto
59990.4 24899.9 lineto
59653 24899.9 lineto
59540.5 24956.1 lineto
59484.2 25012.4 lineto
stroke
newpath
60777.8 24899.9 moveto
61002.8 24899.9 lineto
61115.3 24956.1 lineto
61171.5 25012.4 lineto
61284 25181.1 lineto
61340.3 25406.1 lineto
61340.3 25856 lineto
61284 25968.5 lineto
61227.8 26024.8 lineto
61115.3 26081 lineto
60890.3 26081 lineto
60777.8 26024.8 lineto
60721.6 25968.5 lineto
60665.3 25856 lineto
60665.3 25574.8 lineto
60721.6 25462.3 lineto
60777.8 25406.1 lineto
60890.3 25349.8 lineto
61115.3 25349.8 lineto
61227.8 25406.1 lineto
61284 25462.3 lineto
61340.3 25574.8 lineto
stroke
newpath
61790.2 26081 moveto
61790.2 25856 lineto
stroke
newpath
62240.1 26081 moveto
62240.1 25856 lineto
stroke
newpath
63983.7 24450 moveto
63927.4 24506.2 lineto
63814.9 24674.9 lineto
63758.7 24787.4 lineto
63702.5 24956.1 lineto
63646.2 25237.4 lineto
63646.2 25462.3 lineto
63702.5 25743.5 lineto
63758.7 25912.3 lineto
63814.9 26024.8 lineto
63927.4 26193.5 lineto
63983.7 26249.7 lineto
stroke
newpath
65052.3 24899.9 moveto
64377.4 24899.9 lineto
stroke
newpath
64714.8 24899.9 moveto
64714.8 26081 lineto
64602.3 25912.3 lineto
64489.9 25799.8 lineto
64377.4 25743.5 lineto
stroke
newpath
65783.5 26081 moveto
65895.9 26081 lineto
66008.4 26024.8 lineto
66064.7 25968.5 lineto
66120.9 25856 lineto
66177.2 25631.1 lineto
66177.2 25349.8 lineto
66120.9 25124.9 lineto
66064.7 25012.4 lineto
66008.4 24956.1 lineto
65895.9 24899.9 lineto
65783.5 24899.9 lineto
65671 24956.1 lineto
65614.7 25012.4 lineto
65558.5 25124.9 lineto
65502.2 25349.8 lineto
65502.2 25631.1 lineto
65558.5 25856 lineto
65614.7 25968.5 lineto
65671 26024.8 lineto
65783.5 26081 lineto
stroke
newpath
67583.2 24899.9 moveto
67583.2 26081 lineto
stroke
newpath
68089.4 24899.9 moveto
68089.4 25518.6 lineto
68033.2 25631.1 lineto
67920.7 25687.3 lineto
67752 25687.3 lineto
67639.5 25631.1 lineto
67583.2 25574.8 lineto
stroke
newpath
68820.6 24899.9 moveto
68708.1 24956.1 lineto
68651.8 25012.4 lineto
68595.6 25124.9 lineto
68595.6 25462.3 lineto
68651.8 25574.8 lineto
68708.1 25631.1 lineto
68820.6 25687.3 lineto
68989.3 25687.3 lineto
69101.8 25631.1 lineto
69158 25574.8 lineto
69214.3 25462.3 lineto
69214.3 25124.9 lineto
69158 25012.4 lineto
69101.8 24956.1 lineto
68989.3 24899.9 lineto
68820.6 24899.9 lineto
stroke
newpath
69889.2 24899.9 moveto
69776.7 24956.1 lineto
69720.5 25068.6 lineto
69720.5 26081 lineto
stroke
newpath
70789.1 24956.1 moveto
70676.6 24899.9 lineto
70451.6 24899.9 lineto
70339.1 24956.1 lineto
70282.9 25068.6 lineto
70282.9 25518.6 lineto
70339.1 25631.1 lineto
70451.6 25687.3 lineto
70676.6 25687.3 lineto
70789.1 25631.1 lineto
70845.3 25518.6 lineto
70845.3 25406.1 lineto
70282.9 25293.6 lineto
stroke
newpath
71295.3 24956.1 moveto
71407.7 24899.9 lineto
71632.7 24899.9 lineto
71745.2 24956.1 lineto
71801.4 25068.6 lineto
71801.4 25124.9 lineto
71745.2 25237.4 lineto
71632.7 25293.6 lineto
71464 25293.6 lineto
71351.5 25349.8 lineto
71295.3 25462.3 lineto
71295.3 25518.6 lineto
71351.5 25631.1 lineto
71464 25687.3 lineto
71632.7 25687.3 lineto
71745.2 25631.1 lineto
stroke
newpath
72195.1 24450 moveto
72251.4 24506.2 lineto
72363.9 24674.9 lineto
72420.1 24787.4 lineto
72476.4 24956.1 lineto
72532.6 25237.4 lineto
72532.6 25462.3 lineto
72476.4 25743.5 lineto
72420.1 25912.3 lineto
72363.9 26024.8 lineto
72251.4 26193.5 lineto
72195.1 26249.7 lineto
stroke
newpath
44987.6 24147.9 moveto
45533.2 23602.4 lineto
stroke
newpath
45533.2 24147.9 moveto
44987.6 23602.4 lineto
stroke
newpath
45260.4 24147.9 moveto
45260.4 23602.4 lineto
stroke
newpath
44987.6 23875.1 moveto
45533.2 23875.1 lineto
stroke
0 0 0 setrgbcolor
0 0 0 setrgbcolor
newpath
47279.5 23340.8 moveto
46604.6 23340.8 lineto
stroke
newpath
46942.1 23340.8 moveto
46942.1 24521.9 lineto
46829.6 24353.2 lineto
46717.1 24240.7 lineto
46604.6 24184.5 lineto
stroke
newpath
47785.7 23453.3 moveto
47841.9 23397.1 lineto
47785.7 23340.8 lineto
47729.5 23397.1 lineto
47785.7 23453.3 lineto
47785.7 23340.8 lineto
stroke
newpath
48966.8 23340.8 moveto
48291.9 23340.8 lineto
stroke
newpath
48629.3 23340.8 moveto
48629.3 24521.9 lineto
48516.9 24353.2 lineto
48404.4 24240.7 lineto
48291.9 24184.5 lineto
stroke
newpath
49698 24521.9 moveto
49810.4 24521.9 lineto
49922.9 24465.7 lineto
49979.2 24409.5 lineto
50035.4 24297 lineto
50091.7 24072 lineto
50091.7 23790.8 lineto
50035.4 23565.8 lineto
49979.2 23453.3 lineto
49922.9 23397.1 lineto
49810.4 23340.8 lineto
49698 23340.8 lineto
49585.5 23397.1 lineto
49529.2 23453.3 lineto
49473 23565.8 lineto
49416.7 23790.8 lineto
49416.7 24072 lineto
49473 24297 lineto
49529.2 24409.5 lineto
49585.5 24465.7 lineto
49698 24521.9 lineto
stroke
newpath
50597.8 23340.8 moveto
50597.8 24128.2 lineto
stroke
newpath
50597.8 24015.8 moveto
50654.1 24072 lineto
50766.6 24128.2 lineto
50935.3 24128.2 lineto
51047.8 24072 lineto
51104 23959.5 lineto
51104 23340.8 lineto
stroke
newpath
51104 23959.5 moveto
51160.3 24072 lineto
51272.8 24128.2 lineto
51441.5 24128.2 lineto
51554 24072 lineto
51610.2 23959.5 lineto
51610.2 23340.8 lineto
stroke
newpath
52172.7 23340.8 moveto
52172.7 24128.2 lineto
stroke
newpath
52172.7 24015.8 moveto
52228.9 24072 lineto
52341.4 24128.2 lineto
52510.1 24128.2 lineto
52622.6 24072 lineto
52678.8 23959.5 lineto
52678.8 23340.8 lineto
stroke
newpath
52678.8 23959.5 moveto
52735.1 24072 lineto
52847.6 24128.2 lineto
53016.3 24128.2 lineto
53128.8 24072 lineto
53185 23959.5 lineto
53185 23340.8 lineto
stroke
newpath
55491 24578.2 moveto
54478.6 23059.6 lineto
stroke
newpath
57009.5 24521.9 moveto
57122 24521.9 lineto
57234.5 24465.7 lineto
57290.8 24409.5 lineto
57347 24297 lineto
57403.2 24072 lineto
57403.2 23790.8 lineto
57347 23565.8 lineto
57290.8 23453.3 lineto
57234.5 23397.1 lineto
57122 23340.8 lineto
57009.5 23340.8 lineto
56897.1 23397.1 lineto
56840.8 23453.3 lineto
56784.6 23565.8 lineto
56728.3 23790.8 lineto
56728.3 24072 lineto
56784.6 24297 lineto
56840.8 24409.5 lineto
56897.1 24465.7 lineto
57009.5 24521.9 lineto
stroke
newpath
57909.4 23453.3 moveto
57965.7 23397.1 lineto
57909.4 23340.8 lineto
57853.2 23397.1 lineto
57909.4 23453.3 lineto
57909.4 23340.8 lineto
stroke
newpath
58696.8 24521.9 moveto
58809.3 24521.9 lineto
58921.8 24465.7 lineto
58978.1 24409.5 lineto
59034.3 24297 lineto
59090.5 24072 lineto
59090.5 23790.8 lineto
59034.3 23565.8 lineto
58978.1 23453.3 lineto
58921.8 23397.1 lineto
58809.3 23340.8 lineto
58696.8 23340.8 lineto
58584.4 23397.1 lineto
58528.1 23453.3 lineto
58471.9 23565.8 lineto
58415.6 23790.8 lineto
58415.6 24072 lineto
58471.9 24297 lineto
58528.1 24409.5 lineto
58584.4 24465.7 lineto
58696.8 24521.9 lineto
stroke
newpath
60102.9 24128.2 moveto
60102.9 23340.8 lineto
stroke
newpath
59821.7 24578.2 moveto
59540.5 23734.5 lineto
60271.6 23734.5 lineto
stroke
newpath
60609.1 24521.9 moveto
61340.3 24521.9 lineto
60946.6 24072 lineto
61115.3 24072 lineto
61227.8 24015.8 lineto
61284 23959.5 lineto
61340.3 23847 lineto
61340.3 23565.8 lineto
61284 23453.3 lineto
61227.8 23397.1 lineto
61115.3 23340.8 lineto
60777.8 23340.8 lineto
60665.3 23397.1 lineto
60609.1 23453.3 lineto
stroke
newpath
61790.2 24521.9 moveto
61790.2 24297 lineto
stroke
newpath
62240.1 24521.9 moveto
62240.1 24297 lineto
stroke
newpath
63983.7 22890.9 moveto
63927.4 22947.1 lineto
63814.9 23115.9 lineto
63758.7 23228.4 lineto
63702.5 23397.1 lineto
63646.2 23678.3 lineto
63646.2 23903.3 lineto
63702.5 24184.5 lineto
63758.7 24353.2 lineto
63814.9 24465.7 lineto
63927.4 24634.4 lineto
63983.7 24690.7 lineto
stroke
newpath
64321.1 24521.9 moveto
65052.3 24521.9 lineto
64658.6 24072 lineto
64827.3 24072 lineto
64939.8 24015.8 lineto
64996 23959.5 lineto
65052.3 23847 lineto
65052.3 23565.8 lineto
64996 23453.3 lineto
64939.8 23397.1 lineto
64827.3 23340.8 lineto
64489.9 23340.8 lineto
64377.4 23397.1 lineto
64321.1 23453.3 lineto
stroke
newpath
66458.4 23340.8 moveto
66458.4 24521.9 lineto
stroke
newpath
66964.6 23340.8 moveto
66964.6 23959.5 lineto
66908.3 24072 lineto
66795.8 24128.2 lineto
66627.1 24128.2 lineto
66514.6 24072 lineto
66458.4 24015.8 lineto
stroke
newpath
67695.7 23340.8 moveto
67583.2 23397.1 lineto
67527 23453.3 lineto
67470.7 23565.8 lineto
67470.7 23903.3 lineto
67527 24015.8 lineto
67583.2 24072 lineto
67695.7 24128.2 lineto
67864.4 24128.2 lineto
67976.9 24072 lineto
68033.2 24015.8 lineto
68089.4 23903.3 lineto
68089.4 23565.8 lineto
68033.2 23453.3 lineto
67976.9 23397.1 lineto
67864.4 23340.8 lineto
67695.7 23340.8 lineto
stroke
newpath
68764.3 23340.8 moveto
68651.8 23397.1 lineto
68595.6 23509.6 lineto
68595.6 24521.9 lineto
stroke
newpath
69664.2 23397.1 moveto
69551.7 23340.8 lineto
69326.8 23340.8 lineto
69214.3 23397.1 lineto
69158 23509.6 lineto
69158 23959.5 lineto
69214.3 24072 lineto
69326.8 24128.2 lineto
69551.7 24128.2 lineto
69664.2 24072 lineto
69720.5 23959.5 lineto
69720.5 23847 lineto
69158 23734.5 lineto
stroke
newpath
70170.4 23397.1 moveto
70282.9 23340.8 lineto
70507.9 23340.8 lineto
70620.3 23397.1 lineto
70676.6 23509.6 lineto
70676.6 23565.8 lineto
70620.3 23678.3 lineto
70507.9 23734.5 lineto
70339.1 23734.5 lineto
70226.6 23790.8 lineto
70170.4 23903.3 lineto
70170.4 23959.5 lineto
70226.6 24072 lineto
70339.1 24128.2 lineto
70507.9 24128.2 lineto
70620.3 24072 lineto
stroke
newpath
71070.3 22890.9 moveto
71126.5 22947.1 lineto
71239 23115.9 lineto
71295.3 23228.4 lineto
71351.5 23397.1 lineto
71407.7 23678.3 lineto
71407.7 23903.3 lineto
71351.5 24184.5 lineto
71295.3 24353.2 lineto
71239 24465.7 lineto
71126.5 24634.4 lineto
71070.3 24690.7 lineto
stroke
newpath
44838.8 22663.3 moveto
45533.2 21968.9 lineto
stroke
newpath
45533.2 22663.3 moveto
44838.8 21968.9 lineto
stroke
newpath
45431.5 22070.6 moveto
45431.5 22561.6 lineto
44940.5 22561.6 lineto
44940.5 22070.6 lineto
45431.5 22070.6 lineto
poly0
0 0 0 setrgbcolor
0 0 0 setrgbcolor
newpath
47279.5 21781.8 moveto
46604.6 21781.8 lineto
stroke
newpath
46942.1 21781.8 moveto
46942.1 22962.9 lineto
46829.6 22794.2 lineto
46717.1 22681.7 lineto
46604.6 22625.4 lineto
stroke
newpath
47785.7 21894.3 moveto
47841.9 21838 lineto
47785.7 21781.8 lineto
47729.5 21838 lineto
47785.7 21894.3 lineto
47785.7 21781.8 lineto
stroke
newpath
48854.3 22569.2 moveto
48854.3 21781.8 lineto
stroke
newpath
48573.1 23019.1 moveto
48291.9 22175.5 lineto
49023 22175.5 lineto
stroke
newpath
49698 22962.9 moveto
49810.4 22962.9 lineto
49922.9 22906.6 lineto
49979.2 22850.4 lineto
50035.4 22737.9 lineto
50091.7 22512.9 lineto
50091.7 22231.7 lineto
50035.4 22006.8 lineto
49979.2 21894.3 lineto
49922.9 21838 lineto
49810.4 21781.8 lineto
49698 21781.8 lineto
49585.5 21838 lineto
49529.2 21894.3 lineto
49473 22006.8 lineto
49416.7 22231.7 lineto
49416.7 22512.9 lineto
49473 22737.9 lineto
49529.2 22850.4 lineto
49585.5 22906.6 lineto
49698 22962.9 lineto
stroke
newpath
50597.8 21781.8 moveto
50597.8 22569.2 lineto
stroke
newpath
50597.8 22456.7 moveto
50654.1 22512.9 lineto
50766.6 22569.2 lineto
50935.3 22569.2 lineto
51047.8 22512.9 lineto
51104 22400.5 lineto
51104 21781.8 lineto
stroke
newpath
51104 22400.5 moveto
51160.3 22512.9 lineto
51272.8 22569.2 lineto
51441.5 22569.2 lineto
51554 22512.9 lineto
51610.2 22400.5 lineto
51610.2 21781.8 lineto
stroke
newpath
52172.7 21781.8 moveto
52172.7 22569.2 lineto
stroke
newpath
52172.7 22456.7 moveto
52228.9 22512.9 lineto
52341.4 22569.2 lineto
52510.1 22569.2 lineto
52622.6 22512.9 lineto
52678.8 22400.5 lineto
52678.8 21781.8 lineto
stroke
newpath
52678.8 22400.5 moveto
52735.1 22512.9 lineto
52847.6 22569.2 lineto
53016.3 22569.2 lineto
53128.8 22512.9 lineto
53185 22400.5 lineto
53185 21781.8 lineto
stroke
newpath
55491 23019.1 moveto
54478.6 21500.6 lineto
stroke
newpath
57009.5 22962.9 moveto
57122 22962.9 lineto
57234.5 22906.6 lineto
57290.8 22850.4 lineto
57347 22737.9 lineto
57403.2 22512.9 lineto
57403.2 22231.7 lineto
57347 22006.8 lineto
57290.8 21894.3 lineto
57234.5 21838 lineto
57122 21781.8 lineto
57009.5 21781.8 lineto
56897.1 21838 lineto
56840.8 21894.3 lineto
56784.6 22006.8 lineto
56728.3 22231.7 lineto
56728.3 22512.9 lineto
56784.6 22737.9 lineto
56840.8 22850.4 lineto
56897.1 22906.6 lineto
57009.5 22962.9 lineto
stroke
newpath
57909.4 21894.3 moveto
57965.7 21838 lineto
57909.4 21781.8 lineto
57853.2 21838 lineto
57909.4 21894.3 lineto
57909.4 21781.8 lineto
stroke
newpath
58696.8 22962.9 moveto
58809.3 22962.9 lineto
58921.8 22906.6 lineto
58978.1 22850.4 lineto
59034.3 22737.9 lineto
59090.5 22512.9 lineto
59090.5 22231.7 lineto
59034.3 22006.8 lineto
58978.1 21894.3 lineto
58921.8 21838 lineto
58809.3 21781.8 lineto
58696.8 21781.8 lineto
58584.4 21838 lineto
58528.1 21894.3 lineto
58471.9 22006.8 lineto
58415.6 22231.7 lineto
58415.6 22512.9 lineto
58471.9 22737.9 lineto
58528.1 22850.4 lineto
58584.4 22906.6 lineto
58696.8 22962.9 lineto
stroke
newpath
60159.2 22962.9 moveto
59596.7 22962.9 lineto
59540.5 22400.5 lineto
59596.7 22456.7 lineto
59709.2 22512.9 lineto
59990.4 22512.9 lineto
60102.9 22456.7 lineto
60159.2 22400.5 lineto
60215.4 22288 lineto
60215.4 22006.8 lineto
60159.2 21894.3 lineto
60102.9 21838 lineto
59990.4 21781.8 lineto
59709.2 21781.8 lineto
59596.7 21838 lineto
59540.5 21894.3 lineto
stroke
newpath
61284 22962.9 moveto
60721.6 22962.9 lineto
60665.3 22400.5 lineto
60721.6 22456.7 lineto
60834.1 22512.9 lineto
61115.3 22512.9 lineto
61227.8 22456.7 lineto
61284 22400.5 lineto
61340.3 22288 lineto
61340.3 22006.8 lineto
61284 21894.3 lineto
61227.8 21838 lineto
61115.3 21781.8 lineto
60834.1 21781.8 lineto
60721.6 21838 lineto
60665.3 21894.3 lineto
stroke
newpath
61790.2 22962.9 moveto
61790.2 22737.9 lineto
stroke
newpath
62240.1 22962.9 moveto
62240.1 22737.9 lineto
stroke
newpath
63983.7 21331.8 moveto
63927.4 21388.1 lineto
63814.9 21556.8 lineto
63758.7 21669.3 lineto
63702.5 21838 lineto
63646.2 22119.2 lineto
63646.2 22344.2 lineto
63702.5 22625.4 lineto
63758.7 22794.2 lineto
63814.9 22906.6 lineto
63927.4 23075.4 lineto
63983.7 23131.6 lineto
stroke
newpath
64658.6 22962.9 moveto
64771.1 22962.9 lineto
64883.6 22906.6 lineto
64939.8 22850.4 lineto
64996 22737.9 lineto
65052.3 22512.9 lineto
65052.3 22231.7 lineto
64996 22006.8 lineto
64939.8 21894.3 lineto
64883.6 21838 lineto
64771.1 21781.8 lineto
64658.6 21781.8 lineto
64546.1 21838 lineto
64489.9 21894.3 lineto
64433.6 22006.8 lineto
64377.4 22231.7 lineto
64377.4 22512.9 lineto
64433.6 22737.9 lineto
64489.9 22850.4 lineto
64546.1 22906.6 lineto
64658.6 22962.9 lineto
stroke
newpath
66458.4 21781.8 moveto
66458.4 22962.9 lineto
stroke
newpath
66964.6 21781.8 moveto
66964.6 22400.5 lineto
66908.3 22512.9 lineto
66795.8 22569.2 lineto
66627.1 22569.2 lineto
66514.6 22512.9 lineto
66458.4 22456.7 lineto
stroke
newpath
67695.7 21781.8 moveto
67583.2 21838 lineto
67527 21894.3 lineto
67470.7 22006.8 lineto
67470.7 22344.2 lineto
67527 22456.7 lineto
67583.2 22512.9 lineto
67695.7 22569.2 lineto
67864.4 22569.2 lineto
67976.9 22512.9 lineto
68033.2 22456.7 lineto
68089.4 22344.2 lineto
68089.4 22006.8 lineto
68033.2 21894.3 lineto
67976.9 21838 lineto
67864.4 21781.8 lineto
67695.7 21781.8 lineto
stroke
newpath
68764.3 21781.8 moveto
68651.8 21838 lineto
68595.6 21950.5 lineto
68595.6 22962.9 lineto
stroke
newpath
69664.2 21838 moveto
69551.7 21781.8 lineto
69326.8 21781.8 lineto
69214.3 21838 lineto
69158 21950.5 lineto
69158 22400.5 lineto
69214.3 22512.9 lineto
69326.8 22569.2 lineto
69551.7 22569.2 lineto
69664.2 22512.9 lineto
69720.5 22400.5 lineto
69720.5 22288 lineto
69158 22175.5 lineto
stroke
newpath
70170.4 21838 moveto
70282.9 21781.8 lineto
70507.9 21781.8 lineto
70620.3 21838 lineto
70676.6 21950.5 lineto
70676.6 22006.8 lineto
70620.3 22119.2 lineto
70507.9 22175.5 lineto
70339.1 22175.5 lineto
70226.6 22231.7 lineto
70170.4 22344.2 lineto
70170.4 22400.5 lineto
70226.6 22512.9 lineto
70339.1 22569.2 lineto
70507.9 22569.2 lineto
70620.3 22512.9 lineto
stroke
newpath
72082.7 22231.7 moveto
72982.6 22231.7 lineto
stroke
newpath
72532.6 21781.8 moveto
72532.6 22681.7 lineto
stroke
newpath
74388.6 22850.4 moveto
74444.9 22906.6 lineto
74557.4 22962.9 lineto
74838.6 22962.9 lineto
74951.1 22906.6 lineto
75007.3 22850.4 lineto
75063.5 22737.9 lineto
75063.5 22625.4 lineto
75007.3 22456.7 lineto
74332.4 21781.8 lineto
75063.5 21781.8 lineto
stroke
newpath
76413.4 21838 moveto
76525.9 21781.8 lineto
76750.8 21781.8 lineto
76863.3 21838 lineto
76919.6 21950.5 lineto
76919.6 22006.8 lineto
76863.3 22119.2 lineto
76750.8 22175.5 lineto
76582.1 22175.5 lineto
76469.6 22231.7 lineto
76413.4 22344.2 lineto
76413.4 22400.5 lineto
76469.6 22512.9 lineto
76582.1 22569.2 lineto
76750.8 22569.2 lineto
76863.3 22512.9 lineto
stroke
newpath
77594.5 21781.8 moveto
77482 21838 lineto
77425.7 21950.5 lineto
77425.7 22962.9 lineto
stroke
newpath
78213.1 21781.8 moveto
78100.7 21838 lineto
78044.4 21894.3 lineto
77988.2 22006.8 lineto
77988.2 22344.2 lineto
78044.4 22456.7 lineto
78100.7 22512.9 lineto
78213.1 22569.2 lineto
78381.9 22569.2 lineto
78494.4 22512.9 lineto
78550.6 22456.7 lineto
78606.8 22344.2 lineto
78606.8 22006.8 lineto
78550.6 21894.3 lineto
78494.4 21838 lineto
78381.9 21781.8 lineto
78213.1 21781.8 lineto
stroke
newpath
78944.3 22569.2 moveto
79394.3 22569.2 lineto
stroke
newpath
79113 22962.9 moveto
79113 21950.5 lineto
79169.3 21838 lineto
79281.8 21781.8 lineto
79394.3 21781.8 lineto
stroke
newpath
79731.7 21838 moveto
79844.2 21781.8 lineto
80069.2 21781.8 lineto
80181.7 21838 lineto
80237.9 21950.5 lineto
80237.9 22006.8 lineto
80181.7 22119.2 lineto
80069.2 22175.5 lineto
79900.4 22175.5 lineto
79788 22231.7 lineto
79731.7 22344.2 lineto
79731.7 22400.5 lineto
79788 22512.9 lineto
79900.4 22569.2 lineto
80069.2 22569.2 lineto
80181.7 22512.9 lineto
stroke
newpath
80631.6 21331.8 moveto
80687.8 21388.1 lineto
80800.3 21556.8 lineto
80856.6 21669.3 lineto
80912.8 21838 lineto
80969.1 22119.2 lineto
80969.1 22344.2 lineto
80912.8 22625.4 lineto
80856.6 22794.2 lineto
80800.3 22906.6 lineto
80687.8 23075.4 lineto
80631.6 23131.6 lineto
stroke
showpage
grestore
%%EOF
