EESchema Schematic File Version 4
LIBS:SUPPLY_POWER-cache
EELAYER 26 0
EELAYER END
$Descr A4 11693 8268
encoding utf-8
Sheet 1 1
Title ""
Date ""
Rev ""
Comp ""
Comment1 ""
Comment2 ""
Comment3 ""
Comment4 ""
$EndDescr
$Comp
L SUPPLY_POWER-rescue:TP4056-TP4056-tp4056-tp4056 U2
U 1 1 5C4FA9DE
P 2900 1450
F 0 "U2" H 2900 1987 60  0000 C CNN
F 1 "TP4056-TP4056" H 2900 1881 60  0000 C CNN
F 2 "Package_SO:HSOP-8-1EP_3.9x4.9mm_P1.27mm_EP2.41x3.1mm" H 2900 1450 60  0001 C CNN
F 3 "" H 2900 1450 60  0000 C CNN
	1    2900 1450
	1    0    0    -1  
$EndComp
$Comp
L SUPPLY_POWER-rescue:DW01A-POWER_SUPPLY U4
U 1 1 5C51C8CE
P 4700 2550
F 0 "U4" H 4700 2965 50  0000 C CNN
F 1 "DW01A" H 4700 2874 50  0000 C CNN
F 2 "Package_TO_SOT_SMD:SOT-23-6" H 4700 2550 50  0001 C CNN
F 3 "" H 4700 2550 50  0001 C CNN
	1    4700 2550
	1    0    0    -1  
$EndComp
$Comp
L SUPPLY_POWER-rescue:FS8205A-POWER_SUPPLY U8
U 1 1 5C51C95F
P 7050 2050
F 0 "U8" H 7050 2665 50  0000 C CNN
F 1 "FS8205A" H 7050 2574 50  0000 C CNN
F 2 "Package_TO_SOT_SMD:SuperSOT-8" H 7050 2050 50  0001 C CNN
F 3 "" H 7050 2050 50  0001 C CNN
	1    7050 2050
	1    0    0    -1  
$EndComp
$Comp
L Device:R R7
U 1 1 5C51CBCB
P 3600 1750
F 0 "R7" H 3650 1950 50  0000 L CNN
F 1 "1.5K" V 3600 1650 50  0000 L CNN
F 2 "Resistor_SMD:R_1206_3216Metric" V 3530 1750 50  0001 C CNN
F 3 "~" H 3600 1750 50  0001 C CNN
F 4 "R_Prog" H 3600 1750 50  0001 C CNN "Fab"
	1    3600 1750
	1    0    0    -1  
$EndComp
Wire Wire Line
	3600 1600 3400 1600
Wire Wire Line
	2300 1200 2300 900 
Wire Wire Line
	2300 1200 2400 1200
Wire Wire Line
	2400 1300 2300 1300
Wire Wire Line
	2300 1300 2300 1200
Connection ~ 2300 1200
$Comp
L pspice:CAP C2
U 1 1 5C51D245
P 2300 1950
F 0 "C2" H 2478 1996 50  0000 L CNN
F 1 "1 uF" H 2478 1905 50  0000 L CNN
F 2 "Capacitor_SMD:C_1206_3216Metric" H 2300 1950 50  0001 C CNN
F 3 "~" H 2300 1950 50  0001 C CNN
	1    2300 1950
	1    0    0    -1  
$EndComp
Wire Wire Line
	2300 1700 2300 1300
Connection ~ 2300 1300
Wire Wire Line
	2300 2200 2300 2450
Wire Wire Line
	2300 2450 2900 2450
Wire Wire Line
	3600 2450 3600 1900
Wire Wire Line
	3400 1500 3450 1500
Wire Wire Line
	3450 1500 3450 2450
Connection ~ 3450 2450
Wire Wire Line
	3450 2450 3600 2450
Connection ~ 2900 2450
Wire Wire Line
	2900 2450 3450 2450
$Comp
L power:+BATT #PWR0101
U 1 1 5C51DFED
P 3700 1100
F 0 "#PWR0101" H 3700 950 50  0001 C CNN
F 1 "+BATT" H 3715 1273 50  0000 C CNN
F 2 "" H 3700 1100 50  0001 C CNN
F 3 "" H 3700 1100 50  0001 C CNN
	1    3700 1100
	1    0    0    -1  
$EndComp
Wire Wire Line
	3700 1100 3700 1200
Wire Wire Line
	3700 1200 3400 1200
$Comp
L Connector:Conn_01x02_Female J5
U 1 1 5C51E38B
P 1250 1300
F 0 "J5" H 1144 975 50  0000 C CNN
F 1 "PANEL IN" H 1144 1066 50  0000 C CNN
F 2 "Connector_PinHeader_1.00mm:PinHeader_1x02_P1.00mm_Vertical" H 1250 1300 50  0001 C CNN
F 3 "~" H 1250 1300 50  0001 C CNN
	1    1250 1300
	-1   0    0    1   
$EndComp
Wire Wire Line
	1450 1200 1450 900 
Wire Wire Line
	1450 2450 2300 2450
Wire Wire Line
	1450 1300 1450 2450
Connection ~ 2300 2450
Text Notes 1150 1200 0    50   ~ 0
+
Text Notes 1150 1350 0    50   ~ 0
-
Text GLabel 4150 2450 0    50   Input ~ 0
G1
Wire Wire Line
	4150 2450 4300 2450
Text GLabel 6500 2100 0    50   Input ~ 0
G1
Wire Wire Line
	6500 2100 6750 2100
Wire Wire Line
	6750 2000 6650 2000
Wire Wire Line
	6650 2000 6650 1900
Wire Wire Line
	6650 1900 6750 1900
Connection ~ 6650 1900
Wire Wire Line
	7350 1900 7450 1900
Wire Wire Line
	7450 1900 7450 2000
Wire Wire Line
	7450 2000 7350 2000
Wire Wire Line
	7650 1900 7450 1900
Connection ~ 7450 1900
Text GLabel 7650 2100 2    50   Input ~ 0
G2
Wire Wire Line
	7650 2100 7350 2100
Text GLabel 4150 2650 0    50   Input ~ 0
G2
Wire Wire Line
	4300 2650 4150 2650
$Comp
L Device:R R9
U 1 1 5C52260E
P 4200 2950
F 0 "R9" H 4270 2996 50  0000 L CNN
F 1 "1K" V 4200 2900 50  0000 L CNN
F 2 "Resistor_SMD:R_1206_3216Metric" V 4130 2950 50  0001 C CNN
F 3 "~" H 4200 2950 50  0001 C CNN
	1    4200 2950
	1    0    0    -1  
$EndComp
Wire Wire Line
	4200 2550 4300 2550
Wire Wire Line
	4200 3200 4200 3100
$Comp
L power:GNDA #PWR0102
U 1 1 5C524130
P 2900 2450
F 0 "#PWR0102" H 2900 2200 50  0001 C CNN
F 1 "GNDA" H 2905 2277 50  0000 C CNN
F 2 "" H 2900 2450 50  0001 C CNN
F 3 "" H 2900 2450 50  0001 C CNN
	1    2900 2450
	1    0    0    -1  
$EndComp
Wire Wire Line
	4200 2550 4200 2800
$Comp
L power:+BATT #PWR0103
U 1 1 5C525A23
P 5500 1750
F 0 "#PWR0103" H 5500 1600 50  0001 C CNN
F 1 "+BATT" H 5515 1923 50  0000 C CNN
F 2 "" H 5500 1750 50  0001 C CNN
F 3 "" H 5500 1750 50  0001 C CNN
	1    5500 1750
	1    0    0    -1  
$EndComp
Wire Wire Line
	5300 2550 5100 2550
Wire Wire Line
	6400 1900 6650 1900
$Comp
L power:-BATT #PWR0104
U 1 1 5C527DA5
P 6400 1900
F 0 "#PWR0104" H 6400 1750 50  0001 C CNN
F 1 "-BATT" V 6415 2027 50  0000 L CNN
F 2 "" H 6400 1900 50  0001 C CNN
F 3 "" H 6400 1900 50  0001 C CNN
	1    6400 1900
	0    -1   -1   0   
$EndComp
$Comp
L Device:R R11
U 1 1 5C527EA3
P 5300 2250
F 0 "R11" H 5370 2296 50  0000 L CNN
F 1 "100" V 5300 2200 50  0000 L CNN
F 2 "Resistor_SMD:R_1206_3216Metric" V 5230 2250 50  0001 C CNN
F 3 "~" H 5300 2250 50  0001 C CNN
	1    5300 2250
	1    0    0    -1  
$EndComp
Wire Wire Line
	5300 2400 5300 2550
$Comp
L pspice:CAP C7
U 1 1 5C5290A8
P 5700 2200
F 0 "C7" H 5878 2246 50  0000 L CNN
F 1 "0.1 uF" H 5878 2155 50  0000 L CNN
F 2 "Capacitor_SMD:C_1206_3216Metric" H 5700 2200 50  0001 C CNN
F 3 "~" H 5700 2200 50  0001 C CNN
	1    5700 2200
	1    0    0    -1  
$EndComp
Wire Wire Line
	5300 1850 5500 1850
Wire Wire Line
	5300 1850 5300 2100
Wire Wire Line
	5500 1850 5700 1850
Wire Wire Line
	5700 1850 5700 1950
Connection ~ 5500 1850
$Comp
L Connector:Conn_01x02_Female J20
U 1 1 5C52FB7A
P 10500 2250
F 0 "J20" H 10528 2226 50  0000 L CNN
F 1 "BATERIA" H 10528 2135 50  0000 L CNN
F 2 "Connector_PinHeader_1.00mm:PinHeader_1x02_P1.00mm_Vertical" H 10500 2250 50  0001 C CNN
F 3 "~" H 10500 2250 50  0001 C CNN
	1    10500 2250
	1    0    0    -1  
$EndComp
$Comp
L power:+BATT #PWR0105
U 1 1 5C52FBF0
P 10050 1950
F 0 "#PWR0105" H 10050 1800 50  0001 C CNN
F 1 "+BATT" V 10065 2077 50  0000 L CNN
F 2 "" H 10050 1950 50  0001 C CNN
F 3 "" H 10050 1950 50  0001 C CNN
	1    10050 1950
	0    -1   -1   0   
$EndComp
$Comp
L power:-BATT #PWR0106
U 1 1 5C52FCC9
P 10050 2350
F 0 "#PWR0106" H 10050 2200 50  0001 C CNN
F 1 "-BATT" V 10065 2477 50  0000 L CNN
F 2 "" H 10050 2350 50  0001 C CNN
F 3 "" H 10050 2350 50  0001 C CNN
	1    10050 2350
	0    -1   -1   0   
$EndComp
Text Notes 10450 2200 0    50   ~ 0
+\n
Text Notes 10450 2450 0    50   ~ 0
-\n
Wire Wire Line
	5100 2450 5500 2450
$Comp
L power:-BATT #PWR0107
U 1 1 5C531CAC
P 5500 2550
F 0 "#PWR0107" H 5500 2400 50  0001 C CNN
F 1 "-BATT" H 5515 2723 50  0000 C CNN
F 2 "" H 5500 2550 50  0001 C CNN
F 3 "" H 5500 2550 50  0001 C CNN
	1    5500 2550
	-1   0    0    1   
$EndComp
Wire Wire Line
	5500 2550 5500 2450
Connection ~ 5500 2450
Wire Wire Line
	5500 2450 5700 2450
Wire Wire Line
	5500 1750 5500 1850
$Comp
L power:GNDA #PWR0108
U 1 1 5C533944
P 7650 1900
F 0 "#PWR0108" H 7650 1650 50  0001 C CNN
F 1 "GNDA" V 7655 1772 50  0000 R CNN
F 2 "" H 7650 1900 50  0001 C CNN
F 3 "" H 7650 1900 50  0001 C CNN
	1    7650 1900
	0    -1   -1   0   
$EndComp
$Comp
L power:GNDA #PWR0109
U 1 1 5C533D0E
P 4200 3200
F 0 "#PWR0109" H 4200 2950 50  0001 C CNN
F 1 "GNDA" H 4205 3027 50  0000 C CNN
F 2 "" H 4200 3200 50  0001 C CNN
F 3 "" H 4200 3200 50  0001 C CNN
	1    4200 3200
	1    0    0    -1  
$EndComp
$Comp
L Connector:Conn_01x02_Female J22
U 1 1 5C53402D
P 10550 2650
F 0 "J22" H 10578 2626 50  0000 L CNN
F 1 "OUT_CIR_CARGA" H 10578 2535 50  0000 L CNN
F 2 "Connector_PinHeader_1.00mm:PinHeader_1x02_P1.00mm_Vertical" H 10550 2650 50  0001 C CNN
F 3 "~" H 10550 2650 50  0001 C CNN
	1    10550 2650
	1    0    0    -1  
$EndComp
$Comp
L power:GNDA #PWR0110
U 1 1 5C534F12
P 10050 2750
F 0 "#PWR0110" H 10050 2500 50  0001 C CNN
F 1 "GNDA" V 10055 2623 50  0000 R CNN
F 2 "" H 10050 2750 50  0001 C CNN
F 3 "" H 10050 2750 50  0001 C CNN
	1    10050 2750
	0    1    1    0   
$EndComp
Text Notes 10450 2600 0    50   ~ 0
+
Text Notes 10450 2850 0    50   ~ 0
-
$Comp
L pspice:CAP C11
U 1 1 5C53CCC2
P 9150 2450
F 0 "C11" H 9328 2496 50  0000 L CNN
F 1 "10 uF" H 9328 2405 50  0000 L CNN
F 2 "Capacitor_Tantalum_SMD:CP_EIA-2012-12_Kemet-R_Pad1.25x1.10mm_HandSolder" H 9150 2450 50  0001 C CNN
F 3 "~" H 9150 2450 50  0001 C CNN
	1    9150 2450
	1    0    0    -1  
$EndComp
$Comp
L power:+BATT #PWR0111
U 1 1 5C53CD7A
P 9150 2000
F 0 "#PWR0111" H 9150 1850 50  0001 C CNN
F 1 "+BATT" H 9165 2173 50  0000 C CNN
F 2 "" H 9150 2000 50  0001 C CNN
F 3 "" H 9150 2000 50  0001 C CNN
	1    9150 2000
	1    0    0    -1  
$EndComp
Wire Wire Line
	9150 2000 9150 2200
$Comp
L power:GNDA #PWR0112
U 1 1 5C53DD3A
P 9150 2900
F 0 "#PWR0112" H 9150 2650 50  0001 C CNN
F 1 "GNDA" H 9155 2727 50  0000 C CNN
F 2 "" H 9150 2900 50  0001 C CNN
F 3 "" H 9150 2900 50  0001 C CNN
	1    9150 2900
	1    0    0    -1  
$EndComp
Wire Wire Line
	9150 2700 9150 2900
$Comp
L SUPPLY_POWER-rescue:XC6204-POWER_SUPPLY U1
U 1 1 5C540124
P 2200 5050
F 0 "U1" H 2200 5415 50  0000 C CNN
F 1 "XC6204" H 2200 5324 50  0000 C CNN
F 2 "Package_TO_SOT_SMD:SOT-23-5_HandSoldering" H 2200 5050 50  0001 C CNN
F 3 "" H 2200 5050 50  0001 C CNN
	1    2200 5050
	1    0    0    -1  
$EndComp
$Comp
L power:GNDA #PWR0113
U 1 1 5C5402F0
P 2200 5900
F 0 "#PWR0113" H 2200 5650 50  0001 C CNN
F 1 "GNDA" H 2205 5727 50  0000 C CNN
F 2 "" H 2200 5900 50  0001 C CNN
F 3 "" H 2200 5900 50  0001 C CNN
	1    2200 5900
	1    0    0    -1  
$EndComp
Wire Wire Line
	1800 5200 1700 5200
Wire Wire Line
	1700 5200 1700 5050
Wire Wire Line
	1700 5050 1800 5050
$Comp
L power:+BATT #PWR0114
U 1 1 5C54396F
P 1450 5050
F 0 "#PWR0114" H 1450 4900 50  0001 C CNN
F 1 "+BATT" V 1465 5177 50  0000 L CNN
F 2 "" H 1450 5050 50  0001 C CNN
F 3 "" H 1450 5050 50  0001 C CNN
	1    1450 5050
	0    -1   -1   0   
$EndComp
Wire Wire Line
	1450 5050 1700 5050
Connection ~ 1700 5050
Wire Wire Line
	2600 5050 2800 5050
$Comp
L pspice:CAP C1
U 1 1 5C5461F3
P 1700 5500
F 0 "C1" H 1878 5546 50  0000 L CNN
F 1 "0.1 uF" H 1878 5455 50  0000 L CNN
F 2 "Capacitor_SMD:C_1206_3216Metric" H 1700 5500 50  0001 C CNN
F 3 "~" H 1700 5500 50  0001 C CNN
	1    1700 5500
	1    0    0    -1  
$EndComp
$Comp
L pspice:CAP C4
U 1 1 5C5462E1
P 2800 5450
F 0 "C4" H 2978 5496 50  0000 L CNN
F 1 "1 uF" H 2978 5405 50  0000 L CNN
F 2 "Capacitor_SMD:C_1206_3216Metric" H 2800 5450 50  0001 C CNN
F 3 "~" H 2800 5450 50  0001 C CNN
	1    2800 5450
	1    0    0    -1  
$EndComp
Wire Wire Line
	2800 5200 2800 5050
Connection ~ 2800 5050
Wire Wire Line
	2800 5050 2900 5050
Wire Wire Line
	2800 5700 2800 5900
Wire Wire Line
	2800 5900 2200 5900
Wire Wire Line
	1700 5750 1700 5900
Wire Wire Line
	1700 5900 2200 5900
Connection ~ 2200 5900
Wire Wire Line
	2200 5500 2200 5900
Wire Wire Line
	1700 5250 1700 5200
Connection ~ 1700 5200
$Comp
L SUPPLY_POWER-rescue:XC6204-POWER_SUPPLY U6
U 1 1 5C550973
P 4800 5050
F 0 "U6" H 4800 5415 50  0000 C CNN
F 1 "XC6204" H 4800 5324 50  0000 C CNN
F 2 "Package_TO_SOT_SMD:SOT-23-5_HandSoldering" H 4800 5050 50  0001 C CNN
F 3 "" H 4800 5050 50  0001 C CNN
	1    4800 5050
	1    0    0    -1  
$EndComp
$Comp
L power:GNDA #PWR0115
U 1 1 5C550979
P 4800 5900
F 0 "#PWR0115" H 4800 5650 50  0001 C CNN
F 1 "GNDA" H 4805 5727 50  0000 C CNN
F 2 "" H 4800 5900 50  0001 C CNN
F 3 "" H 4800 5900 50  0001 C CNN
	1    4800 5900
	1    0    0    -1  
$EndComp
Wire Wire Line
	4400 5200 4300 5200
Wire Wire Line
	4300 5200 4300 5050
Wire Wire Line
	4300 5050 4400 5050
$Comp
L power:+BATT #PWR0116
U 1 1 5C550988
P 4050 5050
F 0 "#PWR0116" H 4050 4900 50  0001 C CNN
F 1 "+BATT" V 4065 5177 50  0000 L CNN
F 2 "" H 4050 5050 50  0001 C CNN
F 3 "" H 4050 5050 50  0001 C CNN
	1    4050 5050
	0    -1   -1   0   
$EndComp
Wire Wire Line
	4050 5050 4300 5050
Connection ~ 4300 5050
Wire Wire Line
	5200 5050 5400 5050
$Comp
L pspice:CAP C5
U 1 1 5C550991
P 4300 5500
F 0 "C5" H 4478 5546 50  0000 L CNN
F 1 "0.1 uF" H 4478 5455 50  0000 L CNN
F 2 "Capacitor_SMD:C_1206_3216Metric" H 4300 5500 50  0001 C CNN
F 3 "~" H 4300 5500 50  0001 C CNN
	1    4300 5500
	1    0    0    -1  
$EndComp
$Comp
L pspice:CAP C6
U 1 1 5C550997
P 5400 5450
F 0 "C6" H 5578 5496 50  0000 L CNN
F 1 "1 uF" H 5578 5405 50  0000 L CNN
F 2 "Capacitor_SMD:C_1206_3216Metric" H 5400 5450 50  0001 C CNN
F 3 "~" H 5400 5450 50  0001 C CNN
	1    5400 5450
	1    0    0    -1  
$EndComp
Wire Wire Line
	5400 5200 5400 5050
Connection ~ 5400 5050
Wire Wire Line
	5400 5050 5500 5050
Wire Wire Line
	5400 5700 5400 5900
Wire Wire Line
	5400 5900 4800 5900
Wire Wire Line
	4300 5750 4300 5900
Wire Wire Line
	4300 5900 4800 5900
Connection ~ 4800 5900
Wire Wire Line
	4800 5500 4800 5900
Wire Wire Line
	4300 5250 4300 5200
Connection ~ 4300 5200
$Comp
L SUPPLY_POWER-rescue:XC6204-POWER_SUPPLY U7
U 1 1 5C552F9C
P 7200 5050
F 0 "U7" H 7200 5415 50  0000 C CNN
F 1 "XC6204" H 7200 5324 50  0000 C CNN
F 2 "Package_TO_SOT_SMD:SOT-23-5_HandSoldering" H 7200 5050 50  0001 C CNN
F 3 "" H 7200 5050 50  0001 C CNN
	1    7200 5050
	1    0    0    -1  
$EndComp
$Comp
L power:GNDA #PWR0117
U 1 1 5C552FA2
P 7200 5900
F 0 "#PWR0117" H 7200 5650 50  0001 C CNN
F 1 "GNDA" H 7205 5727 50  0000 C CNN
F 2 "" H 7200 5900 50  0001 C CNN
F 3 "" H 7200 5900 50  0001 C CNN
	1    7200 5900
	1    0    0    -1  
$EndComp
$Comp
L power:+3.3V #PWR0118
U 1 1 5C552FA8
P 7900 5050
F 0 "#PWR0118" H 7900 4900 50  0001 C CNN
F 1 "+3.3V" V 7915 5178 50  0000 L CNN
F 2 "" H 7900 5050 50  0001 C CNN
F 3 "" H 7900 5050 50  0001 C CNN
	1    7900 5050
	0    1    1    0   
$EndComp
Wire Wire Line
	6800 5200 6700 5200
Wire Wire Line
	6700 5200 6700 5050
Wire Wire Line
	6700 5050 6800 5050
$Comp
L power:+BATT #PWR0119
U 1 1 5C552FB1
P 6450 5050
F 0 "#PWR0119" H 6450 4900 50  0001 C CNN
F 1 "+BATT" V 6465 5177 50  0000 L CNN
F 2 "" H 6450 5050 50  0001 C CNN
F 3 "" H 6450 5050 50  0001 C CNN
	1    6450 5050
	0    -1   -1   0   
$EndComp
Wire Wire Line
	6450 5050 6700 5050
Connection ~ 6700 5050
Wire Wire Line
	7600 5050 7800 5050
$Comp
L pspice:CAP C9
U 1 1 5C552FBA
P 6700 5500
F 0 "C9" H 6878 5546 50  0000 L CNN
F 1 "0.1 uF" H 6878 5455 50  0000 L CNN
F 2 "Capacitor_SMD:C_1206_3216Metric" H 6700 5500 50  0001 C CNN
F 3 "~" H 6700 5500 50  0001 C CNN
	1    6700 5500
	1    0    0    -1  
$EndComp
$Comp
L pspice:CAP C10
U 1 1 5C552FC0
P 7800 5450
F 0 "C10" H 7978 5496 50  0000 L CNN
F 1 "1 uF" H 7978 5405 50  0000 L CNN
F 2 "Capacitor_SMD:C_1206_3216Metric" H 7800 5450 50  0001 C CNN
F 3 "~" H 7800 5450 50  0001 C CNN
	1    7800 5450
	1    0    0    -1  
$EndComp
Wire Wire Line
	7800 5200 7800 5050
Connection ~ 7800 5050
Wire Wire Line
	7800 5050 7900 5050
Wire Wire Line
	7800 5700 7800 5900
Wire Wire Line
	7800 5900 7200 5900
Wire Wire Line
	6700 5750 6700 5900
Wire Wire Line
	6700 5900 7200 5900
Connection ~ 7200 5900
Wire Wire Line
	7200 5500 7200 5900
Wire Wire Line
	6700 5250 6700 5200
Connection ~ 6700 5200
$Comp
L SUPPLY_POWER-rescue:XC6204-POWER_SUPPLY U10
U 1 1 5C552FD1
P 9800 5050
F 0 "U10" H 9800 5415 50  0000 C CNN
F 1 "XC6204" H 9800 5324 50  0000 C CNN
F 2 "Package_TO_SOT_SMD:SOT-23-5_HandSoldering" H 9800 5050 50  0001 C CNN
F 3 "" H 9800 5050 50  0001 C CNN
	1    9800 5050
	1    0    0    -1  
$EndComp
$Comp
L power:GNDA #PWR0120
U 1 1 5C552FD7
P 9800 5900
F 0 "#PWR0120" H 9800 5650 50  0001 C CNN
F 1 "GNDA" H 9805 5727 50  0000 C CNN
F 2 "" H 9800 5900 50  0001 C CNN
F 3 "" H 9800 5900 50  0001 C CNN
	1    9800 5900
	1    0    0    -1  
$EndComp
$Comp
L power:+3.3V #PWR0121
U 1 1 5C552FDD
P 10500 5050
F 0 "#PWR0121" H 10500 4900 50  0001 C CNN
F 1 "+3.3V" V 10515 5178 50  0000 L CNN
F 2 "" H 10500 5050 50  0001 C CNN
F 3 "" H 10500 5050 50  0001 C CNN
	1    10500 5050
	0    1    1    0   
$EndComp
Wire Wire Line
	9400 5200 9300 5200
Wire Wire Line
	9300 5200 9300 5050
Wire Wire Line
	9300 5050 9400 5050
$Comp
L power:+BATT #PWR0122
U 1 1 5C552FE6
P 9050 5050
F 0 "#PWR0122" H 9050 4900 50  0001 C CNN
F 1 "+BATT" V 9065 5177 50  0000 L CNN
F 2 "" H 9050 5050 50  0001 C CNN
F 3 "" H 9050 5050 50  0001 C CNN
	1    9050 5050
	0    -1   -1   0   
$EndComp
Wire Wire Line
	9050 5050 9300 5050
Connection ~ 9300 5050
Wire Wire Line
	10200 5050 10400 5050
$Comp
L pspice:CAP C13
U 1 1 5C552FEF
P 9300 5500
F 0 "C13" H 9478 5546 50  0000 L CNN
F 1 "0.1 uF" H 9478 5455 50  0000 L CNN
F 2 "Capacitor_SMD:C_1206_3216Metric" H 9300 5500 50  0001 C CNN
F 3 "~" H 9300 5500 50  0001 C CNN
	1    9300 5500
	1    0    0    -1  
$EndComp
$Comp
L pspice:CAP C14
U 1 1 5C552FF5
P 10400 5450
F 0 "C14" H 10578 5496 50  0000 L CNN
F 1 "1 uF" H 10578 5405 50  0000 L CNN
F 2 "Capacitor_SMD:C_1206_3216Metric" H 10400 5450 50  0001 C CNN
F 3 "~" H 10400 5450 50  0001 C CNN
	1    10400 5450
	1    0    0    -1  
$EndComp
Wire Wire Line
	10400 5200 10400 5050
Connection ~ 10400 5050
Wire Wire Line
	10400 5050 10500 5050
Wire Wire Line
	10400 5700 10400 5900
Wire Wire Line
	10400 5900 9800 5900
Wire Wire Line
	9300 5750 9300 5900
Wire Wire Line
	9300 5900 9800 5900
Connection ~ 9800 5900
Wire Wire Line
	9800 5500 9800 5900
Wire Wire Line
	9300 5250 9300 5200
Connection ~ 9300 5200
$Comp
L Device:R_Small R1
U 1 1 5C5295FE
P 1650 900
F 0 "R1" V 1750 950 50  0000 C CNN
F 1 "0.4" V 1650 900 50  0000 C CNN
F 2 "Resistor_SMD:R_1206_3216Metric" H 1650 900 50  0001 C CNN
F 3 "~" H 1650 900 50  0001 C CNN
	1    1650 900 
	0    1    1    0   
$EndComp
Wire Wire Line
	1550 900  1450 900 
Text Notes 1500 850  0    50   ~ 0
0.2 -0.4
NoConn ~ 5100 2650
Text Notes 3750 2050 1    50   ~ 0
10k - 1.2k
$Comp
L power:+3.3V #PWR0123
U 1 1 5C55097F
P 5500 5050
F 0 "#PWR0123" H 5500 4900 50  0001 C CNN
F 1 "+3.3V" V 5515 5178 50  0000 L CNN
F 2 "" H 5500 5050 50  0001 C CNN
F 3 "" H 5500 5050 50  0001 C CNN
	1    5500 5050
	0    1    1    0   
$EndComp
$Comp
L power:+3.3V #PWR0124
U 1 1 5C541455
P 2900 5050
F 0 "#PWR0124" H 2900 4900 50  0001 C CNN
F 1 "+3.3V" V 2915 5178 50  0000 L CNN
F 2 "" H 2900 5050 50  0001 C CNN
F 3 "" H 2900 5050 50  0001 C CNN
	1    2900 5050
	0    1    1    0   
$EndComp
$Comp
L Connector:Conn_01x01_Female J1
U 1 1 5C53E0C6
P 750 7000
F 0 "J1" V 597 7048 50  0000 L CNN
F 1 "V3.3" V 688 7048 50  0000 L CNN
F 2 "Connector_PinHeader_1.00mm:PinHeader_1x01_P1.00mm_Vertical" H 750 7000 50  0001 C CNN
F 3 "~" H 750 7000 50  0001 C CNN
	1    750  7000
	0    1    1    0   
$EndComp
$Comp
L Connector:Conn_01x01_Female J3
U 1 1 5C53E302
P 1050 7000
F 0 "J3" V 897 7048 50  0000 L CNN
F 1 "V3.3" V 988 7048 50  0000 L CNN
F 2 "Connector_PinHeader_1.00mm:PinHeader_1x01_P1.00mm_Vertical" H 1050 7000 50  0001 C CNN
F 3 "~" H 1050 7000 50  0001 C CNN
	1    1050 7000
	0    1    1    0   
$EndComp
$Comp
L Connector:Conn_01x01_Female J6
U 1 1 5C541B04
P 1350 7000
F 0 "J6" V 1197 7048 50  0000 L CNN
F 1 "V3.3" V 1288 7048 50  0000 L CNN
F 2 "Connector_PinHeader_1.00mm:PinHeader_1x01_P1.00mm_Vertical" H 1350 7000 50  0001 C CNN
F 3 "~" H 1350 7000 50  0001 C CNN
	1    1350 7000
	0    1    1    0   
$EndComp
$Comp
L Connector:Conn_01x01_Female J10
U 1 1 5C541B0A
P 1650 7000
F 0 "J10" V 1497 7048 50  0000 L CNN
F 1 "V3.3" V 1588 7048 50  0000 L CNN
F 2 "Connector_PinHeader_1.00mm:PinHeader_1x01_P1.00mm_Vertical" H 1650 7000 50  0001 C CNN
F 3 "~" H 1650 7000 50  0001 C CNN
	1    1650 7000
	0    1    1    0   
$EndComp
$Comp
L Connector:Conn_01x01_Female J12
U 1 1 5C5456A4
P 1950 7000
F 0 "J12" V 1797 7048 50  0000 L CNN
F 1 "V3.3" V 1888 7048 50  0000 L CNN
F 2 "Connector_PinHeader_1.00mm:PinHeader_1x01_P1.00mm_Vertical" H 1950 7000 50  0001 C CNN
F 3 "~" H 1950 7000 50  0001 C CNN
	1    1950 7000
	0    1    1    0   
$EndComp
$Comp
L Connector:Conn_01x01_Female J14
U 1 1 5C5456AA
P 2250 7000
F 0 "J14" V 2097 7048 50  0000 L CNN
F 1 "V3.3" V 2188 7048 50  0000 L CNN
F 2 "Connector_PinHeader_1.00mm:PinHeader_1x01_P1.00mm_Vertical" H 2250 7000 50  0001 C CNN
F 3 "~" H 2250 7000 50  0001 C CNN
	1    2250 7000
	0    1    1    0   
$EndComp
$Comp
L Connector:Conn_01x01_Female J16
U 1 1 5C5456B0
P 2550 7000
F 0 "J16" V 2397 7048 50  0000 L CNN
F 1 "V3.3" V 2488 7048 50  0000 L CNN
F 2 "Connector_PinHeader_1.00mm:PinHeader_1x01_P1.00mm_Vertical" H 2550 7000 50  0001 C CNN
F 3 "~" H 2550 7000 50  0001 C CNN
	1    2550 7000
	0    1    1    0   
$EndComp
$Comp
L Connector:Conn_01x01_Female J18
U 1 1 5C5456B6
P 2850 7000
F 0 "J18" V 2697 7048 50  0000 L CNN
F 1 "V3.3" V 2788 7048 50  0000 L CNN
F 2 "Connector_PinHeader_1.00mm:PinHeader_1x01_P1.00mm_Vertical" H 2850 7000 50  0001 C CNN
F 3 "~" H 2850 7000 50  0001 C CNN
	1    2850 7000
	0    1    1    0   
$EndComp
$Comp
L Connector:Conn_01x01_Female J2
U 1 1 5C550592
P 750 7100
F 0 "J2" V 690 7012 50  0000 R CNN
F 1 "GND" V 599 7012 50  0000 R CNN
F 2 "Connector_PinHeader_1.00mm:PinHeader_1x01_P1.00mm_Vertical" H 750 7100 50  0001 C CNN
F 3 "~" H 750 7100 50  0001 C CNN
	1    750  7100
	0    -1   -1   0   
$EndComp
$Comp
L Connector:Conn_01x01_Female J4
U 1 1 5C550C30
P 1050 7100
F 0 "J4" V 990 7012 50  0000 R CNN
F 1 "GND" V 899 7012 50  0000 R CNN
F 2 "Connector_PinHeader_1.00mm:PinHeader_1x01_P1.00mm_Vertical" H 1050 7100 50  0001 C CNN
F 3 "~" H 1050 7100 50  0001 C CNN
	1    1050 7100
	0    -1   -1   0   
$EndComp
$Comp
L Connector:Conn_01x01_Female J7
U 1 1 5C554312
P 1350 7100
F 0 "J7" V 1290 7012 50  0000 R CNN
F 1 "GND" V 1199 7012 50  0000 R CNN
F 2 "Connector_PinHeader_1.00mm:PinHeader_1x01_P1.00mm_Vertical" H 1350 7100 50  0001 C CNN
F 3 "~" H 1350 7100 50  0001 C CNN
	1    1350 7100
	0    -1   -1   0   
$EndComp
$Comp
L Connector:Conn_01x01_Female J11
U 1 1 5C554318
P 1650 7100
F 0 "J11" V 1590 7012 50  0000 R CNN
F 1 "GND" V 1499 7012 50  0000 R CNN
F 2 "Connector_PinHeader_1.00mm:PinHeader_1x01_P1.00mm_Vertical" H 1650 7100 50  0001 C CNN
F 3 "~" H 1650 7100 50  0001 C CNN
	1    1650 7100
	0    -1   -1   0   
$EndComp
$Comp
L Connector:Conn_01x01_Female J13
U 1 1 5C557B22
P 1950 7100
F 0 "J13" V 1890 7012 50  0000 R CNN
F 1 "GND" V 1799 7012 50  0000 R CNN
F 2 "Connector_PinHeader_1.00mm:PinHeader_1x01_P1.00mm_Vertical" H 1950 7100 50  0001 C CNN
F 3 "~" H 1950 7100 50  0001 C CNN
	1    1950 7100
	0    -1   -1   0   
$EndComp
$Comp
L Connector:Conn_01x01_Female J15
U 1 1 5C557B28
P 2250 7100
F 0 "J15" V 2190 7012 50  0000 R CNN
F 1 "GND" V 2099 7012 50  0000 R CNN
F 2 "Connector_PinHeader_1.00mm:PinHeader_1x01_P1.00mm_Vertical" H 2250 7100 50  0001 C CNN
F 3 "~" H 2250 7100 50  0001 C CNN
	1    2250 7100
	0    -1   -1   0   
$EndComp
$Comp
L Connector:Conn_01x01_Female J17
U 1 1 5C557B2E
P 2550 7100
F 0 "J17" V 2490 7012 50  0000 R CNN
F 1 "GND" V 2399 7012 50  0000 R CNN
F 2 "Connector_PinHeader_1.00mm:PinHeader_1x01_P1.00mm_Vertical" H 2550 7100 50  0001 C CNN
F 3 "~" H 2550 7100 50  0001 C CNN
	1    2550 7100
	0    -1   -1   0   
$EndComp
$Comp
L Connector:Conn_01x01_Female J19
U 1 1 5C557B34
P 2850 7100
F 0 "J19" V 2790 7012 50  0000 R CNN
F 1 "GND" V 2699 7012 50  0000 R CNN
F 2 "Connector_PinHeader_1.00mm:PinHeader_1x01_P1.00mm_Vertical" H 2850 7100 50  0001 C CNN
F 3 "~" H 2850 7100 50  0001 C CNN
	1    2850 7100
	0    -1   -1   0   
$EndComp
$Comp
L power:GNDA #PWR0125
U 1 1 5C55B42C
P 750 7350
F 0 "#PWR0125" H 750 7100 50  0001 C CNN
F 1 "GNDA" H 755 7177 50  0000 C CNN
F 2 "" H 750 7350 50  0001 C CNN
F 3 "" H 750 7350 50  0001 C CNN
	1    750  7350
	1    0    0    -1  
$EndComp
$Comp
L power:GNDA #PWR0126
U 1 1 5C55B622
P 1050 7350
F 0 "#PWR0126" H 1050 7100 50  0001 C CNN
F 1 "GNDA" H 1055 7177 50  0000 C CNN
F 2 "" H 1050 7350 50  0001 C CNN
F 3 "" H 1050 7350 50  0001 C CNN
	1    1050 7350
	1    0    0    -1  
$EndComp
$Comp
L power:GNDA #PWR0127
U 1 1 5C55ED38
P 1350 7350
F 0 "#PWR0127" H 1350 7100 50  0001 C CNN
F 1 "GNDA" H 1355 7177 50  0000 C CNN
F 2 "" H 1350 7350 50  0001 C CNN
F 3 "" H 1350 7350 50  0001 C CNN
	1    1350 7350
	1    0    0    -1  
$EndComp
$Comp
L power:GNDA #PWR0128
U 1 1 5C55ED3E
P 1650 7350
F 0 "#PWR0128" H 1650 7100 50  0001 C CNN
F 1 "GNDA" H 1655 7177 50  0000 C CNN
F 2 "" H 1650 7350 50  0001 C CNN
F 3 "" H 1650 7350 50  0001 C CNN
	1    1650 7350
	1    0    0    -1  
$EndComp
$Comp
L power:GNDA #PWR0129
U 1 1 5C56276C
P 1950 7350
F 0 "#PWR0129" H 1950 7100 50  0001 C CNN
F 1 "GNDA" H 1955 7177 50  0000 C CNN
F 2 "" H 1950 7350 50  0001 C CNN
F 3 "" H 1950 7350 50  0001 C CNN
	1    1950 7350
	1    0    0    -1  
$EndComp
$Comp
L power:GNDA #PWR0130
U 1 1 5C562772
P 2250 7350
F 0 "#PWR0130" H 2250 7100 50  0001 C CNN
F 1 "GNDA" H 2255 7177 50  0000 C CNN
F 2 "" H 2250 7350 50  0001 C CNN
F 3 "" H 2250 7350 50  0001 C CNN
	1    2250 7350
	1    0    0    -1  
$EndComp
$Comp
L power:GNDA #PWR0131
U 1 1 5C562778
P 2550 7350
F 0 "#PWR0131" H 2550 7100 50  0001 C CNN
F 1 "GNDA" H 2555 7177 50  0000 C CNN
F 2 "" H 2550 7350 50  0001 C CNN
F 3 "" H 2550 7350 50  0001 C CNN
	1    2550 7350
	1    0    0    -1  
$EndComp
$Comp
L power:GNDA #PWR0132
U 1 1 5C56277E
P 2850 7350
F 0 "#PWR0132" H 2850 7100 50  0001 C CNN
F 1 "GNDA" H 2855 7177 50  0000 C CNN
F 2 "" H 2850 7350 50  0001 C CNN
F 3 "" H 2850 7350 50  0001 C CNN
	1    2850 7350
	1    0    0    -1  
$EndComp
Wire Wire Line
	750  7300 750  7350
Wire Wire Line
	1050 7300 1050 7350
Wire Wire Line
	1350 7300 1350 7350
Wire Wire Line
	1650 7300 1650 7350
Wire Wire Line
	1950 7300 1950 7350
Wire Wire Line
	2250 7300 2250 7350
Wire Wire Line
	2550 7300 2550 7350
Wire Wire Line
	2850 7300 2850 7350
$Comp
L power:+3.3V #PWR0133
U 1 1 5C583B5D
P 750 6750
F 0 "#PWR0133" H 750 6600 50  0001 C CNN
F 1 "+3.3V" V 765 6878 50  0000 L CNN
F 2 "" H 750 6750 50  0001 C CNN
F 3 "" H 750 6750 50  0001 C CNN
	1    750  6750
	1    0    0    -1  
$EndComp
$Comp
L power:+3.3V #PWR0134
U 1 1 5C583CF4
P 1050 6750
F 0 "#PWR0134" H 1050 6600 50  0001 C CNN
F 1 "+3.3V" V 1065 6878 50  0000 L CNN
F 2 "" H 1050 6750 50  0001 C CNN
F 3 "" H 1050 6750 50  0001 C CNN
	1    1050 6750
	1    0    0    -1  
$EndComp
$Comp
L power:+3.3V #PWR0135
U 1 1 5C583D83
P 1350 6750
F 0 "#PWR0135" H 1350 6600 50  0001 C CNN
F 1 "+3.3V" V 1365 6878 50  0000 L CNN
F 2 "" H 1350 6750 50  0001 C CNN
F 3 "" H 1350 6750 50  0001 C CNN
	1    1350 6750
	1    0    0    -1  
$EndComp
$Comp
L power:+3.3V #PWR0136
U 1 1 5C583F1A
P 1650 6750
F 0 "#PWR0136" H 1650 6600 50  0001 C CNN
F 1 "+3.3V" V 1665 6878 50  0000 L CNN
F 2 "" H 1650 6750 50  0001 C CNN
F 3 "" H 1650 6750 50  0001 C CNN
	1    1650 6750
	1    0    0    -1  
$EndComp
$Comp
L power:+3.3V #PWR0137
U 1 1 5C583F20
P 1950 6750
F 0 "#PWR0137" H 1950 6600 50  0001 C CNN
F 1 "+3.3V" V 1965 6878 50  0000 L CNN
F 2 "" H 1950 6750 50  0001 C CNN
F 3 "" H 1950 6750 50  0001 C CNN
	1    1950 6750
	1    0    0    -1  
$EndComp
$Comp
L power:+3.3V #PWR0138
U 1 1 5C583F26
P 2250 6750
F 0 "#PWR0138" H 2250 6600 50  0001 C CNN
F 1 "+3.3V" V 2265 6878 50  0000 L CNN
F 2 "" H 2250 6750 50  0001 C CNN
F 3 "" H 2250 6750 50  0001 C CNN
	1    2250 6750
	1    0    0    -1  
$EndComp
$Comp
L power:+3.3V #PWR0139
U 1 1 5C587D9D
P 2550 6750
F 0 "#PWR0139" H 2550 6600 50  0001 C CNN
F 1 "+3.3V" V 2565 6878 50  0000 L CNN
F 2 "" H 2550 6750 50  0001 C CNN
F 3 "" H 2550 6750 50  0001 C CNN
	1    2550 6750
	1    0    0    -1  
$EndComp
$Comp
L power:+3.3V #PWR0140
U 1 1 5C587DA3
P 2850 6750
F 0 "#PWR0140" H 2850 6600 50  0001 C CNN
F 1 "+3.3V" V 2865 6878 50  0000 L CNN
F 2 "" H 2850 6750 50  0001 C CNN
F 3 "" H 2850 6750 50  0001 C CNN
	1    2850 6750
	1    0    0    -1  
$EndComp
Wire Wire Line
	750  6750 750  6800
Wire Wire Line
	1050 6750 1050 6800
Wire Wire Line
	1350 6750 1350 6800
Wire Wire Line
	1650 6750 1650 6800
Wire Wire Line
	1950 6750 1950 6800
Wire Wire Line
	2250 6750 2250 6800
Wire Wire Line
	2550 6750 2550 6800
Wire Wire Line
	2850 6750 2850 6800
$Comp
L SUPPLY_POWER-rescue:TP4056-TP4056-tp4056-tp4056 U3
U 1 1 5C5C867F
P 2900 3400
F 0 "U3" H 2900 3937 60  0000 C CNN
F 1 "TP4056-TP4056" H 2900 3831 60  0000 C CNN
F 2 "Package_SO:HSOP-8-1EP_3.9x4.9mm_P1.27mm_EP2.41x3.1mm" H 2900 3400 60  0001 C CNN
F 3 "" H 2900 3400 60  0000 C CNN
	1    2900 3400
	1    0    0    -1  
$EndComp
$Comp
L Device:R R8
U 1 1 5C5C8692
P 3600 3700
F 0 "R8" H 3650 3900 50  0000 L CNN
F 1 "1.5K" V 3600 3600 50  0000 L CNN
F 2 "Resistor_SMD:R_1206_3216Metric" V 3530 3700 50  0001 C CNN
F 3 "~" H 3600 3700 50  0001 C CNN
F 4 "R_Prog" H 3600 3700 50  0001 C CNN "Fab"
	1    3600 3700
	1    0    0    -1  
$EndComp
Wire Wire Line
	3600 3550 3400 3550
Wire Wire Line
	2300 3150 2300 2850
Wire Wire Line
	2300 3150 2400 3150
Wire Wire Line
	2400 3250 2300 3250
Wire Wire Line
	2300 3250 2300 3150
Connection ~ 2300 3150
$Comp
L pspice:CAP C3
U 1 1 5C5C86B2
P 2300 3900
F 0 "C3" H 2478 3946 50  0000 L CNN
F 1 "1 uF" H 2478 3855 50  0000 L CNN
F 2 "Capacitor_SMD:C_1206_3216Metric" H 2300 3900 50  0001 C CNN
F 3 "~" H 2300 3900 50  0001 C CNN
	1    2300 3900
	1    0    0    -1  
$EndComp
Wire Wire Line
	2300 3650 2300 3250
Connection ~ 2300 3250
Wire Wire Line
	2300 4150 2300 4400
Wire Wire Line
	2300 4400 2900 4400
Wire Wire Line
	3600 4400 3600 3850
Wire Wire Line
	3400 3450 3450 3450
Wire Wire Line
	3450 3450 3450 4400
Connection ~ 3450 4400
Wire Wire Line
	3450 4400 3600 4400
Connection ~ 2900 4400
Wire Wire Line
	2900 4400 3450 4400
Wire Wire Line
	3700 3050 3700 3150
Wire Wire Line
	3700 3150 3400 3150
$Comp
L power:GNDA #PWR0141
U 1 1 5C5C86F5
P 2900 4400
F 0 "#PWR0141" H 2900 4150 50  0001 C CNN
F 1 "GNDA" H 2905 4227 50  0000 C CNN
F 2 "" H 2900 4400 50  0001 C CNN
F 3 "" H 2900 4400 50  0001 C CNN
	1    2900 4400
	1    0    0    -1  
$EndComp
$Comp
L Connector:Conn_01x02_Female J21
U 1 1 5C5C8727
P 10500 1950
F 0 "J21" H 10528 1926 50  0000 L CNN
F 1 "BATERIA" H 10528 1835 50  0000 L CNN
F 2 "Connector_PinHeader_1.00mm:PinHeader_1x02_P1.00mm_Vertical" H 10500 1950 50  0001 C CNN
F 3 "~" H 10500 1950 50  0001 C CNN
	1    10500 1950
	1    0    0    -1  
$EndComp
$Comp
L Connector:Conn_01x02_Female J23
U 1 1 5C5C8752
P 10550 2950
F 0 "J23" H 10578 2926 50  0000 L CNN
F 1 "OUT_CIR_CARGA" H 10578 2835 50  0000 L CNN
F 2 "Connector_PinHeader_1.00mm:PinHeader_1x02_P1.00mm_Vertical" H 10550 2950 50  0001 C CNN
F 3 "~" H 10550 2950 50  0001 C CNN
	1    10550 2950
	1    0    0    -1  
$EndComp
$Comp
L pspice:CAP C12
U 1 1 5C5C8767
P 8450 2450
F 0 "C12" H 8628 2496 50  0000 L CNN
F 1 "10 uF" H 8628 2405 50  0000 L CNN
F 2 "Capacitor_Tantalum_SMD:CP_EIA-2012-12_Kemet-R_Pad1.25x1.10mm_HandSolder" H 8450 2450 50  0001 C CNN
F 3 "~" H 8450 2450 50  0001 C CNN
	1    8450 2450
	1    0    0    -1  
$EndComp
Wire Wire Line
	8450 2000 8450 2200
$Comp
L power:GNDA #PWR0146
U 1 1 5C5C8774
P 8450 2900
F 0 "#PWR0146" H 8450 2650 50  0001 C CNN
F 1 "GNDA" H 8455 2727 50  0000 C CNN
F 2 "" H 8450 2900 50  0001 C CNN
F 3 "" H 8450 2900 50  0001 C CNN
	1    8450 2900
	1    0    0    -1  
$EndComp
Wire Wire Line
	8450 2700 8450 2900
$Comp
L Device:R_Small R2
U 1 1 5C5C877B
P 1650 2850
F 0 "R2" V 1750 2900 50  0000 C CNN
F 1 "0.4" V 1650 2850 50  0000 C CNN
F 2 "Resistor_SMD:R_1206_3216Metric" H 1650 2850 50  0001 C CNN
F 3 "~" H 1650 2850 50  0001 C CNN
	1    1650 2850
	0    1    1    0   
$EndComp
Text Notes 1500 2800 0    50   ~ 0
0.2 -0.4
Text Notes 3750 4000 1    50   ~ 0
10k - 1.2k
Wire Wire Line
	1100 900  1450 900 
Wire Wire Line
	1100 2850 1550 2850
Connection ~ 1450 900 
Wire Wire Line
	2900 1850 2900 2450
Wire Wire Line
	2900 3800 2900 4400
Text GLabel 1100 900  0    50   Input ~ 0
Panel_in
Text GLabel 1100 2850 0    50   Input ~ 0
Panel_in
$Comp
L power:+BATT #PWR01
U 1 1 5C6A1520
P 3700 3050
F 0 "#PWR01" H 3700 2900 50  0001 C CNN
F 1 "+BATT" H 3715 3223 50  0000 C CNN
F 2 "" H 3700 3050 50  0001 C CNN
F 3 "" H 3700 3050 50  0001 C CNN
	1    3700 3050
	1    0    0    -1  
$EndComp
$Comp
L SUPPLY_POWER-rescue:FS8205A-POWER_SUPPLY U5
U 1 1 5C6A1E88
P 7050 2950
F 0 "U5" H 7050 3565 50  0000 C CNN
F 1 "FS8205A" H 7050 3474 50  0000 C CNN
F 2 "Package_TO_SOT_SMD:SuperSOT-8" H 7050 2950 50  0001 C CNN
F 3 "" H 7050 2950 50  0001 C CNN
	1    7050 2950
	1    0    0    -1  
$EndComp
Text GLabel 6500 3000 0    50   Input ~ 0
G1
Wire Wire Line
	6500 3000 6750 3000
Wire Wire Line
	6750 2900 6650 2900
Wire Wire Line
	6650 2900 6650 2800
Wire Wire Line
	6650 2800 6750 2800
Connection ~ 6650 2800
Wire Wire Line
	7350 2800 7450 2800
Wire Wire Line
	7450 2800 7450 2900
Wire Wire Line
	7450 2900 7350 2900
Wire Wire Line
	7650 2800 7450 2800
Connection ~ 7450 2800
Text GLabel 7650 3000 2    50   Input ~ 0
G2
Wire Wire Line
	7650 3000 7350 3000
Wire Wire Line
	6400 2800 6650 2800
$Comp
L power:-BATT #PWR02
U 1 1 5C6A1E9D
P 6400 2800
F 0 "#PWR02" H 6400 2650 50  0001 C CNN
F 1 "-BATT" V 6415 2927 50  0000 L CNN
F 2 "" H 6400 2800 50  0001 C CNN
F 3 "" H 6400 2800 50  0001 C CNN
	1    6400 2800
	0    -1   -1   0   
$EndComp
$Comp
L power:GNDA #PWR03
U 1 1 5C6A1EA3
P 7650 2800
F 0 "#PWR03" H 7650 2550 50  0001 C CNN
F 1 "GNDA" V 7655 2672 50  0000 R CNN
F 2 "" H 7650 2800 50  0001 C CNN
F 3 "" H 7650 2800 50  0001 C CNN
	1    7650 2800
	0    -1   -1   0   
$EndComp
$Comp
L power:+BATT #PWR04
U 1 1 5C6BBE42
P 8450 2000
F 0 "#PWR04" H 8450 1850 50  0001 C CNN
F 1 "+BATT" H 8465 2173 50  0000 C CNN
F 2 "" H 8450 2000 50  0001 C CNN
F 3 "" H 8450 2000 50  0001 C CNN
	1    8450 2000
	1    0    0    -1  
$EndComp
Wire Wire Line
	10050 1950 10150 1950
Wire Wire Line
	10300 2250 10150 2250
Wire Wire Line
	10150 2250 10150 1950
Connection ~ 10150 1950
Wire Wire Line
	10150 1950 10300 1950
Wire Wire Line
	10050 2350 10200 2350
Wire Wire Line
	10300 2050 10200 2050
Wire Wire Line
	10200 2050 10200 2350
Connection ~ 10200 2350
Wire Wire Line
	10200 2350 10300 2350
Wire Wire Line
	10050 2750 10200 2750
Wire Wire Line
	10350 3050 10200 3050
Wire Wire Line
	10200 3050 10200 2750
Connection ~ 10200 2750
Wire Wire Line
	10200 2750 10350 2750
Wire Wire Line
	10350 2950 10300 2950
Wire Wire Line
	10300 2950 10300 2650
Wire Wire Line
	10300 2650 10350 2650
Wire Wire Line
	10300 2650 10150 2650
Wire Wire Line
	10150 2650 10150 2250
Connection ~ 10300 2650
Connection ~ 10150 2250
Wire Wire Line
	1750 2850 2300 2850
Wire Wire Line
	1750 900  2300 900 
$EndSCHEMATC
