EESchema Schematic File Version 4
LIBS:FrosTool-node-cache
EELAYER 26 0
EELAYER END
$Descr A4 11693 8268
encoding utf-8
Sheet 1 1
Title "FrosTool V2 Node"
Date ""
Rev "1A"
Comp "Eco-Tec"
Comment1 "fAndReS"
Comment2 "@mau_rinc2010"
Comment3 "Se distribuye bajo una Licencia Creative Commons Atribución-CompartirIgual 4.0 "
Comment4 ""
$EndDescr
$Comp
L Switch:SW_Push SW1
U 1 1 5C4A8632
P 3900 2000
F 0 "SW1" V 3854 2148 50  0000 L CNN
F 1 "SW_Push" V 3945 2148 50  0000 L CNN
F 2 "Button_Switch_SMD:SW_SPST_CK_RS282G05A3" H 3900 2200 50  0001 C CNN
F 3 "" H 3900 2200 50  0001 C CNN
	1    3900 2000
	0    1    1    0   
$EndComp
$Comp
L Device:R R1
U 1 1 5C4A8836
P 3900 1400
F 0 "R1" H 3970 1446 50  0000 L CNN
F 1 "10 K" H 3970 1355 50  0000 L CNN
F 2 "Resistor_SMD:R_1206_3216Metric" V 3830 1400 50  0001 C CNN
F 3 "~" H 3900 1400 50  0001 C CNN
	1    3900 1400
	1    0    0    -1  
$EndComp
Wire Wire Line
	3900 1800 3900 1750
Wire Wire Line
	3900 1100 3900 1250
$Comp
L power:GNDD #PWR01
U 1 1 5C4A8930
P 3900 2400
F 0 "#PWR01" H 3900 2150 50  0001 C CNN
F 1 "GNDD" H 3904 2245 50  0000 C CNN
F 2 "" H 3900 2400 50  0001 C CNN
F 3 "" H 3900 2400 50  0001 C CNN
	1    3900 2400
	1    0    0    -1  
$EndComp
Wire Wire Line
	3900 2400 3900 2200
Text GLabel 4150 1750 2    50   Input ~ 0
EN
Wire Wire Line
	4150 1750 3900 1750
Connection ~ 3900 1750
Wire Wire Line
	3900 1750 3900 1550
$Comp
L Switch:SW_Push SW2
U 1 1 5C4A8AFA
P 4600 2000
F 0 "SW2" V 4554 2148 50  0000 L CNN
F 1 "SW_Push" V 4645 2148 50  0000 L CNN
F 2 "Button_Switch_SMD:SW_SPST_CK_RS282G05A3" H 4600 2200 50  0001 C CNN
F 3 "" H 4600 2200 50  0001 C CNN
	1    4600 2000
	0    1    1    0   
$EndComp
$Comp
L Device:R R2
U 1 1 5C4A8B01
P 4600 1400
F 0 "R2" H 4670 1446 50  0000 L CNN
F 1 "10 K" H 4670 1355 50  0000 L CNN
F 2 "Resistor_SMD:R_1206_3216Metric" V 4530 1400 50  0001 C CNN
F 3 "~" H 4600 1400 50  0001 C CNN
	1    4600 1400
	1    0    0    -1  
$EndComp
Wire Wire Line
	4600 1800 4600 1750
Wire Wire Line
	4600 1100 4600 1250
$Comp
L power:GNDD #PWR02
U 1 1 5C4A8B0B
P 4600 2400
F 0 "#PWR02" H 4600 2150 50  0001 C CNN
F 1 "GNDD" H 4604 2245 50  0000 C CNN
F 2 "" H 4600 2400 50  0001 C CNN
F 3 "" H 4600 2400 50  0001 C CNN
	1    4600 2400
	1    0    0    -1  
$EndComp
Wire Wire Line
	4600 2400 4600 2200
Text GLabel 4850 1750 2    50   Input ~ 0
D0
Wire Wire Line
	4850 1750 4600 1750
Connection ~ 4600 1750
Wire Wire Line
	4600 1750 4600 1550
Text GLabel 2500 4600 0    50   Input ~ 0
EN
Text GLabel 4100 4700 2    50   Input ~ 0
Tx
Wire Wire Line
	4100 4700 3900 4700
Wire Wire Line
	4100 4900 3900 4900
$Comp
L Connector:Conn_01x05_Female J1
U 1 1 5C4A98CF
P 1700 1200
F 0 "J1" H 1728 1226 50  0000 L CNN
F 1 "Program Port" H 1728 1135 50  0000 L CNN
F 2 "Connector_PinHeader_1.00mm:PinHeader_1x05_P1.00mm_Vertical" H 1700 1200 50  0001 C CNN
F 3 "~" H 1700 1200 50  0001 C CNN
	1    1700 1200
	1    0    0    -1  
$EndComp
$Comp
L power:GNDD #PWR05
U 1 1 5C4A99BB
P 1400 1450
F 0 "#PWR05" H 1400 1200 50  0001 C CNN
F 1 "GNDD" H 1404 1295 50  0000 C CNN
F 2 "" H 1400 1450 50  0001 C CNN
F 3 "" H 1400 1450 50  0001 C CNN
	1    1400 1450
	1    0    0    -1  
$EndComp
Wire Wire Line
	1400 1450 1400 1400
Wire Wire Line
	1400 1400 1500 1400
Text GLabel 1250 1300 0    50   Input ~ 0
Tx
Text GLabel 1250 1000 0    50   Input ~ 0
EN
Text GLabel 1250 1100 0    50   Input ~ 0
D0
Wire Wire Line
	1250 1000 1500 1000
Wire Wire Line
	1500 1100 1250 1100
Wire Wire Line
	1250 1200 1500 1200
Wire Wire Line
	1500 1300 1250 1300
Text GLabel 4100 6100 2    50   Input ~ 0
DTH_PIN_2
Text GLabel 4100 6200 2    50   Input ~ 0
DTH_PIN_1
Text GLabel 4100 6000 2    50   Input ~ 0
IO21
Text GLabel 4100 5800 2    50   Input ~ 0
NSS
Text GLabel 4100 5100 2    50   Input ~ 0
SCK
Text GLabel 4100 5600 2    50   Input ~ 0
RX2
Text GLabel 4100 5700 2    50   Input ~ 0
TX2
Text GLabel 4100 5000 2    50   Input ~ 0
IO4
Text GLabel 4100 4600 2    50   Input ~ 0
IO0
Wire Wire Line
	4100 6100 3900 6100
Wire Wire Line
	4100 6200 3900 6200
Wire Wire Line
	4100 6000 3900 6000
Wire Wire Line
	4100 5800 3900 5800
Wire Wire Line
	4100 5100 3900 5100
Wire Wire Line
	4100 5600 3900 5600
Wire Wire Line
	4100 5700 3900 5700
Wire Wire Line
	4100 5000 3900 5000
Wire Wire Line
	4100 4600 3900 4600
Text GLabel 2500 4800 0    50   Input ~ 0
SVP
Text GLabel 2500 4900 0    50   Input ~ 0
SVN
Text GLabel 4100 6800 2    50   Input ~ 0
ADC1_6
Text GLabel 4100 6900 2    50   Input ~ 0
IO35
Text GLabel 4100 6600 2    50   Input ~ 0
IO32
Text GLabel 4100 6700 2    50   Input ~ 0
IO33
Text GLabel 4100 6300 2    50   Input ~ 0
IO25
Text GLabel 4100 6400 2    50   Input ~ 0
DIO0
Text GLabel 4100 6500 2    50   Input ~ 0
MOSI
Text GLabel 4100 5400 2    50   Input ~ 0
RST
Text GLabel 4100 5200 2    50   Input ~ 0
IO12
Text GLabel 4100 5300 2    50   Input ~ 0
IO13
Text GLabel 4100 5500 2    50   Input ~ 0
IO15
Text GLabel 4100 4800 2    50   Input ~ 0
IO2
Wire Wire Line
	4100 4800 3900 4800
Wire Wire Line
	4100 5500 3900 5500
Wire Wire Line
	2700 5900 2500 5900
Wire Wire Line
	2700 5800 2500 5800
Wire Wire Line
	2700 6200 2500 6200
Wire Wire Line
	2700 6300 2500 6300
Wire Wire Line
	2700 6100 2500 6100
Wire Wire Line
	2700 6000 2500 6000
Wire Wire Line
	4100 5300 3900 5300
$Comp
L power:+3.3V #PWR013
U 1 1 5C6DD6EF
P 3900 1100
F 0 "#PWR013" H 3900 950 50  0001 C CNN
F 1 "+3.3V" H 3915 1273 50  0000 C CNN
F 2 "" H 3900 1100 50  0001 C CNN
F 3 "" H 3900 1100 50  0001 C CNN
	1    3900 1100
	1    0    0    -1  
$EndComp
$Comp
L power:+3.3V #PWR014
U 1 1 5C6DD729
P 4600 1100
F 0 "#PWR014" H 4600 950 50  0001 C CNN
F 1 "+3.3V" H 4615 1273 50  0000 C CNN
F 2 "" H 4600 1100 50  0001 C CNN
F 3 "" H 4600 1100 50  0001 C CNN
	1    4600 1100
	1    0    0    -1  
$EndComp
$Comp
L FrosTool-node-rescue:E19-2ALPH-E19-2ALPH U?
U 1 1 5C6DF66C
P 8500 2350
AR Path="/5BF2F72F/5C6DF66C" Ref="U?"  Part="1" 
AR Path="/5C6DF66C" Ref="U1"  Part="1" 
F 0 "U1" H 8500 1578 50  0000 C CNN
F 1 "E19-2ALPH" H 8500 1487 50  0000 C CNN
F 2 "RF_Module:EBYTE_E19-2ALPH" H 8400 1350 50  0001 C CNN
F 3 "www.ebyte.com/en/downpdf.aspx?id=223" H 8500 1250 50  0001 C CNN
	1    8500 2350
	1    0    0    -1  
$EndComp
$Comp
L power:GNDD #PWR?
U 1 1 5C6DF673
P 9300 3000
AR Path="/5BF2F72F/5C6DF673" Ref="#PWR?"  Part="1" 
AR Path="/5C6DF673" Ref="#PWR010"  Part="1" 
F 0 "#PWR010" H 9300 2750 50  0001 C CNN
F 1 "GNDD" H 9304 2845 50  0000 C CNN
F 2 "" H 9300 3000 50  0001 C CNN
F 3 "" H 9300 3000 50  0001 C CNN
	1    9300 3000
	1    0    0    -1  
$EndComp
Wire Wire Line
	9300 3000 9300 2800
Wire Wire Line
	9300 2800 9200 2800
$Comp
L power:+3.3V #PWR?
U 1 1 5C6DF67B
P 9400 2700
AR Path="/5BF2F72F/5C6DF67B" Ref="#PWR?"  Part="1" 
AR Path="/5C6DF67B" Ref="#PWR012"  Part="1" 
F 0 "#PWR012" H 9400 2550 50  0001 C CNN
F 1 "+3.3V" V 9415 2828 50  0000 L CNN
F 2 "" H 9400 2700 50  0001 C CNN
F 3 "" H 9400 2700 50  0001 C CNN
	1    9400 2700
	0    1    1    0   
$EndComp
Wire Wire Line
	9400 2700 9200 2700
$Comp
L power:GNDD #PWR?
U 1 1 5C6DF682
P 7650 2000
AR Path="/5BF2F72F/5C6DF682" Ref="#PWR?"  Part="1" 
AR Path="/5C6DF682" Ref="#PWR08"  Part="1" 
F 0 "#PWR08" H 7650 1750 50  0001 C CNN
F 1 "GNDD" V 7654 1890 50  0000 R CNN
F 2 "" H 7650 2000 50  0001 C CNN
F 3 "" H 7650 2000 50  0001 C CNN
	1    7650 2000
	0    1    1    0   
$EndComp
$Comp
L power:GNDD #PWR?
U 1 1 5C6DF688
P 9350 2000
AR Path="/5BF2F72F/5C6DF688" Ref="#PWR?"  Part="1" 
AR Path="/5C6DF688" Ref="#PWR011"  Part="1" 
F 0 "#PWR011" H 9350 1750 50  0001 C CNN
F 1 "GNDD" V 9354 1890 50  0000 R CNN
F 2 "" H 9350 2000 50  0001 C CNN
F 3 "" H 9350 2000 50  0001 C CNN
	1    9350 2000
	0    -1   -1   0   
$EndComp
Wire Wire Line
	9350 2000 9200 2000
Wire Wire Line
	7800 2000 7650 2000
Text GLabel 9400 2600 2    50   Input ~ 0
SCK
Wire Wire Line
	9400 2600 9200 2600
Text GLabel 9400 2500 2    50   Input ~ 0
MISO
Text GLabel 9400 2400 2    50   Input ~ 0
MOSI
Wire Wire Line
	9400 2400 9200 2400
Wire Wire Line
	9400 2500 9200 2500
Text GLabel 9400 2300 2    50   Input ~ 0
NSS
Wire Wire Line
	9400 2300 9200 2300
Text GLabel 7650 2700 0    50   Input ~ 0
RST
Text GLabel 7650 2500 0    50   Input ~ 0
DIO1
Text GLabel 7650 2600 0    50   Input ~ 0
DIO0
Text GLabel 7650 2400 0    50   Input ~ 0
DIO2
Text GLabel 7650 2300 0    50   Input ~ 0
DIO3
Text GLabel 7650 2200 0    50   Input ~ 0
DIO4
Text GLabel 7650 2100 0    50   Input ~ 0
DIO5
Text GLabel 9400 2100 2    50   Input ~ 0
RXEN
Text GLabel 9400 2200 2    50   Input ~ 0
TXEN
Wire Wire Line
	9200 2200 9400 2200
Wire Wire Line
	9400 2100 9200 2100
Wire Wire Line
	7800 2100 7650 2100
Wire Wire Line
	7650 2200 7800 2200
Wire Wire Line
	7800 2300 7650 2300
Wire Wire Line
	7650 2400 7800 2400
Wire Wire Line
	7800 2500 7650 2500
Wire Wire Line
	7800 2600 7650 2600
Wire Wire Line
	7800 2700 7650 2700
$Comp
L power:GNDD #PWR?
U 1 1 5C6DF6AA
P 8450 1250
AR Path="/5BF2F72F/5C6DF6AA" Ref="#PWR?"  Part="1" 
AR Path="/5C6DF6AA" Ref="#PWR09"  Part="1" 
F 0 "#PWR09" H 8450 1000 50  0001 C CNN
F 1 "GNDD" H 8454 1095 50  0000 C CNN
F 2 "" H 8450 1250 50  0001 C CNN
F 3 "" H 8450 1250 50  0001 C CNN
	1    8450 1250
	-1   0    0    1   
$EndComp
Wire Wire Line
	8250 1250 8250 1450
Wire Wire Line
	8650 1450 8650 1250
Wire Wire Line
	8650 1250 8450 1250
Wire Wire Line
	8350 1450 8350 1250
Connection ~ 8350 1250
Connection ~ 8450 1250
Wire Wire Line
	8450 1250 8350 1250
Wire Wire Line
	8250 1250 8350 1250
$Comp
L Device:R R3
U 1 1 5C6EA00E
P 1450 2850
F 0 "R3" H 1520 2896 50  0000 L CNN
F 1 "5.1 K" H 1520 2805 50  0000 L CNN
F 2 "Resistor_SMD:R_1206_3216Metric" V 1380 2850 50  0001 C CNN
F 3 "~" H 1450 2850 50  0001 C CNN
	1    1450 2850
	1    0    0    -1  
$EndComp
$Comp
L Device:R R4
U 1 1 5C6EA110
P 1450 3250
F 0 "R4" H 1520 3296 50  0000 L CNN
F 1 "1.6 K" H 1520 3205 50  0000 L CNN
F 2 "Resistor_SMD:R_1206_3216Metric" V 1380 3250 50  0001 C CNN
F 3 "~" H 1450 3250 50  0001 C CNN
	1    1450 3250
	1    0    0    -1  
$EndComp
Wire Wire Line
	1450 3100 1450 3050
$Comp
L power:GNDD #PWR07
U 1 1 5C6EC347
P 1450 3500
F 0 "#PWR07" H 1450 3250 50  0001 C CNN
F 1 "GNDD" H 1454 3345 50  0000 C CNN
F 2 "" H 1450 3500 50  0001 C CNN
F 3 "" H 1450 3500 50  0001 C CNN
	1    1450 3500
	1    0    0    -1  
$EndComp
Wire Wire Line
	1450 3400 1450 3500
$Comp
L power:+BATT #PWR06
U 1 1 5C6EE65B
P 1450 2450
F 0 "#PWR06" H 1450 2300 50  0001 C CNN
F 1 "+BATT" H 1465 2623 50  0000 C CNN
F 2 "" H 1450 2450 50  0001 C CNN
F 3 "" H 1450 2450 50  0001 C CNN
	1    1450 2450
	1    0    0    -1  
$EndComp
Text GLabel 1700 3050 2    50   Input ~ 0
ADC1_6
Wire Wire Line
	1700 3050 1450 3050
Connection ~ 1450 3050
Wire Wire Line
	1450 3050 1450 3000
Text GLabel 5250 6050 0    50   Input ~ 0
IO21
Text GLabel 5200 5450 0    50   Input ~ 0
IO4
Text GLabel 5200 5150 0    50   Input ~ 0
IO0
Text GLabel 9400 5000 0    50   Input ~ 0
SVP
Text GLabel 9400 5100 0    50   Input ~ 0
SVN
Text GLabel 5250 6650 0    50   Input ~ 0
IO35
Text GLabel 5250 6350 0    50   Input ~ 0
IO32
Text GLabel 5250 6500 0    50   Input ~ 0
IO33
Text GLabel 5250 6200 0    50   Input ~ 0
IO25
Text GLabel 5250 5600 0    50   Input ~ 0
IO12
$Comp
L Connector:Conn_01x03_Male J6
U 1 1 5C73F884
P 9850 4400
F 0 "J6" H 9823 4330 50  0000 R CNN
F 1 "COM" H 9823 4421 50  0000 R CNN
F 2 "Connector_PinHeader_1.00mm:PinHeader_1x03_P1.00mm_Vertical" H 9850 4400 50  0001 C CNN
F 3 "~" H 9850 4400 50  0001 C CNN
	1    9850 4400
	-1   0    0    1   
$EndComp
Text GLabel 9400 4300 0    50   Input ~ 0
TX2
Text GLabel 9400 4400 0    50   Input ~ 0
RX2
$Comp
L power:GNDD #PWR016
U 1 1 5C73F9BA
P 9400 4500
F 0 "#PWR016" H 9400 4250 50  0001 C CNN
F 1 "GNDD" V 9404 4390 50  0000 R CNN
F 2 "" H 9400 4500 50  0001 C CNN
F 3 "" H 9400 4500 50  0001 C CNN
	1    9400 4500
	0    1    1    0   
$EndComp
Wire Wire Line
	9400 4500 9650 4500
Wire Wire Line
	9650 4400 9400 4400
Wire Wire Line
	9400 4300 9650 4300
$Comp
L Connector:Conn_01x02_Male J4
U 1 1 5C74AC08
P 9850 4800
F 0 "J4" H 9823 4680 50  0000 R CNN
F 1 "DTH" H 9823 4771 50  0000 R CNN
F 2 "Connector_PinHeader_1.00mm:PinHeader_1x02_P1.00mm_Vertical" H 9850 4800 50  0001 C CNN
F 3 "~" H 9850 4800 50  0001 C CNN
	1    9850 4800
	-1   0    0    1   
$EndComp
Text GLabel 9400 4700 0    50   Input ~ 0
DTH_PIN_2
Text GLabel 9400 4800 0    50   Input ~ 0
DTH_PIN_1
Wire Wire Line
	9400 4800 9650 4800
Wire Wire Line
	9650 4700 9400 4700
$Comp
L RF_Module:ESP32-WROOM-32D U2
U 1 1 5C6F324F
P 3300 5800
F 0 "U2" H 3300 7378 50  0000 C CNN
F 1 "ESP32-WROOM-32D" H 3800 7200 50  0000 C CNN
F 2 "RF_Module:ESP32-WROOM-32" H 3300 4300 50  0001 C CNN
F 3 "https://www.espressif.com/sites/default/files/documentation/esp32-wroom-32d_esp32-wroom-32u_datasheet_en.pdf" H 3000 5850 50  0001 C CNN
	1    3300 5800
	1    0    0    -1  
$EndComp
Wire Wire Line
	2500 4600 2700 4600
Wire Wire Line
	2700 4900 2500 4900
Wire Wire Line
	2700 4800 2500 4800
Text GLabel 4100 5900 2    50   Input ~ 0
MISO
Wire Wire Line
	4100 5900 3900 5900
Wire Wire Line
	4100 6500 3900 6500
Wire Wire Line
	4100 5200 3900 5200
Wire Wire Line
	4100 5400 3900 5400
Wire Wire Line
	4100 6400 3900 6400
Wire Wire Line
	4100 6900 3900 6900
Wire Wire Line
	4100 6600 3900 6600
Wire Wire Line
	3900 6700 4100 6700
Wire Wire Line
	3900 6300 4100 6300
Wire Wire Line
	4100 6800 3900 6800
$Comp
L power:+3.3V #PWR03
U 1 1 5C828248
P 3300 4400
F 0 "#PWR03" H 3300 4250 50  0001 C CNN
F 1 "+3.3V" H 3150 4450 50  0000 C CNN
F 2 "" H 3300 4400 50  0001 C CNN
F 3 "" H 3300 4400 50  0001 C CNN
	1    3300 4400
	1    0    0    -1  
$EndComp
$Comp
L power:GNDD #PWR04
U 1 1 5C8282E8
P 3300 7200
F 0 "#PWR04" H 3300 6950 50  0001 C CNN
F 1 "GNDD" H 3304 7045 50  0000 C CNN
F 2 "" H 3300 7200 50  0001 C CNN
F 3 "" H 3300 7200 50  0001 C CNN
	1    3300 7200
	1    0    0    -1  
$EndComp
Text GLabel 5200 5300 0    50   Input ~ 0
IO2
Text GLabel 5250 5900 0    50   Input ~ 0
IO15
$Comp
L Connector:Conn_01x01_Female J5
U 1 1 5C8589C7
P 5600 5300
F 0 "J5" H 5627 5326 50  0000 L CNN
F 1 "2" H 5800 5300 50  0000 L CNN
F 2 "Connector_PinHeader_1.00mm:PinHeader_1x01_P1.00mm_Vertical" H 5600 5300 50  0001 C CNN
F 3 "~" H 5600 5300 50  0001 C CNN
	1    5600 5300
	1    0    0    -1  
$EndComp
$Comp
L Connector:Conn_01x01_Female J2
U 1 1 5C858A46
P 5600 5150
F 0 "J2" H 5627 5176 50  0000 L CNN
F 1 "0" H 5800 5150 50  0000 L CNN
F 2 "Connector_PinHeader_1.00mm:PinHeader_1x01_P1.00mm_Vertical" H 5600 5150 50  0001 C CNN
F 3 "~" H 5600 5150 50  0001 C CNN
	1    5600 5150
	1    0    0    -1  
$EndComp
$Comp
L Connector:Conn_01x01_Female J7
U 1 1 5C858A9D
P 5600 5450
F 0 "J7" H 5627 5476 50  0000 L CNN
F 1 "4" H 5800 5450 50  0000 L CNN
F 2 "Connector_PinHeader_1.00mm:PinHeader_1x01_P1.00mm_Vertical" H 5600 5450 50  0001 C CNN
F 3 "~" H 5600 5450 50  0001 C CNN
	1    5600 5450
	1    0    0    -1  
$EndComp
$Comp
L Connector:Conn_01x01_Female J8
U 1 1 5C858B37
P 5650 5600
F 0 "J8" H 5677 5626 50  0000 L CNN
F 1 "12" H 5850 5600 50  0000 L CNN
F 2 "Connector_PinHeader_1.00mm:PinHeader_1x01_P1.00mm_Vertical" H 5650 5600 50  0001 C CNN
F 3 "~" H 5650 5600 50  0001 C CNN
	1    5650 5600
	1    0    0    -1  
$EndComp
$Comp
L Connector:Conn_01x01_Female J10
U 1 1 5C858BF6
P 5650 5900
F 0 "J10" H 5677 5926 50  0000 L CNN
F 1 "15" H 5850 5900 50  0000 L CNN
F 2 "Connector_PinHeader_1.00mm:PinHeader_1x01_P1.00mm_Vertical" H 5650 5900 50  0001 C CNN
F 3 "~" H 5650 5900 50  0001 C CNN
	1    5650 5900
	1    0    0    -1  
$EndComp
$Comp
L Connector:Conn_01x01_Female J11
U 1 1 5C858C78
P 5600 6050
F 0 "J11" H 5627 6076 50  0000 L CNN
F 1 "21" H 5850 6050 50  0000 L CNN
F 2 "Connector_PinHeader_1.00mm:PinHeader_1x01_P1.00mm_Vertical" H 5600 6050 50  0001 C CNN
F 3 "~" H 5600 6050 50  0001 C CNN
	1    5600 6050
	1    0    0    -1  
$EndComp
$Comp
L Connector:Conn_01x01_Female J12
U 1 1 5C858CE6
P 5600 6200
F 0 "J12" H 5627 6226 50  0000 L CNN
F 1 "12" H 5850 6200 50  0000 L CNN
F 2 "Connector_PinHeader_1.00mm:PinHeader_1x01_P1.00mm_Vertical" H 5600 6200 50  0001 C CNN
F 3 "~" H 5600 6200 50  0001 C CNN
	1    5600 6200
	1    0    0    -1  
$EndComp
$Comp
L Connector:Conn_01x01_Female J13
U 1 1 5C858D76
P 5600 6350
F 0 "J13" H 5627 6376 50  0000 L CNN
F 1 "32" H 5850 6350 50  0000 L CNN
F 2 "Connector_PinHeader_1.00mm:PinHeader_1x01_P1.00mm_Vertical" H 5600 6350 50  0001 C CNN
F 3 "~" H 5600 6350 50  0001 C CNN
	1    5600 6350
	1    0    0    -1  
$EndComp
$Comp
L Connector:Conn_01x01_Female J14
U 1 1 5C858E44
P 5600 6500
F 0 "J14" H 5627 6526 50  0000 L CNN
F 1 "33" H 5850 6500 50  0000 L CNN
F 2 "Connector_PinHeader_1.00mm:PinHeader_1x01_P1.00mm_Vertical" H 5600 6500 50  0001 C CNN
F 3 "~" H 5600 6500 50  0001 C CNN
	1    5600 6500
	1    0    0    -1  
$EndComp
$Comp
L Connector:Conn_01x01_Female J15
U 1 1 5C858EE2
P 5600 6650
F 0 "J15" H 5627 6676 50  0000 L CNN
F 1 "15" H 5850 6650 50  0000 L CNN
F 2 "Connector_PinHeader_1.00mm:PinHeader_1x01_P1.00mm_Vertical" H 5600 6650 50  0001 C CNN
F 3 "~" H 5600 6650 50  0001 C CNN
	1    5600 6650
	1    0    0    -1  
$EndComp
Wire Wire Line
	5250 6650 5400 6650
Wire Wire Line
	5250 6500 5400 6500
Wire Wire Line
	5400 6350 5250 6350
Wire Wire Line
	5250 6200 5400 6200
Wire Wire Line
	5250 6050 5400 6050
Wire Wire Line
	5250 5900 5450 5900
Wire Wire Line
	5450 5600 5250 5600
Wire Wire Line
	5400 5450 5200 5450
Wire Wire Line
	5200 5300 5400 5300
Wire Wire Line
	5400 5150 5200 5150
$Comp
L Connector:Conn_01x01_Female J16
U 1 1 5C883494
P 9900 5000
F 0 "J16" H 9927 5026 50  0000 L CNN
F 1 "SVP" H 10050 5100 50  0000 L CNN
F 2 "Connector_PinHeader_1.00mm:PinHeader_1x01_P1.00mm_Vertical" H 9900 5000 50  0001 C CNN
F 3 "~" H 9900 5000 50  0001 C CNN
	1    9900 5000
	1    0    0    -1  
$EndComp
$Comp
L Connector:Conn_01x01_Female J17
U 1 1 5C883588
P 9900 5100
F 0 "J17" H 9927 5126 50  0000 L CNN
F 1 "SVN" H 10000 5050 50  0000 L CNN
F 2 "Connector_PinHeader_1.00mm:PinHeader_1x01_P1.00mm_Vertical" H 9900 5100 50  0001 C CNN
F 3 "~" H 9900 5100 50  0001 C CNN
	1    9900 5100
	1    0    0    -1  
$EndComp
Wire Wire Line
	9400 5000 9700 5000
Wire Wire Line
	9700 5100 9400 5100
$Comp
L Connector:Conn_01x01_Male J18
U 1 1 5C6F08FC
P 1000 2600
F 0 "J18" H 1106 2778 50  0000 C CNN
F 1 "BAT_IN" H 1106 2687 50  0000 C CNN
F 2 "Connector_PinHeader_1.00mm:PinHeader_1x01_P1.00mm_Vertical" H 1000 2600 50  0001 C CNN
F 3 "~" H 1000 2600 50  0001 C CNN
	1    1000 2600
	1    0    0    -1  
$EndComp
Wire Wire Line
	1200 2600 1450 2600
Wire Wire Line
	1450 2600 1450 2450
Wire Wire Line
	1450 2600 1450 2700
Connection ~ 1450 2600
$Comp
L Connector_Generic:Conn_02x02_Counter_Clockwise J19
U 1 1 5C6F75E5
P 1300 5000
F 0 "J19" H 1350 5217 50  0000 C CNN
F 1 "POWER_IN" H 1350 5126 50  0000 C CNN
F 2 "Connector_PinHeader_1.00mm:PinHeader_2x02_P1.00mm_Vertical" H 1300 5000 50  0001 C CNN
F 3 "~" H 1300 5000 50  0001 C CNN
	1    1300 5000
	0    1    1    0   
$EndComp
$Comp
L power:+3.3V #PWR015
U 1 1 5C6F776D
P 1250 4650
F 0 "#PWR015" H 1250 4500 50  0001 C CNN
F 1 "+3.3V" H 1265 4823 50  0000 C CNN
F 2 "" H 1250 4650 50  0001 C CNN
F 3 "" H 1250 4650 50  0001 C CNN
	1    1250 4650
	1    0    0    -1  
$EndComp
$Comp
L power:GNDD #PWR017
U 1 1 5C6F78A0
P 1250 5450
F 0 "#PWR017" H 1250 5200 50  0001 C CNN
F 1 "GNDD" H 1254 5295 50  0000 C CNN
F 2 "" H 1250 5450 50  0001 C CNN
F 3 "" H 1250 5450 50  0001 C CNN
	1    1250 5450
	1    0    0    -1  
$EndComp
Wire Wire Line
	1200 5450 1200 5300
Wire Wire Line
	1300 5300 1300 5450
Wire Wire Line
	1300 4650 1300 4800
Wire Wire Line
	1200 4800 1200 4650
Text GLabel 1250 1200 0    50   Input ~ 0
Rx
Text GLabel 4100 4900 2    50   Input ~ 0
Rx
Text GLabel 6850 2500 0    50   Input ~ 0
DIO1
Text GLabel 6850 2400 0    50   Input ~ 0
DIO2
Text GLabel 6850 2300 0    50   Input ~ 0
DIO3
Text GLabel 6850 2200 0    50   Input ~ 0
DIO4
Text GLabel 6850 2100 0    50   Input ~ 0
DIO5
Wire Wire Line
	6850 2100 6950 2100
Wire Wire Line
	6850 2200 6950 2200
Wire Wire Line
	6850 2300 6950 2300
Wire Wire Line
	6850 2400 6950 2400
Wire Wire Line
	6850 2500 6950 2500
NoConn ~ 8750 1450
NoConn ~ 6950 2100
NoConn ~ 6950 2200
NoConn ~ 6950 2300
NoConn ~ 6950 2400
NoConn ~ 6950 2500
$Comp
L power:GNDD #PWR0101
U 1 1 5C785575
P 1300 7300
F 0 "#PWR0101" H 1300 7050 50  0001 C CNN
F 1 "GNDD" H 1304 7145 50  0000 C CNN
F 2 "" H 1300 7300 50  0001 C CNN
F 3 "" H 1300 7300 50  0001 C CNN
	1    1300 7300
	1    0    0    -1  
$EndComp
$Comp
L power:+3.3V #PWR0102
U 1 1 5C7856DF
P 900 7100
F 0 "#PWR0102" H 900 6950 50  0001 C CNN
F 1 "+3.3V" H 915 7273 50  0000 C CNN
F 2 "" H 900 7100 50  0001 C CNN
F 3 "" H 900 7100 50  0001 C CNN
	1    900  7100
	1    0    0    -1  
$EndComp
$Comp
L power:PWR_FLAG #FLG0101
U 1 1 5C7861BC
P 1300 7100
F 0 "#FLG0101" H 1300 7175 50  0001 C CNN
F 1 "PWR_FLAG" H 1300 7274 50  0000 C CNN
F 2 "" H 1300 7100 50  0001 C CNN
F 3 "~" H 1300 7100 50  0001 C CNN
	1    1300 7100
	1    0    0    -1  
$EndComp
$Comp
L power:PWR_FLAG #FLG0102
U 1 1 5C78622F
P 900 7300
F 0 "#FLG0102" H 900 7375 50  0001 C CNN
F 1 "PWR_FLAG" H 900 7473 50  0000 C CNN
F 2 "" H 900 7300 50  0001 C CNN
F 3 "~" H 900 7300 50  0001 C CNN
	1    900  7300
	-1   0    0    1   
$EndComp
Wire Wire Line
	1300 7300 1300 7100
Wire Wire Line
	900  7100 900  7300
Text GLabel 10200 2100 2    50   Input ~ 0
RXEN
Text GLabel 10200 2200 2    50   Input ~ 0
TXEN
Wire Wire Line
	10200 2100 10100 2100
Wire Wire Line
	10200 2200 10100 2200
NoConn ~ 10100 2100
NoConn ~ 10100 2200
Text Notes 1000 6800 0    50   ~ 0
FLAGs
Wire Notes Line
	950  6750 700  6750
Text Notes 1400 2100 0    50   ~ 0
ADC
Wire Notes Line
	1350 2100 900  2100
Wire Notes Line
	900  2100 900  3750
Wire Notes Line
	900  3750 2100 3750
Wire Notes Line
	2100 3750 2100 2100
Wire Notes Line
	2100 2100 1600 2100
Text Notes 8350 900  0    50   ~ 0
ESP32
Wire Notes Line
	8350 900  6550 900 
Wire Notes Line
	6550 900  6550 3350
Wire Notes Line
	6550 3350 10550 3350
Wire Notes Line
	10550 3350 10550 900 
Wire Notes Line
	10550 900  8600 900 
Wire Notes Line
	1950 1350 1950 1700
Wire Notes Line
	1950 1700 1050 1700
Wire Notes Line
	1050 1700 1050 900 
Wire Notes Line
	1050 900  1950 900 
Wire Notes Line
	1950 900  1950 1250
Wire Notes Line
	3200 4150 2250 4150
Wire Notes Line
	2250 4150 2250 7450
Wire Notes Line
	6400 7450 6400 4150
Wire Notes Line
	6400 4150 5400 4150
Text Notes 5250 4150 0    50   ~ 0
IOs
Wire Notes Line
	4600 7450 4600 4150
Text Notes 3200 4150 0    50   ~ 0
ESP32
Wire Notes Line
	2250 7450 6400 7450
Wire Notes Line
	3450 4150 5200 4150
Wire Notes Line
	9850 4100 10750 4100
Wire Notes Line
	10750 4100 10750 5300
Wire Notes Line
	10750 5300 8900 5300
Wire Notes Line
	8900 5300 8900 4100
Wire Notes Line
	8900 4100 9550 4100
$Comp
L power:+BATT #PWR0103
U 1 1 5C6F95F8
P 1650 7100
F 0 "#PWR0103" H 1650 6950 50  0001 C CNN
F 1 "+BATT" H 1665 7273 50  0000 C CNN
F 2 "" H 1650 7100 50  0001 C CNN
F 3 "" H 1650 7100 50  0001 C CNN
	1    1650 7100
	1    0    0    -1  
$EndComp
$Comp
L power:PWR_FLAG #FLG0103
U 1 1 5C6F98A6
P 1650 7300
F 0 "#FLG0103" H 1650 7375 50  0001 C CNN
F 1 "PWR_FLAG" H 1650 7474 50  0000 C CNN
F 2 "" H 1650 7300 50  0001 C CNN
F 3 "~" H 1650 7300 50  0001 C CNN
	1    1650 7300
	-1   0    0    1   
$EndComp
Wire Notes Line
	700  6750 700  7600
Wire Wire Line
	1650 7300 1650 7100
Wire Notes Line
	700  7600 1850 7600
Wire Notes Line
	1850 7600 1850 6750
Wire Notes Line
	1850 6750 1250 6750
Text Notes 4200 800  0    50   ~ 0
PROG
Wire Notes Line
	4200 800  3750 800 
Wire Notes Line
	3750 800  3750 2650
Wire Notes Line
	3750 2650 5100 2650
Wire Notes Line
	5100 2650 5100 800 
Wire Notes Line
	5100 800  4400 800 
Wire Wire Line
	5450 5750 5250 5750
$Comp
L Connector:Conn_01x01_Female J9
U 1 1 5C858B96
P 5650 5750
F 0 "J9" H 5677 5776 50  0000 L CNN
F 1 "13" H 5850 5750 50  0000 L CNN
F 2 "Connector_PinHeader_1.00mm:PinHeader_1x01_P1.00mm_Vertical" H 5650 5750 50  0001 C CNN
F 3 "~" H 5650 5750 50  0001 C CNN
	1    5650 5750
	1    0    0    -1  
$EndComp
Text GLabel 5250 5750 0    50   Input ~ 0
IO13
Wire Wire Line
	1200 4650 1250 4650
Wire Wire Line
	1300 4650 1250 4650
Connection ~ 1250 4650
Wire Wire Line
	1300 5450 1250 5450
Wire Wire Line
	1200 5450 1250 5450
Connection ~ 1250 5450
$Comp
L Connector:Conn_01x01_Female J3
U 1 1 5C7117A0
P 2300 5800
F 0 "J3" H 2327 5826 50  0000 L CNN
F 1 "SD0" H 2550 5800 50  0000 L CNN
F 2 "Connector_PinHeader_1.00mm:PinHeader_1x01_P1.00mm_Vertical" H 2300 5800 50  0001 C CNN
F 3 "~" H 2300 5800 50  0001 C CNN
	1    2300 5800
	-1   0    0    1   
$EndComp
$Comp
L Connector:Conn_01x01_Female J20
U 1 1 5C7119AE
P 2300 5900
F 0 "J20" H 2327 5926 50  0000 L CNN
F 1 "SD1" H 2550 5900 50  0000 L CNN
F 2 "Connector_PinHeader_1.00mm:PinHeader_1x01_P1.00mm_Vertical" H 2300 5900 50  0001 C CNN
F 3 "~" H 2300 5900 50  0001 C CNN
	1    2300 5900
	-1   0    0    1   
$EndComp
$Comp
L Connector:Conn_01x01_Female J21
U 1 1 5C7119F8
P 2300 6000
F 0 "J21" H 2327 6026 50  0000 L CNN
F 1 "SHD" H 2550 6000 50  0000 L CNN
F 2 "Connector_PinHeader_1.00mm:PinHeader_1x01_P1.00mm_Vertical" H 2300 6000 50  0001 C CNN
F 3 "~" H 2300 6000 50  0001 C CNN
	1    2300 6000
	-1   0    0    1   
$EndComp
$Comp
L Connector:Conn_01x01_Female J22
U 1 1 5C711A44
P 2300 6100
F 0 "J22" H 2327 6126 50  0000 L CNN
F 1 "SWP" H 2550 6100 50  0000 L CNN
F 2 "Connector_PinHeader_1.00mm:PinHeader_1x01_P1.00mm_Vertical" H 2300 6100 50  0001 C CNN
F 3 "~" H 2300 6100 50  0001 C CNN
	1    2300 6100
	-1   0    0    1   
$EndComp
$Comp
L Connector:Conn_01x01_Female J23
U 1 1 5C711A92
P 2300 6200
F 0 "J23" H 2327 6226 50  0000 L CNN
F 1 "SCK" H 2550 6200 50  0000 L CNN
F 2 "Connector_PinHeader_1.00mm:PinHeader_1x01_P1.00mm_Vertical" H 2300 6200 50  0001 C CNN
F 3 "~" H 2300 6200 50  0001 C CNN
	1    2300 6200
	-1   0    0    1   
$EndComp
$Comp
L Connector:Conn_01x01_Female J24
U 1 1 5C711AE8
P 2300 6300
F 0 "J24" H 2327 6326 50  0000 L CNN
F 1 "SCS" H 2550 6300 50  0000 L CNN
F 2 "Connector_PinHeader_1.00mm:PinHeader_1x01_P1.00mm_Vertical" H 2300 6300 50  0001 C CNN
F 3 "~" H 2300 6300 50  0001 C CNN
	1    2300 6300
	-1   0    0    1   
$EndComp
$EndSCHEMATC
