EESchema Schematic File Version 4
EELAYER 26 0
EELAYER END
$Descr A4 11693 8268
encoding utf-8
Sheet 1 1
Title ""
Date ""
Rev ""
Comp ""
Comment1 ""
Comment2 ""
Comment3 ""
Comment4 ""
$EndDescr
$Comp
L Device:Battery_Cell BT?
U 1 1 5C86098F
P 2100 1600
F 0 "BT?" H 2218 1696 50  0000 L CNN
F 1 "Battery_Cell" H 2218 1605 50  0000 L CNN
F 2 "" V 2100 1660 50  0001 C CNN
F 3 "~" V 2100 1660 50  0001 C CNN
	1    2100 1600
	1    0    0    -1  
$EndComp
$Comp
L Device:Battery_Cell BT?
U 1 1 5C860A8F
P 2100 2250
F 0 "BT?" H 2218 2346 50  0000 L CNN
F 1 "Battery_Cell" H 2218 2255 50  0000 L CNN
F 2 "" V 2100 2310 50  0001 C CNN
F 3 "~" V 2100 2310 50  0001 C CNN
	1    2100 2250
	1    0    0    -1  
$EndComp
$Comp
L Device:Battery_Cell BT?
U 1 1 5C860ACD
P 2100 2850
F 0 "BT?" H 2218 2946 50  0000 L CNN
F 1 "Battery_Cell" H 2218 2855 50  0000 L CNN
F 2 "" V 2100 2910 50  0001 C CNN
F 3 "~" V 2100 2910 50  0001 C CNN
	1    2100 2850
	1    0    0    -1  
$EndComp
Wire Wire Line
	2100 2650 2100 2550
Wire Wire Line
	2100 2050 2100 1900
$Comp
L BMS:BMS-3S U?
U 1 1 5C860DB6
P 3800 2100
F 0 "U?" H 3800 2615 50  0000 C CNN
F 1 "BMS-3S" H 3800 2524 50  0000 C CNN
F 2 "" H 3800 2100 50  0001 C CNN
F 3 "" H 3800 2100 50  0001 C CNN
	1    3800 2100
	1    0    0    -1  
$EndComp
Wire Wire Line
	3350 2350 3150 2350
Wire Wire Line
	3150 2350 3150 3050
Wire Wire Line
	3150 3050 2100 3050
Wire Wire Line
	2100 3050 2100 2950
Wire Wire Line
	3350 2200 3000 2200
Wire Wire Line
	3000 2200 3000 2550
Wire Wire Line
	3000 2550 2100 2550
Connection ~ 2100 2550
Wire Wire Line
	2100 2550 2100 2350
Wire Wire Line
	3350 2050 3000 2050
Wire Wire Line
	3000 2050 3000 1900
Wire Wire Line
	3000 1900 2100 1900
Connection ~ 2100 1900
Wire Wire Line
	2100 1900 2100 1700
Wire Wire Line
	3350 1900 3150 1900
Wire Wire Line
	3150 1900 3150 1400
Wire Wire Line
	3150 1400 2100 1400
$Comp
L Connector:Jack-DC J?
U 1 1 5C8610BF
P 4800 1000
F 0 "J?" V 4809 1188 50  0000 L CNN
F 1 "Jack-DC" V 4900 1188 50  0000 L CNN
F 2 "" H 4850 960 50  0001 C CNN
F 3 "~" H 4850 960 50  0001 C CNN
	1    4800 1000
	0    1    1    0   
$EndComp
Wire Wire Line
	4900 1300 4900 2200
Wire Wire Line
	4900 2200 4250 2200
Wire Wire Line
	4250 2000 4700 2000
Wire Wire Line
	4700 2000 4700 1300
$Comp
L Regulator_Linear:LM1084-3.3 U?
U 1 1 5C8614C2
P 6300 2200
F 0 "U?" H 6300 2442 50  0000 C CNN
F 1 "LM1084-3.3" H 6300 2351 50  0000 C CNN
F 2 "" H 6300 2450 50  0001 C CIN
F 3 "http://www.ti.com/lit/ds/symlink/lm1084.pdf" H 6300 2200 50  0001 C CNN
	1    6300 2200
	1    0    0    -1  
$EndComp
Wire Wire Line
	6000 2200 5550 2200
Connection ~ 4900 2200
$Comp
L power:GND #PWR?
U 1 1 5C861892
P 6300 3050
F 0 "#PWR?" H 6300 2800 50  0001 C CNN
F 1 "GND" H 6305 2877 50  0000 C CNN
F 2 "" H 6300 3050 50  0001 C CNN
F 3 "" H 6300 3050 50  0001 C CNN
	1    6300 3050
	1    0    0    -1  
$EndComp
Connection ~ 4700 2000
$Comp
L pspice:CAP C?
U 1 1 5C861D0D
P 5550 2600
F 0 "C?" H 5728 2646 50  0000 L CNN
F 1 "CAP" H 5728 2555 50  0000 L CNN
F 2 "" H 5550 2600 50  0001 C CNN
F 3 "~" H 5550 2600 50  0001 C CNN
	1    5550 2600
	1    0    0    -1  
$EndComp
$Comp
L pspice:CAP C?
U 1 1 5C861D9E
P 7000 2600
F 0 "C?" H 7178 2646 50  0000 L CNN
F 1 "CAP" H 7178 2555 50  0000 L CNN
F 2 "" H 7000 2600 50  0001 C CNN
F 3 "~" H 7000 2600 50  0001 C CNN
	1    7000 2600
	1    0    0    -1  
$EndComp
$Comp
L Device:CP C?
U 1 1 5C8620E2
P 5100 2600
F 0 "C?" H 5218 2646 50  0000 L CNN
F 1 "CP" H 5218 2555 50  0000 L CNN
F 2 "" H 5138 2450 50  0001 C CNN
F 3 "~" H 5100 2600 50  0001 C CNN
	1    5100 2600
	1    0    0    -1  
$EndComp
$Comp
L Device:CP C?
U 1 1 5C8621A7
P 7550 2550
F 0 "C?" H 7668 2596 50  0000 L CNN
F 1 "CP" H 7668 2505 50  0000 L CNN
F 2 "" H 7588 2400 50  0001 C CNN
F 3 "~" H 7550 2550 50  0001 C CNN
	1    7550 2550
	1    0    0    -1  
$EndComp
Wire Wire Line
	5100 2450 5100 2200
Connection ~ 5100 2200
Wire Wire Line
	5100 2200 4900 2200
Wire Wire Line
	5550 2350 5550 2200
Connection ~ 5550 2200
Wire Wire Line
	5550 2200 5100 2200
Wire Wire Line
	7000 2350 7000 2200
Wire Wire Line
	7000 2200 6600 2200
Wire Wire Line
	7550 2400 7550 2200
Wire Wire Line
	7550 2200 7000 2200
Connection ~ 7000 2200
Wire Wire Line
	5100 2750 5100 3000
Wire Wire Line
	5100 3000 5550 3000
Connection ~ 6300 3000
Wire Wire Line
	6300 3000 6300 3050
Wire Wire Line
	5550 2850 5550 3000
Connection ~ 5550 3000
Wire Wire Line
	5550 3000 6300 3000
Wire Wire Line
	6300 3000 7000 3000
Wire Wire Line
	7550 3000 7550 2700
Wire Wire Line
	7000 2850 7000 3000
Connection ~ 7000 3000
Wire Wire Line
	7000 3000 7550 3000
Wire Wire Line
	6300 2500 6300 3000
Wire Wire Line
	4700 3000 5100 3000
Wire Wire Line
	4700 2000 4700 3000
Connection ~ 5100 3000
$Comp
L Regulator_Linear:LM1117-5.0 U?
U 1 1 5C864F3D
P 6300 3750
F 0 "U?" H 6300 3992 50  0000 C CNN
F 1 "LM1117-5.0" H 6300 3901 50  0000 C CNN
F 2 "" H 6300 3750 50  0001 C CNN
F 3 "http://www.ti.com/lit/ds/symlink/lm1117.pdf" H 6300 3750 50  0001 C CNN
	1    6300 3750
	1    0    0    -1  
$EndComp
Wire Wire Line
	6000 3750 5600 3750
Wire Wire Line
	4900 3750 4900 2200
$Comp
L Device:C_Small C?
U 1 1 5C865680
P 5600 4050
F 0 "C?" H 5692 4096 50  0000 L CNN
F 1 "C_Small" H 5692 4005 50  0000 L CNN
F 2 "" H 5600 4050 50  0001 C CNN
F 3 "~" H 5600 4050 50  0001 C CNN
	1    5600 4050
	1    0    0    -1  
$EndComp
$Comp
L Device:C_Small C?
U 1 1 5C865760
P 7000 4050
F 0 "C?" H 7092 4096 50  0000 L CNN
F 1 "C_Small" H 7092 4005 50  0000 L CNN
F 2 "" H 7000 4050 50  0001 C CNN
F 3 "~" H 7000 4050 50  0001 C CNN
	1    7000 4050
	1    0    0    -1  
$EndComp
$Comp
L Device:CP C?
U 1 1 5C8657E3
P 5300 4050
F 0 "C?" H 5418 4096 50  0000 L CNN
F 1 "CP" H 5418 4005 50  0000 L CNN
F 2 "" H 5338 3900 50  0001 C CNN
F 3 "~" H 5300 4050 50  0001 C CNN
	1    5300 4050
	1    0    0    -1  
$EndComp
$Comp
L Device:CP C?
U 1 1 5C865873
P 7600 4050
F 0 "C?" H 7718 4096 50  0000 L CNN
F 1 "CP" H 7718 4005 50  0000 L CNN
F 2 "" H 7638 3900 50  0001 C CNN
F 3 "~" H 7600 4050 50  0001 C CNN
	1    7600 4050
	1    0    0    -1  
$EndComp
Wire Wire Line
	7600 3900 7600 3750
Wire Wire Line
	7600 3750 7000 3750
Wire Wire Line
	7000 3950 7000 3750
Connection ~ 7000 3750
Wire Wire Line
	7000 3750 6600 3750
Wire Wire Line
	5600 3950 5600 3750
Connection ~ 5600 3750
Wire Wire Line
	5600 3750 5300 3750
Wire Wire Line
	5300 3900 5300 3750
Connection ~ 5300 3750
Wire Wire Line
	5300 3750 4900 3750
Wire Wire Line
	7600 4200 7600 4400
Wire Wire Line
	7600 4400 7000 4400
Wire Wire Line
	5300 4400 5300 4200
Wire Wire Line
	6300 4050 6300 4400
Connection ~ 6300 4400
Wire Wire Line
	6300 4400 5600 4400
Wire Wire Line
	5600 4150 5600 4400
Connection ~ 5600 4400
Wire Wire Line
	5600 4400 5300 4400
Wire Wire Line
	7000 4150 7000 4400
Connection ~ 7000 4400
Wire Wire Line
	7000 4400 6300 4400
Wire Wire Line
	5300 4400 4700 4400
Wire Wire Line
	4700 4400 4700 3000
Connection ~ 5300 4400
Connection ~ 4700 3000
Text GLabel 7950 2200 2    50   Input ~ 0
OUT3.3
Wire Wire Line
	7950 2200 7550 2200
Connection ~ 7550 2200
Text GLabel 7950 3750 2    50   Input ~ 0
OUT5.0
Wire Wire Line
	7950 3750 7600 3750
Connection ~ 7600 3750
$EndSCHEMATC
