(module EBYTE_E70-915T14S2 (layer F.Cu) (tedit 5C68C395)
  (descr www.ebyte.com/en/downpdf.aspx?id=213)
  (tags "Lora, Rf, 915Mhz, 915 Mhz")
  (attr smd)
  (fp_text reference REF** (at 0 0) (layer F.SilkS)
    (effects (font (size 1 1) (thickness 0.15)))
  )
  (fp_text value EBYTE_E70-915T14S2 (at -3.5 0 90) (layer F.Fab)
    (effects (font (size 1 1) (thickness 0.15)))
  )
  (fp_line (start 4.5 7.5) (end 4.5 9.5) (layer F.Fab) (width 0.15))
  (fp_line (start 6.5 7.5) (end 4.5 7.5) (layer F.Fab) (width 0.15))
  (fp_line (start 6.5 9.5) (end 6.5 7.5) (layer F.Fab) (width 0.15))
  (fp_line (start 4.5 9.5) (end 6.5 9.5) (layer F.Fab) (width 0.15))
  (fp_circle (center 5.5 8.5) (end 6.4 8.5) (layer F.Fab) (width 0.15))
  (fp_line (start 5.925 3.925) (end 1.925 3.925) (layer F.Fab) (width 0.15))
  (fp_line (start 5.925 3.925) (end 5.925 -8.925) (layer F.Fab) (width 0.15))
  (fp_line (start 1.925 8.925) (end 1.925 3.925) (layer F.Fab) (width 0.15))
  (fp_line (start -5.925 8.925) (end 1.925 8.925) (layer F.Fab) (width 0.15))
  (fp_line (start -6.925 -9.925) (end 6.925 -9.925) (layer F.Fab) (width 0.15))
  (fp_line (start -6.925 -9.925) (end -6.925 9.925) (layer F.Fab) (width 0.15))
  (fp_line (start -6.925 9.925) (end 6.925 9.925) (layer F.Fab) (width 0.15))
  (fp_line (start 6.925 -9.925) (end 6.925 9.925) (layer F.Fab) (width 0.15))
  (fp_line (start -7.529 -7.891) (end -7.529 -10.529) (layer F.SilkS) (width 0.15))
  (fp_line (start -7.529 -10.529) (end -3.836 -10.529) (layer F.SilkS) (width 0.15))
  (fp_line (start 7.529 -10.529) (end 3.836 -10.529) (layer F.SilkS) (width 0.15))
  (fp_line (start 7.529 -7.891) (end 7.529 -10.529) (layer F.SilkS) (width 0.15))
  (fp_line (start -7.529 10.2) (end 7.529 10.2) (layer F.SilkS) (width 0.15))
  (fp_line (start 7.529 10.2) (end 7.529 5.081) (layer F.SilkS) (width 0.15))
  (fp_line (start -7.529 10.2) (end -7.529 4.194) (layer F.SilkS) (width 0.15))
  (fp_line (start -7.779 10.45) (end 7.779 10.45) (layer F.CrtYd) (width 0.15))
  (fp_line (start -7.779 -10.779) (end 7.779 -10.779) (layer F.CrtYd) (width 0.15))
  (fp_line (start -7.779 10.45) (end -7.779 -10.779) (layer F.CrtYd) (width 0.15))
  (fp_line (start 7.779 10.45) (end 7.779 -10.779) (layer F.CrtYd) (width 0.15))
  (fp_line (start -5.925 -8.925) (end 5.925 -8.925) (layer F.Fab) (width 0.15))
  (fp_line (start -5.925 8.925) (end -5.925 -8.925) (layer F.Fab) (width 0.15))
  (pad 1 smd rect (at -6.619 4.5) (size 1.27 0.762) (layers F.Cu F.Paste F.Mask))
  (pad 2 smd rect (at -6.619 3.23) (size 1.27 0.762) (layers F.Cu F.Paste F.Mask))
  (pad 3 smd rect (at -6.619 -0.96) (size 1.27 0.762) (layers F.Cu F.Paste F.Mask))
  (pad 4 smd rect (at -6.619 0.31) (size 1.27 0.762) (layers F.Cu F.Paste F.Mask))
  (pad 5 smd rect (at -6.619 -2.23) (size 1.27 0.762) (layers F.Cu F.Paste F.Mask))
  (pad 6 smd rect (at -6.619 -3.5) (size 1.27 0.762) (layers F.Cu F.Paste F.Mask))
  (pad 7 smd rect (at -6.619 -4.77) (size 1.27 0.762) (layers F.Cu F.Paste F.Mask))
  (pad 8 smd rect (at -6.619 -6.04) (size 1.27 0.762) (layers F.Cu F.Paste F.Mask))
  (pad 9 smd rect (at -6.619 -7.31) (size 1.27 0.762) (layers F.Cu F.Paste F.Mask))
  (pad 10 smd rect (at -3.255 -9.619) (size 0.762 1.27) (layers F.Cu F.Paste F.Mask))
  (pad 11 smd rect (at -1.985 -9.619) (size 0.762 1.27) (layers F.Cu F.Paste F.Mask))
  (pad 12 smd rect (at -0.715 -9.619) (size 0.762 1.27) (layers F.Cu F.Paste F.Mask))
  (pad 13 smd rect (at 0.555 -9.619) (size 0.762 1.27) (layers F.Cu F.Paste F.Mask))
  (pad 14 smd rect (at 1.825 -9.619) (size 0.762 1.27) (layers F.Cu F.Paste F.Mask))
  (pad 15 smd rect (at 3.095 -9.619) (size 0.762 1.27) (layers F.Cu F.Paste F.Mask))
  (pad 16 smd rect (at 6.619 -7.31) (size 1.27 0.762) (layers F.Cu F.Paste F.Mask))
  (pad 17 smd rect (at 6.619 -6.04) (size 1.27 0.762) (layers F.Cu F.Paste F.Mask))
  (pad 18 smd rect (at 6.619 -4.77) (size 1.27 0.762) (layers F.Cu F.Paste F.Mask))
  (pad 19 smd rect (at 6.619 -3.5) (size 1.27 0.762) (layers F.Cu F.Paste F.Mask))
  (pad 20 smd rect (at 6.619 -2.23) (size 1.27 0.762) (layers F.Cu F.Paste F.Mask))
  (pad 21 smd rect (at 6.619 -0.96) (size 1.27 0.762) (layers F.Cu F.Paste F.Mask))
  (pad 22 smd rect (at 6.619 0.31) (size 1.27 0.762) (layers F.Cu F.Paste F.Mask))
  (pad 23 smd rect (at 6.619 3.23) (size 1.27 0.762) (layers F.Cu F.Paste F.Mask))
  (pad 24 smd rect (at 6.619 4.5) (size 1.27 0.762) (layers F.Cu F.Paste F.Mask))
)
